<?xml version="1.0" encoding="UTF-8"?>
<svg xmlns="http://www.w3.org/2000/svg" xmlns:xlink="http://www.w3.org/1999/xlink" width="176pt" height="27pt" viewBox="0 0 176 27" version="1.1">
<defs>
<g>
<symbol overflow="visible" id="glyph0-0">
<path style="stroke:none;" d="M 0.03125 0 L 0.03125 -0.671875 L 0.296875 -0.671875 L 0.296875 0 Z M 0.0625 -0.03125 L 0.265625 -0.03125 L 0.265625 -0.640625 L 0.0625 -0.640625 Z M 0.0625 -0.03125 "/>
</symbol>
<symbol overflow="visible" id="glyph0-1">
<path style="stroke:none;" d="M 0.390625 -0.109375 C 0.410156 -0.109375 0.429688 -0.109375 0.453125 -0.109375 C 0.472656 -0.117188 0.488281 -0.128906 0.5 -0.140625 C 0.519531 -0.148438 0.535156 -0.160156 0.546875 -0.171875 C 0.554688 -0.191406 0.5625 -0.210938 0.5625 -0.234375 L 0.6875 -0.1875 C 0.6875 -0.164062 0.675781 -0.140625 0.65625 -0.109375 C 0.632812 -0.0859375 0.613281 -0.0664062 0.59375 -0.046875 C 0.570312 -0.0351562 0.539062 -0.0195312 0.5 0 C 0.46875 0.0078125 0.429688 0.015625 0.390625 0.015625 C 0.328125 0.015625 0.273438 0.00390625 0.234375 -0.015625 C 0.191406 -0.0351562 0.15625 -0.0625 0.125 -0.09375 C 0.09375 -0.125 0.0703125 -0.160156 0.0625 -0.203125 C 0.0507812 -0.242188 0.046875 -0.289062 0.046875 -0.34375 C 0.046875 -0.394531 0.0507812 -0.441406 0.0625 -0.484375 C 0.0703125 -0.535156 0.09375 -0.578125 0.125 -0.609375 C 0.15625 -0.640625 0.191406 -0.660156 0.234375 -0.671875 C 0.273438 -0.691406 0.320312 -0.703125 0.375 -0.703125 C 0.425781 -0.703125 0.46875 -0.695312 0.5 -0.6875 C 0.53125 -0.675781 0.554688 -0.660156 0.578125 -0.640625 C 0.609375 -0.628906 0.628906 -0.609375 0.640625 -0.578125 C 0.660156 -0.554688 0.675781 -0.53125 0.6875 -0.5 L 0.5625 -0.46875 C 0.550781 -0.488281 0.539062 -0.503906 0.53125 -0.515625 C 0.53125 -0.523438 0.519531 -0.535156 0.5 -0.546875 C 0.488281 -0.554688 0.472656 -0.5625 0.453125 -0.5625 C 0.429688 -0.570312 0.410156 -0.578125 0.390625 -0.578125 C 0.347656 -0.578125 0.3125 -0.570312 0.28125 -0.5625 C 0.257812 -0.550781 0.238281 -0.535156 0.21875 -0.515625 C 0.207031 -0.492188 0.195312 -0.46875 0.1875 -0.4375 C 0.1875 -0.414062 0.1875 -0.382812 0.1875 -0.34375 C 0.1875 -0.3125 0.1875 -0.28125 0.1875 -0.25 C 0.195312 -0.21875 0.210938 -0.191406 0.234375 -0.171875 C 0.253906 -0.148438 0.273438 -0.132812 0.296875 -0.125 C 0.316406 -0.113281 0.347656 -0.109375 0.390625 -0.109375 Z M 0.390625 -0.109375 "/>
</symbol>
<symbol overflow="visible" id="glyph0-2">
<path style="stroke:none;" d="M 0.375 -0.578125 L 0.375 0 L 0.234375 0 L 0.234375 -0.578125 L 0.015625 -0.578125 L 0.015625 -0.6875 L 0.59375 -0.6875 L 0.59375 -0.578125 Z M 0.375 -0.578125 "/>
</symbol>
<symbol overflow="visible" id="glyph0-3">
<path style="stroke:none;" d="M 0.546875 0 L 0.5 -0.171875 L 0.234375 -0.171875 L 0.171875 0 L 0.03125 0 L 0.28125 -0.6875 L 0.453125 -0.6875 L 0.703125 0 Z M 0.390625 -0.484375 C 0.390625 -0.492188 0.382812 -0.503906 0.375 -0.515625 C 0.375 -0.523438 0.367188 -0.535156 0.359375 -0.546875 C 0.359375 -0.554688 0.359375 -0.5625 0.359375 -0.5625 C 0.359375 -0.570312 0.359375 -0.578125 0.359375 -0.578125 C 0.359375 -0.578125 0.359375 -0.570312 0.359375 -0.5625 C 0.359375 -0.5625 0.351562 -0.554688 0.34375 -0.546875 C 0.34375 -0.535156 0.34375 -0.523438 0.34375 -0.515625 C 0.34375 -0.503906 0.335938 -0.492188 0.328125 -0.484375 L 0.265625 -0.28125 L 0.453125 -0.28125 Z M 0.390625 -0.484375 "/>
</symbol>
<symbol overflow="visible" id="glyph0-4">
<path style="stroke:none;" d="M 0.390625 -0.109375 C 0.410156 -0.109375 0.429688 -0.109375 0.453125 -0.109375 C 0.472656 -0.109375 0.488281 -0.109375 0.5 -0.109375 C 0.519531 -0.117188 0.535156 -0.128906 0.546875 -0.140625 C 0.566406 -0.148438 0.578125 -0.15625 0.578125 -0.15625 L 0.578125 -0.25 L 0.421875 -0.25 L 0.421875 -0.359375 L 0.71875 -0.359375 L 0.71875 -0.109375 C 0.695312 -0.0976562 0.675781 -0.0820312 0.65625 -0.0625 C 0.632812 -0.0507812 0.609375 -0.0390625 0.578125 -0.03125 C 0.554688 -0.0195312 0.523438 -0.0078125 0.484375 0 C 0.453125 0.0078125 0.421875 0.015625 0.390625 0.015625 C 0.328125 0.015625 0.273438 0.00390625 0.234375 -0.015625 C 0.191406 -0.0351562 0.15625 -0.0625 0.125 -0.09375 C 0.09375 -0.125 0.0703125 -0.160156 0.0625 -0.203125 C 0.0507812 -0.242188 0.046875 -0.289062 0.046875 -0.34375 C 0.046875 -0.394531 0.0507812 -0.441406 0.0625 -0.484375 C 0.0703125 -0.535156 0.09375 -0.578125 0.125 -0.609375 C 0.15625 -0.640625 0.191406 -0.660156 0.234375 -0.671875 C 0.273438 -0.691406 0.328125 -0.703125 0.390625 -0.703125 C 0.429688 -0.703125 0.46875 -0.695312 0.5 -0.6875 C 0.539062 -0.675781 0.570312 -0.660156 0.59375 -0.640625 C 0.625 -0.628906 0.644531 -0.613281 0.65625 -0.59375 C 0.675781 -0.570312 0.691406 -0.546875 0.703125 -0.515625 L 0.5625 -0.484375 C 0.5625 -0.492188 0.554688 -0.503906 0.546875 -0.515625 C 0.535156 -0.535156 0.519531 -0.546875 0.5 -0.546875 C 0.488281 -0.554688 0.472656 -0.5625 0.453125 -0.5625 C 0.441406 -0.570312 0.421875 -0.578125 0.390625 -0.578125 C 0.359375 -0.578125 0.328125 -0.570312 0.296875 -0.5625 C 0.273438 -0.550781 0.253906 -0.535156 0.234375 -0.515625 C 0.210938 -0.492188 0.195312 -0.46875 0.1875 -0.4375 C 0.1875 -0.414062 0.1875 -0.382812 0.1875 -0.34375 C 0.1875 -0.3125 0.191406 -0.28125 0.203125 -0.25 C 0.210938 -0.21875 0.222656 -0.191406 0.234375 -0.171875 C 0.253906 -0.148438 0.273438 -0.132812 0.296875 -0.125 C 0.328125 -0.113281 0.359375 -0.109375 0.390625 -0.109375 Z M 0.390625 -0.109375 "/>
</symbol>
<symbol overflow="visible" id="glyph0-5">
<path style="stroke:none;" d="M 0.0625 0 L 0.0625 -0.40625 C 0.0625 -0.414062 0.0625 -0.425781 0.0625 -0.4375 C 0.0625 -0.445312 0.0625 -0.457031 0.0625 -0.46875 C 0.0625 -0.488281 0.0625 -0.5 0.0625 -0.5 C 0.0625 -0.507812 0.0625 -0.519531 0.0625 -0.53125 L 0.203125 -0.53125 C 0.203125 -0.519531 0.203125 -0.507812 0.203125 -0.5 C 0.203125 -0.5 0.203125 -0.488281 0.203125 -0.46875 C 0.203125 -0.457031 0.203125 -0.445312 0.203125 -0.4375 C 0.203125 -0.425781 0.203125 -0.421875 0.203125 -0.421875 C 0.210938 -0.429688 0.21875 -0.441406 0.21875 -0.453125 C 0.226562 -0.472656 0.238281 -0.488281 0.25 -0.5 C 0.257812 -0.507812 0.269531 -0.515625 0.28125 -0.515625 C 0.289062 -0.523438 0.304688 -0.53125 0.328125 -0.53125 C 0.335938 -0.53125 0.347656 -0.53125 0.359375 -0.53125 C 0.367188 -0.53125 0.375 -0.53125 0.375 -0.53125 L 0.375 -0.421875 C 0.363281 -0.421875 0.351562 -0.421875 0.34375 -0.421875 C 0.332031 -0.421875 0.320312 -0.421875 0.3125 -0.421875 C 0.28125 -0.421875 0.253906 -0.40625 0.234375 -0.375 C 0.210938 -0.351562 0.203125 -0.316406 0.203125 -0.265625 L 0.203125 0 Z M 0.0625 0 "/>
</symbol>
<symbol overflow="visible" id="glyph0-6">
<path style="stroke:none;" d="M 0.28125 0.015625 C 0.25 0.015625 0.21875 0.0078125 0.1875 0 C 0.15625 -0.0195312 0.128906 -0.0390625 0.109375 -0.0625 C 0.0859375 -0.0820312 0.0703125 -0.109375 0.0625 -0.140625 C 0.0507812 -0.179688 0.046875 -0.222656 0.046875 -0.265625 C 0.046875 -0.316406 0.0507812 -0.359375 0.0625 -0.390625 C 0.0703125 -0.429688 0.0859375 -0.460938 0.109375 -0.484375 C 0.140625 -0.503906 0.164062 -0.515625 0.1875 -0.515625 C 0.21875 -0.523438 0.25 -0.53125 0.28125 -0.53125 C 0.320312 -0.53125 0.359375 -0.523438 0.390625 -0.515625 C 0.421875 -0.503906 0.445312 -0.484375 0.46875 -0.453125 C 0.488281 -0.429688 0.5 -0.398438 0.5 -0.359375 C 0.507812 -0.328125 0.515625 -0.285156 0.515625 -0.234375 L 0.1875 -0.234375 C 0.1875 -0.210938 0.1875 -0.191406 0.1875 -0.171875 C 0.1875 -0.148438 0.191406 -0.132812 0.203125 -0.125 C 0.210938 -0.113281 0.222656 -0.101562 0.234375 -0.09375 C 0.253906 -0.0820312 0.273438 -0.078125 0.296875 -0.078125 C 0.316406 -0.078125 0.332031 -0.0820312 0.34375 -0.09375 C 0.363281 -0.101562 0.378906 -0.117188 0.390625 -0.140625 L 0.515625 -0.140625 C 0.503906 -0.117188 0.492188 -0.0976562 0.484375 -0.078125 C 0.472656 -0.0664062 0.457031 -0.0507812 0.4375 -0.03125 C 0.425781 -0.0195312 0.40625 -0.0078125 0.375 0 C 0.351562 0.0078125 0.320312 0.015625 0.28125 0.015625 Z M 0.28125 -0.453125 C 0.269531 -0.453125 0.257812 -0.445312 0.25 -0.4375 C 0.238281 -0.4375 0.226562 -0.429688 0.21875 -0.421875 C 0.207031 -0.410156 0.195312 -0.394531 0.1875 -0.375 C 0.1875 -0.363281 0.1875 -0.347656 0.1875 -0.328125 L 0.390625 -0.328125 C 0.390625 -0.367188 0.378906 -0.398438 0.359375 -0.421875 C 0.335938 -0.441406 0.3125 -0.453125 0.28125 -0.453125 Z M 0.28125 -0.453125 "/>
</symbol>
<symbol overflow="visible" id="glyph0-7">
<path style="stroke:none;" d="M 0.234375 -0.4375 L 0.234375 0 L 0.09375 0 L 0.09375 -0.4375 L 0.015625 -0.4375 L 0.015625 -0.53125 L 0.09375 -0.53125 L 0.09375 -0.578125 C 0.09375 -0.597656 0.09375 -0.617188 0.09375 -0.640625 C 0.101562 -0.660156 0.113281 -0.675781 0.125 -0.6875 C 0.132812 -0.695312 0.148438 -0.703125 0.171875 -0.703125 C 0.191406 -0.710938 0.21875 -0.71875 0.25 -0.71875 C 0.257812 -0.71875 0.269531 -0.71875 0.28125 -0.71875 C 0.300781 -0.71875 0.316406 -0.71875 0.328125 -0.71875 L 0.328125 -0.625 C 0.328125 -0.625 0.320312 -0.625 0.3125 -0.625 C 0.300781 -0.632812 0.296875 -0.640625 0.296875 -0.640625 C 0.285156 -0.640625 0.273438 -0.632812 0.265625 -0.625 C 0.253906 -0.625 0.242188 -0.617188 0.234375 -0.609375 C 0.234375 -0.609375 0.234375 -0.601562 0.234375 -0.59375 C 0.234375 -0.582031 0.234375 -0.570312 0.234375 -0.5625 L 0.234375 -0.53125 L 0.328125 -0.53125 L 0.328125 -0.4375 Z M 0.234375 -0.4375 "/>
</symbol>
<symbol overflow="visible" id="glyph0-8">
<path style="stroke:none;" d="M 0.515625 -0.15625 C 0.515625 -0.125 0.507812 -0.0976562 0.5 -0.078125 C 0.488281 -0.0664062 0.472656 -0.0507812 0.453125 -0.03125 C 0.429688 -0.0195312 0.40625 -0.0078125 0.375 0 C 0.34375 0.0078125 0.3125 0.015625 0.28125 0.015625 C 0.25 0.015625 0.21875 0.0078125 0.1875 0 C 0.15625 0 0.128906 -0.00390625 0.109375 -0.015625 C 0.0976562 -0.0234375 0.0820312 -0.0390625 0.0625 -0.0625 C 0.0507812 -0.0820312 0.0390625 -0.101562 0.03125 -0.125 L 0.15625 -0.15625 C 0.15625 -0.132812 0.160156 -0.117188 0.171875 -0.109375 C 0.179688 -0.0976562 0.191406 -0.09375 0.203125 -0.09375 C 0.210938 -0.09375 0.222656 -0.0859375 0.234375 -0.078125 C 0.242188 -0.078125 0.257812 -0.078125 0.28125 -0.078125 C 0.289062 -0.078125 0.300781 -0.078125 0.3125 -0.078125 C 0.332031 -0.0859375 0.347656 -0.09375 0.359375 -0.09375 C 0.367188 -0.09375 0.375 -0.0976562 0.375 -0.109375 C 0.382812 -0.117188 0.390625 -0.128906 0.390625 -0.140625 C 0.390625 -0.148438 0.382812 -0.160156 0.375 -0.171875 C 0.363281 -0.179688 0.351562 -0.1875 0.34375 -0.1875 C 0.332031 -0.195312 0.316406 -0.203125 0.296875 -0.203125 C 0.273438 -0.210938 0.253906 -0.21875 0.234375 -0.21875 C 0.210938 -0.226562 0.191406 -0.234375 0.171875 -0.234375 C 0.148438 -0.242188 0.128906 -0.253906 0.109375 -0.265625 C 0.0976562 -0.273438 0.0859375 -0.289062 0.078125 -0.3125 C 0.0664062 -0.332031 0.0625 -0.351562 0.0625 -0.375 C 0.0625 -0.40625 0.0625 -0.425781 0.0625 -0.4375 C 0.0703125 -0.457031 0.0859375 -0.472656 0.109375 -0.484375 C 0.128906 -0.503906 0.148438 -0.515625 0.171875 -0.515625 C 0.203125 -0.523438 0.238281 -0.53125 0.28125 -0.53125 C 0.3125 -0.53125 0.335938 -0.523438 0.359375 -0.515625 C 0.378906 -0.515625 0.398438 -0.507812 0.421875 -0.5 C 0.441406 -0.488281 0.457031 -0.472656 0.46875 -0.453125 C 0.488281 -0.441406 0.5 -0.421875 0.5 -0.390625 L 0.375 -0.390625 C 0.375 -0.398438 0.367188 -0.40625 0.359375 -0.40625 C 0.359375 -0.414062 0.351562 -0.421875 0.34375 -0.421875 C 0.332031 -0.429688 0.320312 -0.4375 0.3125 -0.4375 C 0.300781 -0.445312 0.289062 -0.453125 0.28125 -0.453125 C 0.25 -0.453125 0.222656 -0.445312 0.203125 -0.4375 C 0.191406 -0.425781 0.1875 -0.410156 0.1875 -0.390625 C 0.1875 -0.378906 0.1875 -0.367188 0.1875 -0.359375 C 0.195312 -0.359375 0.207031 -0.351562 0.21875 -0.34375 C 0.226562 -0.34375 0.242188 -0.335938 0.265625 -0.328125 C 0.285156 -0.328125 0.300781 -0.328125 0.3125 -0.328125 C 0.34375 -0.316406 0.367188 -0.304688 0.390625 -0.296875 C 0.410156 -0.296875 0.429688 -0.285156 0.453125 -0.265625 C 0.472656 -0.253906 0.488281 -0.238281 0.5 -0.21875 C 0.507812 -0.207031 0.515625 -0.1875 0.515625 -0.15625 Z M 0.515625 -0.15625 "/>
</symbol>
<symbol overflow="visible" id="glyph0-9">
<path style="stroke:none;" d="M 0.046875 -0.265625 C 0.046875 -0.304688 0.046875 -0.34375 0.046875 -0.375 C 0.0546875 -0.40625 0.0664062 -0.429688 0.078125 -0.453125 C 0.0976562 -0.484375 0.117188 -0.503906 0.140625 -0.515625 C 0.171875 -0.523438 0.207031 -0.53125 0.25 -0.53125 C 0.28125 -0.53125 0.304688 -0.523438 0.328125 -0.515625 C 0.359375 -0.503906 0.382812 -0.476562 0.40625 -0.4375 C 0.40625 -0.445312 0.40625 -0.457031 0.40625 -0.46875 C 0.40625 -0.476562 0.40625 -0.484375 0.40625 -0.484375 C 0.40625 -0.492188 0.40625 -0.503906 0.40625 -0.515625 C 0.40625 -0.523438 0.40625 -0.53125 0.40625 -0.53125 L 0.546875 -0.53125 C 0.546875 -0.519531 0.546875 -0.503906 0.546875 -0.484375 C 0.546875 -0.460938 0.546875 -0.4375 0.546875 -0.40625 L 0.546875 0.203125 L 0.40625 0.203125 L 0.40625 -0.015625 C 0.40625 -0.0234375 0.40625 -0.03125 0.40625 -0.03125 C 0.40625 -0.0390625 0.40625 -0.0507812 0.40625 -0.0625 C 0.40625 -0.0703125 0.40625 -0.0820312 0.40625 -0.09375 C 0.382812 -0.0507812 0.359375 -0.0195312 0.328125 0 C 0.304688 0.0078125 0.273438 0.015625 0.234375 0.015625 C 0.203125 0.015625 0.171875 0.0078125 0.140625 0 C 0.117188 -0.0195312 0.0976562 -0.0390625 0.078125 -0.0625 C 0.0664062 -0.09375 0.0546875 -0.125 0.046875 -0.15625 C 0.046875 -0.1875 0.046875 -0.222656 0.046875 -0.265625 Z M 0.40625 -0.265625 C 0.40625 -0.296875 0.398438 -0.320312 0.390625 -0.34375 C 0.390625 -0.375 0.382812 -0.394531 0.375 -0.40625 C 0.363281 -0.414062 0.347656 -0.421875 0.328125 -0.421875 C 0.316406 -0.429688 0.304688 -0.4375 0.296875 -0.4375 C 0.273438 -0.4375 0.257812 -0.429688 0.25 -0.421875 C 0.238281 -0.421875 0.226562 -0.410156 0.21875 -0.390625 C 0.207031 -0.378906 0.195312 -0.363281 0.1875 -0.34375 C 0.1875 -0.320312 0.1875 -0.296875 0.1875 -0.265625 C 0.1875 -0.140625 0.222656 -0.078125 0.296875 -0.078125 C 0.304688 -0.078125 0.316406 -0.0820312 0.328125 -0.09375 C 0.347656 -0.101562 0.363281 -0.113281 0.375 -0.125 C 0.382812 -0.132812 0.390625 -0.148438 0.390625 -0.171875 C 0.398438 -0.203125 0.40625 -0.234375 0.40625 -0.265625 Z M 0.40625 -0.265625 "/>
</symbol>
<symbol overflow="visible" id="glyph0-10">
<path style="stroke:none;" d="M 0.078125 0.21875 L 0.078125 -0.71875 L 0.203125 -0.71875 L 0.203125 0.21875 Z M 0.078125 0.21875 "/>
</symbol>
<symbol overflow="visible" id="glyph0-11">
<path style="stroke:none;" d="M 0.484375 0 L 0.1875 -0.53125 C 0.1875 -0.519531 0.1875 -0.503906 0.1875 -0.484375 C 0.1875 -0.472656 0.1875 -0.457031 0.1875 -0.4375 C 0.1875 -0.425781 0.1875 -0.414062 0.1875 -0.40625 L 0.1875 0 L 0.0625 0 L 0.0625 -0.6875 L 0.234375 -0.6875 L 0.53125 -0.15625 C 0.53125 -0.164062 0.53125 -0.179688 0.53125 -0.203125 C 0.53125 -0.210938 0.53125 -0.222656 0.53125 -0.234375 C 0.53125 -0.253906 0.53125 -0.269531 0.53125 -0.28125 L 0.53125 -0.6875 L 0.65625 -0.6875 L 0.65625 0 Z M 0.484375 0 "/>
</symbol>
<symbol overflow="visible" id="glyph0-12">
<path style="stroke:none;" d="M -0.015625 0.125 L -0.015625 0.078125 L 0.5625 0.078125 L 0.5625 0.125 Z M -0.015625 0.125 "/>
</symbol>
<symbol overflow="visible" id="glyph0-13">
<path style="stroke:none;" d="M 0.515625 -0.34375 C 0.515625 -0.28125 0.507812 -0.222656 0.5 -0.171875 C 0.488281 -0.128906 0.472656 -0.09375 0.453125 -0.0625 C 0.429688 -0.0390625 0.40625 -0.0195312 0.375 0 C 0.34375 0.0078125 0.3125 0.015625 0.28125 0.015625 C 0.238281 0.015625 0.203125 0.0078125 0.171875 0 C 0.148438 -0.0195312 0.128906 -0.0390625 0.109375 -0.0625 C 0.0859375 -0.09375 0.0703125 -0.128906 0.0625 -0.171875 C 0.0507812 -0.222656 0.046875 -0.28125 0.046875 -0.34375 C 0.046875 -0.414062 0.0507812 -0.472656 0.0625 -0.515625 C 0.0703125 -0.554688 0.0859375 -0.59375 0.109375 -0.625 C 0.128906 -0.65625 0.148438 -0.675781 0.171875 -0.6875 C 0.203125 -0.695312 0.238281 -0.703125 0.28125 -0.703125 C 0.3125 -0.703125 0.34375 -0.695312 0.375 -0.6875 C 0.40625 -0.675781 0.429688 -0.65625 0.453125 -0.625 C 0.472656 -0.59375 0.488281 -0.554688 0.5 -0.515625 C 0.507812 -0.472656 0.515625 -0.414062 0.515625 -0.34375 Z M 0.375 -0.34375 C 0.375 -0.394531 0.367188 -0.4375 0.359375 -0.46875 C 0.359375 -0.5 0.351562 -0.519531 0.34375 -0.53125 C 0.34375 -0.550781 0.335938 -0.566406 0.328125 -0.578125 C 0.316406 -0.585938 0.300781 -0.59375 0.28125 -0.59375 C 0.257812 -0.59375 0.242188 -0.585938 0.234375 -0.578125 C 0.222656 -0.566406 0.210938 -0.550781 0.203125 -0.53125 C 0.191406 -0.519531 0.179688 -0.5 0.171875 -0.46875 C 0.171875 -0.4375 0.171875 -0.394531 0.171875 -0.34375 C 0.171875 -0.300781 0.171875 -0.257812 0.171875 -0.21875 C 0.179688 -0.1875 0.191406 -0.160156 0.203125 -0.140625 C 0.210938 -0.128906 0.222656 -0.117188 0.234375 -0.109375 C 0.242188 -0.0976562 0.257812 -0.09375 0.28125 -0.09375 C 0.289062 -0.09375 0.300781 -0.0976562 0.3125 -0.109375 C 0.332031 -0.117188 0.34375 -0.128906 0.34375 -0.140625 C 0.351562 -0.160156 0.359375 -0.1875 0.359375 -0.21875 C 0.367188 -0.257812 0.375 -0.300781 0.375 -0.34375 Z M 0.375 -0.34375 "/>
</symbol>
<symbol overflow="visible" id="glyph0-14">
<path style="stroke:none;" d="M 0.03125 0 L 0.03125 -0.09375 C 0.0507812 -0.125 0.0703125 -0.15625 0.09375 -0.1875 C 0.113281 -0.21875 0.132812 -0.242188 0.15625 -0.265625 C 0.1875 -0.285156 0.210938 -0.304688 0.234375 -0.328125 C 0.253906 -0.347656 0.273438 -0.363281 0.296875 -0.375 C 0.316406 -0.394531 0.332031 -0.414062 0.34375 -0.4375 C 0.351562 -0.457031 0.359375 -0.476562 0.359375 -0.5 C 0.359375 -0.53125 0.351562 -0.550781 0.34375 -0.5625 C 0.332031 -0.582031 0.3125 -0.59375 0.28125 -0.59375 C 0.25 -0.59375 0.222656 -0.582031 0.203125 -0.5625 C 0.191406 -0.550781 0.179688 -0.53125 0.171875 -0.5 L 0.046875 -0.5 C 0.046875 -0.53125 0.0507812 -0.554688 0.0625 -0.578125 C 0.0703125 -0.597656 0.0820312 -0.617188 0.09375 -0.640625 C 0.113281 -0.660156 0.140625 -0.675781 0.171875 -0.6875 C 0.203125 -0.695312 0.238281 -0.703125 0.28125 -0.703125 C 0.3125 -0.703125 0.34375 -0.695312 0.375 -0.6875 C 0.40625 -0.675781 0.425781 -0.660156 0.4375 -0.640625 C 0.457031 -0.628906 0.472656 -0.609375 0.484375 -0.578125 C 0.492188 -0.554688 0.5 -0.53125 0.5 -0.5 C 0.5 -0.46875 0.492188 -0.4375 0.484375 -0.40625 C 0.472656 -0.382812 0.457031 -0.363281 0.4375 -0.34375 C 0.414062 -0.320312 0.390625 -0.300781 0.359375 -0.28125 C 0.335938 -0.257812 0.316406 -0.238281 0.296875 -0.21875 C 0.273438 -0.207031 0.253906 -0.191406 0.234375 -0.171875 C 0.210938 -0.148438 0.203125 -0.128906 0.203125 -0.109375 L 0.515625 -0.109375 L 0.515625 0 Z M 0.03125 0 "/>
</symbol>
<symbol overflow="visible" id="glyph0-15">
<path style="stroke:none;" d="M 0.53125 -0.234375 C 0.53125 -0.191406 0.523438 -0.15625 0.515625 -0.125 C 0.503906 -0.101562 0.488281 -0.0820312 0.46875 -0.0625 C 0.445312 -0.0390625 0.421875 -0.0195312 0.390625 0 C 0.359375 0.0078125 0.320312 0.015625 0.28125 0.015625 C 0.238281 0.015625 0.203125 0.0078125 0.171875 0 C 0.140625 -0.0078125 0.113281 -0.0195312 0.09375 -0.03125 C 0.0820312 -0.0507812 0.0664062 -0.0703125 0.046875 -0.09375 C 0.0351562 -0.125 0.03125 -0.148438 0.03125 -0.171875 L 0.171875 -0.1875 C 0.171875 -0.175781 0.171875 -0.164062 0.171875 -0.15625 C 0.179688 -0.144531 0.191406 -0.132812 0.203125 -0.125 C 0.210938 -0.113281 0.222656 -0.101562 0.234375 -0.09375 C 0.242188 -0.09375 0.257812 -0.09375 0.28125 -0.09375 C 0.3125 -0.09375 0.335938 -0.101562 0.359375 -0.125 C 0.378906 -0.15625 0.390625 -0.1875 0.390625 -0.21875 C 0.390625 -0.238281 0.382812 -0.253906 0.375 -0.265625 C 0.375 -0.285156 0.367188 -0.300781 0.359375 -0.3125 C 0.347656 -0.320312 0.332031 -0.328125 0.3125 -0.328125 C 0.300781 -0.335938 0.289062 -0.34375 0.28125 -0.34375 C 0.257812 -0.34375 0.238281 -0.335938 0.21875 -0.328125 C 0.207031 -0.316406 0.195312 -0.304688 0.1875 -0.296875 L 0.046875 -0.296875 L 0.078125 -0.6875 L 0.484375 -0.6875 L 0.484375 -0.59375 L 0.203125 -0.59375 L 0.1875 -0.40625 C 0.195312 -0.425781 0.210938 -0.4375 0.234375 -0.4375 C 0.253906 -0.445312 0.28125 -0.453125 0.3125 -0.453125 C 0.34375 -0.453125 0.367188 -0.445312 0.390625 -0.4375 C 0.421875 -0.425781 0.445312 -0.410156 0.46875 -0.390625 C 0.488281 -0.367188 0.503906 -0.34375 0.515625 -0.3125 C 0.523438 -0.289062 0.53125 -0.265625 0.53125 -0.234375 Z M 0.53125 -0.234375 "/>
</symbol>
<symbol overflow="visible" id="glyph0-16">
<path style="stroke:none;" d="M 0.0625 0 L 0.0625 -0.109375 L 0.234375 -0.109375 L 0.234375 -0.578125 L 0.0625 -0.46875 L 0.0625 -0.578125 L 0.234375 -0.6875 L 0.375 -0.6875 L 0.375 -0.109375 L 0.53125 -0.109375 L 0.53125 0 Z M 0.0625 0 "/>
</symbol>
<symbol overflow="visible" id="glyph0-17">
<path style="stroke:none;" d="M 0.515625 -0.21875 C 0.515625 -0.1875 0.507812 -0.15625 0.5 -0.125 C 0.488281 -0.101562 0.472656 -0.0820312 0.453125 -0.0625 C 0.441406 -0.0390625 0.421875 -0.0195312 0.390625 0 C 0.359375 0.0078125 0.320312 0.015625 0.28125 0.015625 C 0.207031 0.015625 0.144531 -0.0078125 0.09375 -0.0625 C 0.0507812 -0.125 0.03125 -0.210938 0.03125 -0.328125 C 0.03125 -0.453125 0.0507812 -0.546875 0.09375 -0.609375 C 0.144531 -0.671875 0.210938 -0.703125 0.296875 -0.703125 C 0.316406 -0.703125 0.335938 -0.695312 0.359375 -0.6875 C 0.390625 -0.6875 0.410156 -0.675781 0.421875 -0.65625 C 0.441406 -0.644531 0.457031 -0.628906 0.46875 -0.609375 C 0.476562 -0.585938 0.488281 -0.566406 0.5 -0.546875 L 0.375 -0.515625 C 0.363281 -0.546875 0.347656 -0.566406 0.328125 -0.578125 C 0.316406 -0.585938 0.304688 -0.59375 0.296875 -0.59375 C 0.253906 -0.59375 0.222656 -0.570312 0.203125 -0.53125 C 0.179688 -0.5 0.171875 -0.445312 0.171875 -0.375 C 0.179688 -0.394531 0.195312 -0.410156 0.21875 -0.421875 C 0.25 -0.429688 0.285156 -0.4375 0.328125 -0.4375 C 0.347656 -0.4375 0.367188 -0.429688 0.390625 -0.421875 C 0.421875 -0.410156 0.441406 -0.394531 0.453125 -0.375 C 0.472656 -0.363281 0.488281 -0.34375 0.5 -0.3125 C 0.507812 -0.289062 0.515625 -0.257812 0.515625 -0.21875 Z M 0.375 -0.21875 C 0.375 -0.238281 0.375 -0.253906 0.375 -0.265625 C 0.375 -0.285156 0.367188 -0.300781 0.359375 -0.3125 C 0.347656 -0.320312 0.335938 -0.328125 0.328125 -0.328125 C 0.316406 -0.335938 0.300781 -0.34375 0.28125 -0.34375 C 0.269531 -0.34375 0.257812 -0.335938 0.25 -0.328125 C 0.238281 -0.328125 0.226562 -0.320312 0.21875 -0.3125 C 0.207031 -0.300781 0.195312 -0.289062 0.1875 -0.28125 C 0.1875 -0.269531 0.1875 -0.253906 0.1875 -0.234375 C 0.1875 -0.210938 0.1875 -0.191406 0.1875 -0.171875 C 0.195312 -0.160156 0.203125 -0.148438 0.203125 -0.140625 C 0.210938 -0.128906 0.222656 -0.117188 0.234375 -0.109375 C 0.253906 -0.0976562 0.269531 -0.09375 0.28125 -0.09375 C 0.3125 -0.09375 0.332031 -0.101562 0.34375 -0.125 C 0.363281 -0.144531 0.375 -0.175781 0.375 -0.21875 Z M 0.375 -0.21875 "/>
</symbol>
<symbol overflow="visible" id="glyph0-18">
<path style="stroke:none;" d="M 0.0625 0 L 0.0625 -0.15625 L 0.203125 -0.15625 L 0.203125 0 Z M 0.0625 0 "/>
</symbol>
<symbol overflow="visible" id="glyph0-19">
<path style="stroke:none;" d="M 0.296875 0.015625 C 0.253906 0.015625 0.21875 0.0078125 0.1875 0 C 0.15625 -0.0195312 0.128906 -0.0390625 0.109375 -0.0625 C 0.0859375 -0.0820312 0.0703125 -0.109375 0.0625 -0.140625 C 0.0507812 -0.179688 0.046875 -0.222656 0.046875 -0.265625 C 0.046875 -0.304688 0.0507812 -0.34375 0.0625 -0.375 C 0.0703125 -0.414062 0.0859375 -0.445312 0.109375 -0.46875 C 0.128906 -0.488281 0.15625 -0.503906 0.1875 -0.515625 C 0.21875 -0.523438 0.253906 -0.53125 0.296875 -0.53125 C 0.328125 -0.53125 0.351562 -0.523438 0.375 -0.515625 C 0.40625 -0.515625 0.429688 -0.503906 0.453125 -0.484375 C 0.472656 -0.472656 0.488281 -0.457031 0.5 -0.4375 C 0.507812 -0.414062 0.515625 -0.390625 0.515625 -0.359375 L 0.390625 -0.359375 C 0.378906 -0.378906 0.363281 -0.394531 0.34375 -0.40625 C 0.332031 -0.425781 0.316406 -0.4375 0.296875 -0.4375 C 0.253906 -0.4375 0.222656 -0.421875 0.203125 -0.390625 C 0.191406 -0.367188 0.1875 -0.328125 0.1875 -0.265625 C 0.1875 -0.140625 0.222656 -0.078125 0.296875 -0.078125 C 0.316406 -0.078125 0.335938 -0.0859375 0.359375 -0.109375 C 0.378906 -0.128906 0.390625 -0.15625 0.390625 -0.1875 L 0.53125 -0.171875 C 0.519531 -0.148438 0.507812 -0.128906 0.5 -0.109375 C 0.488281 -0.0859375 0.472656 -0.0664062 0.453125 -0.046875 C 0.429688 -0.0234375 0.40625 -0.0078125 0.375 0 C 0.351562 0.0078125 0.328125 0.015625 0.296875 0.015625 Z M 0.296875 0.015625 "/>
</symbol>
<symbol overflow="visible" id="glyph0-20">
<path style="stroke:none;" d="M 0.203125 -0.421875 C 0.222656 -0.460938 0.242188 -0.488281 0.265625 -0.5 C 0.296875 -0.519531 0.332031 -0.53125 0.375 -0.53125 C 0.40625 -0.53125 0.429688 -0.523438 0.453125 -0.515625 C 0.472656 -0.503906 0.488281 -0.488281 0.5 -0.46875 C 0.519531 -0.457031 0.53125 -0.4375 0.53125 -0.40625 C 0.539062 -0.382812 0.546875 -0.359375 0.546875 -0.328125 L 0.546875 0 L 0.40625 0 L 0.40625 -0.296875 C 0.40625 -0.316406 0.40625 -0.332031 0.40625 -0.34375 C 0.40625 -0.363281 0.398438 -0.378906 0.390625 -0.390625 C 0.378906 -0.410156 0.367188 -0.421875 0.359375 -0.421875 C 0.347656 -0.429688 0.332031 -0.4375 0.3125 -0.4375 C 0.300781 -0.4375 0.285156 -0.429688 0.265625 -0.421875 C 0.253906 -0.410156 0.242188 -0.398438 0.234375 -0.390625 C 0.222656 -0.378906 0.210938 -0.363281 0.203125 -0.34375 C 0.203125 -0.320312 0.203125 -0.300781 0.203125 -0.28125 L 0.203125 0 L 0.0625 0 L 0.0625 -0.71875 L 0.203125 -0.71875 L 0.203125 -0.53125 C 0.203125 -0.519531 0.203125 -0.507812 0.203125 -0.5 C 0.203125 -0.488281 0.203125 -0.476562 0.203125 -0.46875 C 0.203125 -0.457031 0.203125 -0.445312 0.203125 -0.4375 C 0.203125 -0.425781 0.203125 -0.421875 0.203125 -0.421875 Z M 0.203125 -0.421875 "/>
</symbol>
<symbol overflow="visible" id="glyph0-21">
<path style="stroke:none;" d="M 0.578125 -0.265625 C 0.578125 -0.222656 0.566406 -0.1875 0.546875 -0.15625 C 0.535156 -0.125 0.519531 -0.09375 0.5 -0.0625 C 0.476562 -0.0390625 0.453125 -0.0195312 0.421875 0 C 0.390625 0.0078125 0.347656 0.015625 0.296875 0.015625 C 0.253906 0.015625 0.21875 0.0078125 0.1875 0 C 0.15625 -0.0195312 0.128906 -0.0390625 0.109375 -0.0625 C 0.0859375 -0.09375 0.0703125 -0.125 0.0625 -0.15625 C 0.0507812 -0.1875 0.046875 -0.222656 0.046875 -0.265625 C 0.046875 -0.304688 0.0507812 -0.34375 0.0625 -0.375 C 0.0703125 -0.40625 0.0859375 -0.429688 0.109375 -0.453125 C 0.128906 -0.484375 0.15625 -0.503906 0.1875 -0.515625 C 0.21875 -0.523438 0.257812 -0.53125 0.3125 -0.53125 C 0.351562 -0.53125 0.390625 -0.523438 0.421875 -0.515625 C 0.460938 -0.503906 0.492188 -0.484375 0.515625 -0.453125 C 0.535156 -0.429688 0.550781 -0.40625 0.5625 -0.375 C 0.570312 -0.34375 0.578125 -0.304688 0.578125 -0.265625 Z M 0.421875 -0.265625 C 0.421875 -0.328125 0.410156 -0.367188 0.390625 -0.390625 C 0.367188 -0.421875 0.34375 -0.4375 0.3125 -0.4375 C 0.269531 -0.4375 0.238281 -0.421875 0.21875 -0.390625 C 0.195312 -0.367188 0.1875 -0.328125 0.1875 -0.265625 C 0.1875 -0.234375 0.1875 -0.207031 0.1875 -0.1875 C 0.195312 -0.164062 0.207031 -0.144531 0.21875 -0.125 C 0.226562 -0.113281 0.238281 -0.101562 0.25 -0.09375 C 0.269531 -0.0820312 0.285156 -0.078125 0.296875 -0.078125 C 0.316406 -0.078125 0.332031 -0.0820312 0.34375 -0.09375 C 0.363281 -0.101562 0.378906 -0.113281 0.390625 -0.125 C 0.398438 -0.144531 0.40625 -0.164062 0.40625 -0.1875 C 0.414062 -0.207031 0.421875 -0.234375 0.421875 -0.265625 Z M 0.421875 -0.265625 "/>
</symbol>
<symbol overflow="visible" id="glyph0-22">
<path style="stroke:none;" d="M 0.375 0 L 0.375 -0.296875 C 0.375 -0.316406 0.375 -0.332031 0.375 -0.34375 C 0.375 -0.363281 0.367188 -0.378906 0.359375 -0.390625 C 0.359375 -0.410156 0.351562 -0.421875 0.34375 -0.421875 C 0.332031 -0.429688 0.316406 -0.4375 0.296875 -0.4375 C 0.285156 -0.4375 0.273438 -0.429688 0.265625 -0.421875 C 0.253906 -0.410156 0.242188 -0.398438 0.234375 -0.390625 C 0.222656 -0.378906 0.210938 -0.363281 0.203125 -0.34375 C 0.203125 -0.320312 0.203125 -0.300781 0.203125 -0.28125 L 0.203125 0 L 0.0625 0 L 0.0625 -0.40625 C 0.0625 -0.414062 0.0625 -0.425781 0.0625 -0.4375 C 0.0625 -0.457031 0.0625 -0.472656 0.0625 -0.484375 C 0.0625 -0.492188 0.0625 -0.5 0.0625 -0.5 C 0.0625 -0.507812 0.0625 -0.519531 0.0625 -0.53125 L 0.203125 -0.53125 C 0.203125 -0.519531 0.203125 -0.507812 0.203125 -0.5 C 0.203125 -0.5 0.203125 -0.492188 0.203125 -0.484375 C 0.203125 -0.472656 0.203125 -0.460938 0.203125 -0.453125 C 0.203125 -0.441406 0.203125 -0.429688 0.203125 -0.421875 C 0.222656 -0.460938 0.242188 -0.488281 0.265625 -0.5 C 0.296875 -0.519531 0.328125 -0.53125 0.359375 -0.53125 C 0.398438 -0.53125 0.429688 -0.519531 0.453125 -0.5 C 0.484375 -0.488281 0.5 -0.460938 0.5 -0.421875 L 0.515625 -0.421875 C 0.515625 -0.441406 0.519531 -0.457031 0.53125 -0.46875 C 0.550781 -0.488281 0.566406 -0.503906 0.578125 -0.515625 C 0.585938 -0.523438 0.597656 -0.53125 0.609375 -0.53125 C 0.628906 -0.53125 0.648438 -0.53125 0.671875 -0.53125 C 0.703125 -0.53125 0.722656 -0.523438 0.734375 -0.515625 C 0.753906 -0.503906 0.769531 -0.488281 0.78125 -0.46875 C 0.800781 -0.457031 0.8125 -0.4375 0.8125 -0.40625 C 0.820312 -0.382812 0.828125 -0.359375 0.828125 -0.328125 L 0.828125 0 L 0.6875 0 L 0.6875 -0.296875 C 0.6875 -0.316406 0.6875 -0.332031 0.6875 -0.34375 C 0.6875 -0.363281 0.679688 -0.378906 0.671875 -0.390625 C 0.660156 -0.410156 0.648438 -0.421875 0.640625 -0.421875 C 0.640625 -0.429688 0.628906 -0.4375 0.609375 -0.4375 C 0.597656 -0.4375 0.585938 -0.429688 0.578125 -0.421875 C 0.566406 -0.421875 0.554688 -0.410156 0.546875 -0.390625 C 0.535156 -0.378906 0.523438 -0.363281 0.515625 -0.34375 C 0.515625 -0.332031 0.515625 -0.316406 0.515625 -0.296875 L 0.515625 0 Z M 0.375 0 "/>
</symbol>
<symbol overflow="visible" id="glyph0-23">
<path style="stroke:none;" d="M 0.53125 -0.1875 C 0.53125 -0.164062 0.523438 -0.140625 0.515625 -0.109375 C 0.503906 -0.0859375 0.488281 -0.0664062 0.46875 -0.046875 C 0.445312 -0.0234375 0.421875 -0.0078125 0.390625 0 C 0.359375 0.0078125 0.320312 0.015625 0.28125 0.015625 C 0.238281 0.015625 0.203125 0.0078125 0.171875 0 C 0.140625 -0.0078125 0.113281 -0.0234375 0.09375 -0.046875 C 0.0703125 -0.0664062 0.0546875 -0.0859375 0.046875 -0.109375 C 0.0351562 -0.140625 0.03125 -0.164062 0.03125 -0.1875 C 0.03125 -0.21875 0.0351562 -0.238281 0.046875 -0.25 C 0.0546875 -0.269531 0.0664062 -0.285156 0.078125 -0.296875 C 0.0859375 -0.316406 0.0976562 -0.332031 0.109375 -0.34375 C 0.128906 -0.351562 0.148438 -0.359375 0.171875 -0.359375 C 0.148438 -0.367188 0.128906 -0.375 0.109375 -0.375 C 0.0976562 -0.382812 0.0859375 -0.394531 0.078125 -0.40625 C 0.0664062 -0.425781 0.0546875 -0.441406 0.046875 -0.453125 C 0.046875 -0.472656 0.046875 -0.492188 0.046875 -0.515625 C 0.046875 -0.546875 0.0507812 -0.570312 0.0625 -0.59375 C 0.0703125 -0.613281 0.0859375 -0.628906 0.109375 -0.640625 C 0.128906 -0.660156 0.148438 -0.675781 0.171875 -0.6875 C 0.203125 -0.695312 0.238281 -0.703125 0.28125 -0.703125 C 0.320312 -0.703125 0.351562 -0.695312 0.375 -0.6875 C 0.40625 -0.675781 0.429688 -0.660156 0.453125 -0.640625 C 0.472656 -0.628906 0.488281 -0.613281 0.5 -0.59375 C 0.507812 -0.570312 0.515625 -0.546875 0.515625 -0.515625 C 0.515625 -0.492188 0.507812 -0.472656 0.5 -0.453125 C 0.488281 -0.441406 0.476562 -0.425781 0.46875 -0.40625 C 0.457031 -0.394531 0.441406 -0.382812 0.421875 -0.375 C 0.410156 -0.375 0.398438 -0.367188 0.390625 -0.359375 C 0.398438 -0.359375 0.414062 -0.351562 0.4375 -0.34375 C 0.457031 -0.332031 0.472656 -0.316406 0.484375 -0.296875 C 0.492188 -0.285156 0.503906 -0.269531 0.515625 -0.25 C 0.523438 -0.238281 0.53125 -0.21875 0.53125 -0.1875 Z M 0.375 -0.515625 C 0.375 -0.523438 0.367188 -0.535156 0.359375 -0.546875 C 0.359375 -0.554688 0.351562 -0.566406 0.34375 -0.578125 C 0.34375 -0.585938 0.332031 -0.59375 0.3125 -0.59375 C 0.300781 -0.601562 0.289062 -0.609375 0.28125 -0.609375 C 0.257812 -0.609375 0.242188 -0.601562 0.234375 -0.59375 C 0.222656 -0.59375 0.210938 -0.585938 0.203125 -0.578125 C 0.203125 -0.566406 0.195312 -0.554688 0.1875 -0.546875 C 0.1875 -0.535156 0.1875 -0.523438 0.1875 -0.515625 C 0.1875 -0.492188 0.1875 -0.476562 0.1875 -0.46875 C 0.195312 -0.457031 0.203125 -0.445312 0.203125 -0.4375 C 0.210938 -0.425781 0.222656 -0.414062 0.234375 -0.40625 C 0.242188 -0.40625 0.257812 -0.40625 0.28125 -0.40625 C 0.300781 -0.40625 0.316406 -0.40625 0.328125 -0.40625 C 0.335938 -0.414062 0.34375 -0.425781 0.34375 -0.4375 C 0.351562 -0.445312 0.359375 -0.457031 0.359375 -0.46875 C 0.367188 -0.476562 0.375 -0.492188 0.375 -0.515625 Z M 0.390625 -0.203125 C 0.390625 -0.210938 0.382812 -0.222656 0.375 -0.234375 C 0.375 -0.253906 0.367188 -0.269531 0.359375 -0.28125 C 0.347656 -0.289062 0.335938 -0.296875 0.328125 -0.296875 C 0.316406 -0.304688 0.300781 -0.3125 0.28125 -0.3125 C 0.257812 -0.3125 0.238281 -0.304688 0.21875 -0.296875 C 0.207031 -0.296875 0.195312 -0.289062 0.1875 -0.28125 C 0.1875 -0.269531 0.179688 -0.253906 0.171875 -0.234375 C 0.171875 -0.222656 0.171875 -0.210938 0.171875 -0.203125 C 0.171875 -0.179688 0.171875 -0.164062 0.171875 -0.15625 C 0.179688 -0.144531 0.1875 -0.132812 0.1875 -0.125 C 0.195312 -0.113281 0.207031 -0.101562 0.21875 -0.09375 C 0.238281 -0.09375 0.257812 -0.09375 0.28125 -0.09375 C 0.300781 -0.09375 0.316406 -0.09375 0.328125 -0.09375 C 0.335938 -0.101562 0.347656 -0.113281 0.359375 -0.125 C 0.367188 -0.132812 0.375 -0.144531 0.375 -0.15625 C 0.382812 -0.164062 0.390625 -0.179688 0.390625 -0.203125 Z M 0.390625 -0.203125 "/>
</symbol>
<symbol overflow="visible" id="glyph0-24">
<path style="stroke:none;" d="M 0.453125 -0.140625 L 0.453125 0 L 0.328125 0 L 0.328125 -0.140625 L 0.015625 -0.140625 L 0.015625 -0.25 L 0.3125 -0.6875 L 0.453125 -0.6875 L 0.453125 -0.25 L 0.546875 -0.25 L 0.546875 -0.140625 Z M 0.328125 -0.46875 C 0.328125 -0.46875 0.328125 -0.472656 0.328125 -0.484375 C 0.328125 -0.492188 0.328125 -0.503906 0.328125 -0.515625 C 0.328125 -0.523438 0.328125 -0.535156 0.328125 -0.546875 C 0.328125 -0.554688 0.328125 -0.5625 0.328125 -0.5625 C 0.328125 -0.5625 0.320312 -0.554688 0.3125 -0.546875 C 0.3125 -0.535156 0.3125 -0.523438 0.3125 -0.515625 C 0.3125 -0.515625 0.304688 -0.507812 0.296875 -0.5 C 0.296875 -0.5 0.289062 -0.492188 0.28125 -0.484375 L 0.125 -0.25 L 0.328125 -0.25 Z M 0.328125 -0.46875 "/>
</symbol>
<symbol overflow="visible" id="glyph0-25">
<path style="stroke:none;" d="M 0.515625 -0.1875 C 0.515625 -0.15625 0.507812 -0.125 0.5 -0.09375 C 0.488281 -0.0703125 0.472656 -0.0507812 0.453125 -0.03125 C 0.429688 -0.0195312 0.40625 -0.0078125 0.375 0 C 0.351562 0.0078125 0.320312 0.015625 0.28125 0.015625 C 0.226562 0.015625 0.1875 0.0078125 0.15625 0 C 0.125 -0.0078125 0.0976562 -0.0234375 0.078125 -0.046875 C 0.0664062 -0.0664062 0.0546875 -0.0859375 0.046875 -0.109375 C 0.0351562 -0.140625 0.0234375 -0.164062 0.015625 -0.1875 L 0.15625 -0.203125 C 0.164062 -0.179688 0.171875 -0.164062 0.171875 -0.15625 C 0.179688 -0.144531 0.1875 -0.132812 0.1875 -0.125 C 0.195312 -0.113281 0.207031 -0.101562 0.21875 -0.09375 C 0.238281 -0.09375 0.257812 -0.09375 0.28125 -0.09375 C 0.3125 -0.09375 0.332031 -0.101562 0.34375 -0.125 C 0.363281 -0.144531 0.375 -0.171875 0.375 -0.203125 C 0.375 -0.222656 0.367188 -0.238281 0.359375 -0.25 C 0.359375 -0.257812 0.347656 -0.265625 0.328125 -0.265625 C 0.316406 -0.273438 0.300781 -0.28125 0.28125 -0.28125 C 0.269531 -0.289062 0.257812 -0.296875 0.25 -0.296875 L 0.203125 -0.296875 L 0.203125 -0.40625 L 0.25 -0.40625 C 0.257812 -0.40625 0.269531 -0.40625 0.28125 -0.40625 C 0.300781 -0.40625 0.316406 -0.410156 0.328125 -0.421875 C 0.335938 -0.429688 0.34375 -0.441406 0.34375 -0.453125 C 0.351562 -0.460938 0.359375 -0.476562 0.359375 -0.5 C 0.359375 -0.53125 0.347656 -0.550781 0.328125 -0.5625 C 0.316406 -0.582031 0.296875 -0.59375 0.265625 -0.59375 C 0.242188 -0.59375 0.222656 -0.582031 0.203125 -0.5625 C 0.179688 -0.550781 0.171875 -0.53125 0.171875 -0.5 L 0.03125 -0.515625 C 0.0390625 -0.546875 0.0507812 -0.570312 0.0625 -0.59375 C 0.0703125 -0.613281 0.0859375 -0.628906 0.109375 -0.640625 C 0.128906 -0.660156 0.15625 -0.675781 0.1875 -0.6875 C 0.21875 -0.695312 0.242188 -0.703125 0.265625 -0.703125 C 0.304688 -0.703125 0.34375 -0.695312 0.375 -0.6875 C 0.40625 -0.675781 0.425781 -0.660156 0.4375 -0.640625 C 0.457031 -0.628906 0.472656 -0.609375 0.484375 -0.578125 C 0.492188 -0.554688 0.5 -0.535156 0.5 -0.515625 C 0.5 -0.492188 0.492188 -0.472656 0.484375 -0.453125 C 0.484375 -0.441406 0.476562 -0.425781 0.46875 -0.40625 C 0.457031 -0.394531 0.441406 -0.382812 0.421875 -0.375 C 0.398438 -0.363281 0.378906 -0.359375 0.359375 -0.359375 C 0.378906 -0.347656 0.398438 -0.335938 0.421875 -0.328125 C 0.441406 -0.316406 0.457031 -0.304688 0.46875 -0.296875 C 0.488281 -0.285156 0.5 -0.269531 0.5 -0.25 C 0.507812 -0.226562 0.515625 -0.207031 0.515625 -0.1875 Z M 0.515625 -0.1875 "/>
</symbol>
<symbol overflow="visible" id="glyph0-26">
<path style="stroke:none;" d="M 0.515625 -0.359375 C 0.515625 -0.234375 0.492188 -0.140625 0.453125 -0.078125 C 0.410156 -0.015625 0.347656 0.015625 0.265625 0.015625 C 0.234375 0.015625 0.203125 0.0078125 0.171875 0 C 0.148438 -0.0078125 0.128906 -0.0195312 0.109375 -0.03125 C 0.0976562 -0.0390625 0.0859375 -0.0546875 0.078125 -0.078125 C 0.0664062 -0.0976562 0.0546875 -0.125 0.046875 -0.15625 L 0.171875 -0.171875 C 0.179688 -0.148438 0.191406 -0.128906 0.203125 -0.109375 C 0.222656 -0.0976562 0.242188 -0.09375 0.265625 -0.09375 C 0.285156 -0.09375 0.300781 -0.0976562 0.3125 -0.109375 C 0.320312 -0.117188 0.332031 -0.128906 0.34375 -0.140625 C 0.351562 -0.160156 0.363281 -0.1875 0.375 -0.21875 C 0.382812 -0.25 0.390625 -0.28125 0.390625 -0.3125 C 0.378906 -0.300781 0.367188 -0.289062 0.359375 -0.28125 C 0.347656 -0.269531 0.332031 -0.257812 0.3125 -0.25 C 0.300781 -0.25 0.285156 -0.242188 0.265625 -0.234375 C 0.253906 -0.234375 0.242188 -0.234375 0.234375 -0.234375 C 0.203125 -0.234375 0.171875 -0.238281 0.140625 -0.25 C 0.117188 -0.257812 0.0976562 -0.273438 0.078125 -0.296875 C 0.0664062 -0.316406 0.0546875 -0.34375 0.046875 -0.375 C 0.0351562 -0.40625 0.03125 -0.4375 0.03125 -0.46875 C 0.03125 -0.5 0.0351562 -0.53125 0.046875 -0.5625 C 0.0546875 -0.59375 0.0703125 -0.617188 0.09375 -0.640625 C 0.113281 -0.660156 0.140625 -0.675781 0.171875 -0.6875 C 0.203125 -0.695312 0.238281 -0.703125 0.28125 -0.703125 C 0.3125 -0.703125 0.34375 -0.691406 0.375 -0.671875 C 0.40625 -0.660156 0.429688 -0.640625 0.453125 -0.609375 C 0.472656 -0.585938 0.488281 -0.550781 0.5 -0.5 C 0.507812 -0.457031 0.515625 -0.410156 0.515625 -0.359375 Z M 0.375 -0.453125 C 0.375 -0.472656 0.367188 -0.488281 0.359375 -0.5 C 0.359375 -0.519531 0.351562 -0.535156 0.34375 -0.546875 C 0.332031 -0.554688 0.320312 -0.566406 0.3125 -0.578125 C 0.300781 -0.585938 0.285156 -0.59375 0.265625 -0.59375 C 0.253906 -0.59375 0.242188 -0.585938 0.234375 -0.578125 C 0.222656 -0.578125 0.210938 -0.570312 0.203125 -0.5625 C 0.191406 -0.550781 0.179688 -0.535156 0.171875 -0.515625 C 0.171875 -0.503906 0.171875 -0.488281 0.171875 -0.46875 C 0.171875 -0.445312 0.171875 -0.425781 0.171875 -0.40625 C 0.179688 -0.394531 0.191406 -0.382812 0.203125 -0.375 C 0.210938 -0.363281 0.222656 -0.351562 0.234375 -0.34375 C 0.242188 -0.34375 0.253906 -0.34375 0.265625 -0.34375 C 0.285156 -0.34375 0.300781 -0.34375 0.3125 -0.34375 C 0.320312 -0.351562 0.332031 -0.359375 0.34375 -0.359375 C 0.351562 -0.367188 0.359375 -0.378906 0.359375 -0.390625 C 0.367188 -0.410156 0.375 -0.429688 0.375 -0.453125 Z M 0.375 -0.453125 "/>
</symbol>
<symbol overflow="visible" id="glyph0-27">
<path style="stroke:none;" d="M 0.515625 -0.578125 C 0.484375 -0.523438 0.453125 -0.476562 0.421875 -0.4375 C 0.398438 -0.394531 0.378906 -0.347656 0.359375 -0.296875 C 0.335938 -0.253906 0.316406 -0.207031 0.296875 -0.15625 C 0.285156 -0.101562 0.28125 -0.0507812 0.28125 0 L 0.140625 0 C 0.140625 -0.0507812 0.144531 -0.101562 0.15625 -0.15625 C 0.175781 -0.207031 0.195312 -0.253906 0.21875 -0.296875 C 0.238281 -0.347656 0.265625 -0.394531 0.296875 -0.4375 C 0.328125 -0.476562 0.359375 -0.523438 0.390625 -0.578125 L 0.046875 -0.578125 L 0.046875 -0.6875 L 0.515625 -0.6875 Z M 0.515625 -0.578125 "/>
</symbol>
<symbol overflow="visible" id="glyph0-28">
<path style="stroke:none;" d="M 0.578125 0 L 0.03125 0 L 0.03125 -0.109375 L 0.40625 -0.578125 L 0.0625 -0.578125 L 0.0625 -0.6875 L 0.5625 -0.6875 L 0.5625 -0.59375 L 0.1875 -0.109375 L 0.578125 -0.109375 Z M 0.578125 0 "/>
</symbol>
<symbol overflow="visible" id="glyph0-29">
<path style="stroke:none;" d="M 0.640625 -0.46875 C 0.640625 -0.4375 0.632812 -0.40625 0.625 -0.375 C 0.613281 -0.351562 0.597656 -0.332031 0.578125 -0.3125 C 0.554688 -0.289062 0.53125 -0.273438 0.5 -0.265625 C 0.46875 -0.253906 0.425781 -0.25 0.375 -0.25 L 0.21875 -0.25 L 0.21875 0 L 0.0625 0 L 0.0625 -0.6875 L 0.375 -0.6875 C 0.414062 -0.6875 0.453125 -0.679688 0.484375 -0.671875 C 0.515625 -0.660156 0.539062 -0.644531 0.5625 -0.625 C 0.59375 -0.601562 0.613281 -0.578125 0.625 -0.546875 C 0.632812 -0.523438 0.640625 -0.5 0.640625 -0.46875 Z M 0.484375 -0.46875 C 0.484375 -0.5 0.472656 -0.523438 0.453125 -0.546875 C 0.429688 -0.566406 0.398438 -0.578125 0.359375 -0.578125 L 0.21875 -0.578125 L 0.21875 -0.359375 L 0.359375 -0.359375 C 0.378906 -0.359375 0.394531 -0.359375 0.40625 -0.359375 C 0.425781 -0.367188 0.441406 -0.378906 0.453125 -0.390625 C 0.460938 -0.398438 0.46875 -0.410156 0.46875 -0.421875 C 0.476562 -0.429688 0.484375 -0.445312 0.484375 -0.46875 Z M 0.484375 -0.46875 "/>
</symbol>
</g>
</defs>
<g id="surface2">
<rect x="0" y="0" width="176" height="27" style="fill:rgb(100%,100%,100%);fill-opacity:1;stroke:none;"/>
<path style="fill:none;stroke-width:1;stroke-linecap:butt;stroke-linejoin:miter;stroke:rgb(0%,0%,0%);stroke-opacity:1;stroke-miterlimit:10;" d="M 27 11 L 28 11 "/>
<g style="fill:rgb(0%,0%,0%);fill-opacity:1;">
  <use xlink:href="#glyph0-1" x="27.050781" y="13.101562"/>
</g>
<path style="fill:none;stroke-width:0.25;stroke-linecap:butt;stroke-linejoin:miter;stroke:rgb(0%,0%,0%);stroke-opacity:1;stroke-miterlimit:10;" d="M 28 11 C 28 10 29 10 29 11 "/>
<path style="fill:none;stroke-width:1;stroke-linecap:butt;stroke-linejoin:miter;stroke:rgb(0%,0%,0%);stroke-opacity:1;stroke-miterlimit:10;" d="M 29 11 L 34 11 "/>
<g style="fill:rgb(0%,0%,0%);fill-opacity:1;">
  <use xlink:href="#glyph0-2" x="29.050781" y="13.101562"/>
</g>
<g style="fill:rgb(0%,0%,0%);fill-opacity:1;">
  <use xlink:href="#glyph0-1" x="30.050781" y="13.101562"/>
</g>
<g style="fill:rgb(0%,0%,0%);fill-opacity:1;">
  <use xlink:href="#glyph0-1" x="31.050781" y="13.101562"/>
</g>
<g style="fill:rgb(0%,0%,0%);fill-opacity:1;">
  <use xlink:href="#glyph0-3" x="32.050781" y="13.101562"/>
</g>
<g style="fill:rgb(0%,0%,0%);fill-opacity:1;">
  <use xlink:href="#glyph0-4" x="33.050781" y="13.101562"/>
</g>
<path style="fill:none;stroke-width:0.25;stroke-linecap:butt;stroke-linejoin:miter;stroke:rgb(0%,0%,0%);stroke-opacity:1;stroke-miterlimit:10;" d="M 34 11 C 36 3 45 3 47 11 "/>
<path style="fill:none;stroke-width:0.25;stroke-linecap:butt;stroke-linejoin:miter;stroke:rgb(0%,0%,0%);stroke-opacity:1;stroke-miterlimit:10;" d="M 34 11 C 36 2 47 2 49 11 "/>
<path style="fill:none;stroke-width:1;stroke-linecap:butt;stroke-linejoin:miter;stroke:rgb(0%,0%,0%);stroke-opacity:1;stroke-miterlimit:10;" d="M 35 11 L 46 11 "/>
<g style="fill:rgb(0%,0%,0%);fill-opacity:1;">
  <use xlink:href="#glyph0-4" x="35.050781" y="13.101562"/>
</g>
<g style="fill:rgb(0%,0%,0%);fill-opacity:1;">
  <use xlink:href="#glyph0-1" x="36.050781" y="13.101562"/>
</g>
<g style="fill:rgb(0%,0%,0%);fill-opacity:1;">
  <use xlink:href="#glyph0-1" x="37.050781" y="13.101562"/>
</g>
<g style="fill:rgb(0%,0%,0%);fill-opacity:1;">
  <use xlink:href="#glyph0-2" x="38.050781" y="13.101562"/>
</g>
<g style="fill:rgb(0%,0%,0%);fill-opacity:1;">
  <use xlink:href="#glyph0-2" x="39.050781" y="13.101562"/>
</g>
<g style="fill:rgb(0%,0%,0%);fill-opacity:1;">
  <use xlink:href="#glyph0-4" x="40.050781" y="13.101562"/>
</g>
<g style="fill:rgb(0%,0%,0%);fill-opacity:1;">
  <use xlink:href="#glyph0-1" x="41.050781" y="13.101562"/>
</g>
<g style="fill:rgb(0%,0%,0%);fill-opacity:1;">
  <use xlink:href="#glyph0-4" x="42.050781" y="13.101562"/>
</g>
<g style="fill:rgb(0%,0%,0%);fill-opacity:1;">
  <use xlink:href="#glyph0-4" x="43.050781" y="13.101562"/>
</g>
<g style="fill:rgb(0%,0%,0%);fill-opacity:1;">
  <use xlink:href="#glyph0-1" x="44.050781" y="13.101562"/>
</g>
<g style="fill:rgb(0%,0%,0%);fill-opacity:1;">
  <use xlink:href="#glyph0-2" x="45.050781" y="13.101562"/>
</g>
<path style="fill:none;stroke-width:0.25;stroke-linecap:butt;stroke-linejoin:miter;stroke:rgb(0%,0%,0%);stroke-opacity:1;stroke-miterlimit:10;" d="M 46 11 C 44 1 29 1 27 11 "/>
<path style="fill:none;stroke-width:0.25;stroke-linecap:butt;stroke-linejoin:miter;stroke:rgb(0%,0%,0%);stroke-opacity:1;stroke-miterlimit:10;" d="M 46 11 C 47 7 50 7 51 11 "/>
<path style="fill:none;stroke-width:1;stroke-linecap:butt;stroke-linejoin:miter;stroke:rgb(0%,0%,0%);stroke-opacity:1;stroke-miterlimit:10;" d="M 47 11 L 48 11 "/>
<g style="fill:rgb(0%,0%,0%);fill-opacity:1;">
  <use xlink:href="#glyph0-3" x="47.050781" y="13.101562"/>
</g>
<path style="fill:none;stroke-width:0.25;stroke-linecap:butt;stroke-linejoin:miter;stroke:rgb(0%,0%,0%);stroke-opacity:1;stroke-miterlimit:10;" d="M 48 11 C 49 5 56 5 57 11 "/>
<path style="fill:none;stroke-width:1;stroke-linecap:butt;stroke-linejoin:miter;stroke:rgb(0%,0%,0%);stroke-opacity:1;stroke-miterlimit:10;" d="M 49 11 L 50 11 "/>
<g style="fill:rgb(0%,0%,0%);fill-opacity:1;">
  <use xlink:href="#glyph0-1" x="49.050781" y="13.101562"/>
</g>
<path style="fill:none;stroke-width:0.25;stroke-linecap:butt;stroke-linejoin:miter;stroke:rgb(0%,0%,0%);stroke-opacity:1;stroke-miterlimit:10;" d="M 50 11 C 51 6 56 6 57 11 "/>
<path style="fill:none;stroke-width:1;stroke-linecap:butt;stroke-linejoin:miter;stroke:rgb(0%,0%,0%);stroke-opacity:1;stroke-miterlimit:10;" d="M 51 11 L 52 11 "/>
<g style="fill:rgb(0%,0%,0%);fill-opacity:1;">
  <use xlink:href="#glyph0-2" x="51.050781" y="13.101562"/>
</g>
<path style="fill:none;stroke-width:0.25;stroke-linecap:butt;stroke-linejoin:miter;stroke:rgb(0%,0%,0%);stroke-opacity:1;stroke-miterlimit:10;" d="M 52 11 C 50 0 31 0 29 11 "/>
<path style="fill:none;stroke-width:1;stroke-linecap:butt;stroke-linejoin:miter;stroke:rgb(0%,0%,0%);stroke-opacity:1;stroke-miterlimit:10;" d="M 53 11 L 54 11 "/>
<g style="fill:rgb(0%,0%,0%);fill-opacity:1;">
  <use xlink:href="#glyph0-1" x="53.050781" y="13.101562"/>
</g>
<path style="fill:none;stroke-width:0.25;stroke-linecap:butt;stroke-linejoin:miter;stroke:rgb(0%,0%,0%);stroke-opacity:1;stroke-miterlimit:10;" d="M 54 11 C 52 1 37 1 35 11 "/>
<path style="fill:none;stroke-width:1;stroke-linecap:butt;stroke-linejoin:miter;stroke:rgb(0%,0%,0%);stroke-opacity:1;stroke-miterlimit:10;" d="M 55 11 L 56 11 "/>
<g style="fill:rgb(0%,0%,0%);fill-opacity:1;">
  <use xlink:href="#glyph0-4" x="55.050781" y="13.101562"/>
</g>
<path style="fill:none;stroke-width:0.25;stroke-linecap:butt;stroke-linejoin:miter;stroke:rgb(0%,0%,0%);stroke-opacity:1;stroke-miterlimit:10;" d="M 56 11 C 54 1 37 1 35 11 "/>
<path style="fill:none;stroke-width:1;stroke-linecap:butt;stroke-linejoin:miter;stroke:rgb(0%,0%,0%);stroke-opacity:1;stroke-miterlimit:10;" d="M 57 11 L 65 11 "/>
<g style="fill:rgb(0%,0%,0%);fill-opacity:1;">
  <use xlink:href="#glyph0-4" x="57.050781" y="13.101562"/>
</g>
<g style="fill:rgb(0%,0%,0%);fill-opacity:1;">
  <use xlink:href="#glyph0-1" x="58.050781" y="13.101562"/>
</g>
<g style="fill:rgb(0%,0%,0%);fill-opacity:1;">
  <use xlink:href="#glyph0-1" x="59.050781" y="13.101562"/>
</g>
<g style="fill:rgb(0%,0%,0%);fill-opacity:1;">
  <use xlink:href="#glyph0-2" x="60.050781" y="13.101562"/>
</g>
<g style="fill:rgb(0%,0%,0%);fill-opacity:1;">
  <use xlink:href="#glyph0-2" x="61.050781" y="13.101562"/>
</g>
<g style="fill:rgb(0%,0%,0%);fill-opacity:1;">
  <use xlink:href="#glyph0-4" x="62.050781" y="13.101562"/>
</g>
<g style="fill:rgb(0%,0%,0%);fill-opacity:1;">
  <use xlink:href="#glyph0-1" x="63.050781" y="13.101562"/>
</g>
<g style="fill:rgb(0%,0%,0%);fill-opacity:1;">
  <use xlink:href="#glyph0-1" x="64.050781" y="13.101562"/>
</g>
<path style="fill:none;stroke-width:0.25;stroke-linecap:butt;stroke-linejoin:miter;stroke:rgb(0%,0%,0%);stroke-opacity:1;stroke-miterlimit:10;" d="M 65 11 C 66 7 68 7 69 11 "/>
<path style="fill:none;stroke-width:0.25;stroke-linecap:butt;stroke-linejoin:miter;stroke:rgb(0%,0%,0%);stroke-opacity:1;stroke-miterlimit:10;" d="M 65 11 C 66 6 70 6 71 11 "/>
<path style="fill:none;stroke-width:1;stroke-linecap:butt;stroke-linejoin:miter;stroke:rgb(0%,0%,0%);stroke-opacity:1;stroke-miterlimit:10;" d="M 66 11 L 68 11 "/>
<g style="fill:rgb(0%,0%,0%);fill-opacity:1;">
  <use xlink:href="#glyph0-2" x="66.050781" y="13.101562"/>
</g>
<g style="fill:rgb(0%,0%,0%);fill-opacity:1;">
  <use xlink:href="#glyph0-2" x="67.050781" y="13.101562"/>
</g>
<path style="fill:none;stroke-width:0.25;stroke-linecap:butt;stroke-linejoin:miter;stroke:rgb(0%,0%,0%);stroke-opacity:1;stroke-miterlimit:10;" d="M 68 11 C 66 2 55 2 53 11 "/>
<path style="fill:none;stroke-width:0.25;stroke-linecap:butt;stroke-linejoin:miter;stroke:rgb(0%,0%,0%);stroke-opacity:1;stroke-miterlimit:10;" d="M 68 11 C 66 3 57 3 55 11 "/>
<path style="fill:none;stroke-width:1;stroke-linecap:butt;stroke-linejoin:miter;stroke:rgb(0%,0%,0%);stroke-opacity:1;stroke-miterlimit:10;" d="M 69 11 L 70 11 "/>
<g style="fill:rgb(0%,0%,0%);fill-opacity:1;">
  <use xlink:href="#glyph0-3" x="69.050781" y="13.101562"/>
</g>
<path style="fill:none;stroke-width:0.25;stroke-linecap:butt;stroke-linejoin:miter;stroke:rgb(0%,0%,0%);stroke-opacity:1;stroke-miterlimit:10;" d="M 70 11 C 71 6 76 6 77 11 "/>
<path style="fill:none;stroke-width:1;stroke-linecap:butt;stroke-linejoin:miter;stroke:rgb(0%,0%,0%);stroke-opacity:1;stroke-miterlimit:10;" d="M 71 11 L 72 11 "/>
<g style="fill:rgb(0%,0%,0%);fill-opacity:1;">
  <use xlink:href="#glyph0-4" x="71.050781" y="13.101562"/>
</g>
<path style="fill:none;stroke-width:0.25;stroke-linecap:butt;stroke-linejoin:miter;stroke:rgb(0%,0%,0%);stroke-opacity:1;stroke-miterlimit:10;" d="M 72 11 C 73 7 76 7 77 11 "/>
<path style="fill:none;stroke-width:1;stroke-linecap:butt;stroke-linejoin:miter;stroke:rgb(0%,0%,0%);stroke-opacity:1;stroke-miterlimit:10;" d="M 73 11 L 74 11 "/>
<g style="fill:rgb(0%,0%,0%);fill-opacity:1;">
  <use xlink:href="#glyph0-2" x="73.050781" y="13.101562"/>
</g>
<path style="fill:none;stroke-width:0.25;stroke-linecap:butt;stroke-linejoin:miter;stroke:rgb(0%,0%,0%);stroke-opacity:1;stroke-miterlimit:10;" d="M 74 11 C 73 5 67 5 66 11 "/>
<path style="fill:none;stroke-width:1;stroke-linecap:butt;stroke-linejoin:miter;stroke:rgb(0%,0%,0%);stroke-opacity:1;stroke-miterlimit:10;" d="M 75 11 L 76 11 "/>
<g style="fill:rgb(0%,0%,0%);fill-opacity:1;">
  <use xlink:href="#glyph0-1" x="75.050781" y="13.101562"/>
</g>
<path style="fill:none;stroke-width:0.25;stroke-linecap:butt;stroke-linejoin:miter;stroke:rgb(0%,0%,0%);stroke-opacity:1;stroke-miterlimit:10;" d="M 76 11 C 75 4 67 4 66 11 "/>
<path style="fill:none;stroke-width:1;stroke-linecap:butt;stroke-linejoin:miter;stroke:rgb(0%,0%,0%);stroke-opacity:1;stroke-miterlimit:10;" d="M 77 11 L 79 11 "/>
<g style="fill:rgb(0%,0%,0%);fill-opacity:1;">
  <use xlink:href="#glyph0-4" x="77.050781" y="13.101562"/>
</g>
<g style="fill:rgb(0%,0%,0%);fill-opacity:1;">
  <use xlink:href="#glyph0-1" x="78.050781" y="13.101562"/>
</g>
<path style="fill:none;stroke-width:0.25;stroke-linecap:butt;stroke-linejoin:miter;stroke:rgb(0%,0%,0%);stroke-opacity:1;stroke-miterlimit:10;" d="M 79 11 C 80 7 82 7 83 11 "/>
<path style="fill:none;stroke-width:0.25;stroke-linecap:butt;stroke-linejoin:miter;stroke:rgb(0%,0%,0%);stroke-opacity:1;stroke-miterlimit:10;" d="M 79 11 C 80 6 84 6 85 11 "/>
<path style="fill:none;stroke-width:1;stroke-linecap:butt;stroke-linejoin:miter;stroke:rgb(0%,0%,0%);stroke-opacity:1;stroke-miterlimit:10;" d="M 80 11 L 82 11 "/>
<g style="fill:rgb(0%,0%,0%);fill-opacity:1;">
  <use xlink:href="#glyph0-4" x="80.050781" y="13.101562"/>
</g>
<g style="fill:rgb(0%,0%,0%);fill-opacity:1;">
  <use xlink:href="#glyph0-4" x="81.050781" y="13.101562"/>
</g>
<path style="fill:none;stroke-width:0.25;stroke-linecap:butt;stroke-linejoin:miter;stroke:rgb(0%,0%,0%);stroke-opacity:1;stroke-miterlimit:10;" d="M 82 11 C 81 5 74 5 73 11 "/>
<path style="fill:none;stroke-width:0.25;stroke-linecap:butt;stroke-linejoin:miter;stroke:rgb(0%,0%,0%);stroke-opacity:1;stroke-miterlimit:10;" d="M 82 11 C 81 6 76 6 75 11 "/>
<path style="fill:none;stroke-width:1;stroke-linecap:butt;stroke-linejoin:miter;stroke:rgb(0%,0%,0%);stroke-opacity:1;stroke-miterlimit:10;" d="M 83 11 L 84 11 "/>
<g style="fill:rgb(0%,0%,0%);fill-opacity:1;">
  <use xlink:href="#glyph0-4" x="83.050781" y="13.101562"/>
</g>
<path style="fill:none;stroke-width:0.25;stroke-linecap:butt;stroke-linejoin:miter;stroke:rgb(0%,0%,0%);stroke-opacity:1;stroke-miterlimit:10;" d="M 84 11 C 85 6 90 6 91 11 "/>
<path style="fill:none;stroke-width:1;stroke-linecap:butt;stroke-linejoin:miter;stroke:rgb(0%,0%,0%);stroke-opacity:1;stroke-miterlimit:10;" d="M 85 11 L 86 11 "/>
<g style="fill:rgb(0%,0%,0%);fill-opacity:1;">
  <use xlink:href="#glyph0-3" x="85.050781" y="13.101562"/>
</g>
<path style="fill:none;stroke-width:0.25;stroke-linecap:butt;stroke-linejoin:miter;stroke:rgb(0%,0%,0%);stroke-opacity:1;stroke-miterlimit:10;" d="M 86 11 C 87 7 90 7 91 11 "/>
<path style="fill:none;stroke-width:1;stroke-linecap:butt;stroke-linejoin:miter;stroke:rgb(0%,0%,0%);stroke-opacity:1;stroke-miterlimit:10;" d="M 87 11 L 88 11 "/>
<g style="fill:rgb(0%,0%,0%);fill-opacity:1;">
  <use xlink:href="#glyph0-4" x="87.050781" y="13.101562"/>
</g>
<path style="fill:none;stroke-width:0.25;stroke-linecap:butt;stroke-linejoin:miter;stroke:rgb(0%,0%,0%);stroke-opacity:1;stroke-miterlimit:10;" d="M 88 11 C 87 5 81 5 80 11 "/>
<path style="fill:none;stroke-width:1;stroke-linecap:butt;stroke-linejoin:miter;stroke:rgb(0%,0%,0%);stroke-opacity:1;stroke-miterlimit:10;" d="M 89 11 L 90 11 "/>
<g style="fill:rgb(0%,0%,0%);fill-opacity:1;">
  <use xlink:href="#glyph0-3" x="89.050781" y="13.101562"/>
</g>
<path style="fill:none;stroke-width:0.25;stroke-linecap:butt;stroke-linejoin:miter;stroke:rgb(0%,0%,0%);stroke-opacity:1;stroke-miterlimit:10;" d="M 90 11 C 89 4 81 4 80 11 "/>
<path style="fill:none;stroke-width:1;stroke-linecap:butt;stroke-linejoin:miter;stroke:rgb(0%,0%,0%);stroke-opacity:1;stroke-miterlimit:10;" d="M 91 11 L 111 11 "/>
<g style="fill:rgb(0%,0%,0%);fill-opacity:1;">
  <use xlink:href="#glyph0-4" x="91.050781" y="13.101562"/>
</g>
<g style="fill:rgb(0%,0%,0%);fill-opacity:1;">
  <use xlink:href="#glyph0-1" x="92.050781" y="13.101562"/>
</g>
<g style="fill:rgb(0%,0%,0%);fill-opacity:1;">
  <use xlink:href="#glyph0-2" x="93.050781" y="13.101562"/>
</g>
<g style="fill:rgb(0%,0%,0%);fill-opacity:1;">
  <use xlink:href="#glyph0-2" x="94.050781" y="13.101562"/>
</g>
<g style="fill:rgb(0%,0%,0%);fill-opacity:1;">
  <use xlink:href="#glyph0-1" x="95.050781" y="13.101562"/>
</g>
<g style="fill:rgb(0%,0%,0%);fill-opacity:1;">
  <use xlink:href="#glyph0-1" x="96.050781" y="13.101562"/>
</g>
<g style="fill:rgb(0%,0%,0%);fill-opacity:1;">
  <use xlink:href="#glyph0-2" x="97.050781" y="13.101562"/>
</g>
<g style="fill:rgb(0%,0%,0%);fill-opacity:1;">
  <use xlink:href="#glyph0-2" x="98.050781" y="13.101562"/>
</g>
<g style="fill:rgb(0%,0%,0%);fill-opacity:1;">
  <use xlink:href="#glyph0-1" x="99.050781" y="13.101562"/>
</g>
<g style="fill:rgb(0%,0%,0%);fill-opacity:1;">
  <use xlink:href="#glyph0-3" x="100.050781" y="13.101562"/>
</g>
<g style="fill:rgb(0%,0%,0%);fill-opacity:1;">
  <use xlink:href="#glyph0-1" x="101.050781" y="13.101562"/>
</g>
<g style="fill:rgb(0%,0%,0%);fill-opacity:1;">
  <use xlink:href="#glyph0-1" x="102.050781" y="13.101562"/>
</g>
<g style="fill:rgb(0%,0%,0%);fill-opacity:1;">
  <use xlink:href="#glyph0-2" x="103.050781" y="13.101562"/>
</g>
<g style="fill:rgb(0%,0%,0%);fill-opacity:1;">
  <use xlink:href="#glyph0-2" x="104.050781" y="13.101562"/>
</g>
<g style="fill:rgb(0%,0%,0%);fill-opacity:1;">
  <use xlink:href="#glyph0-4" x="105.050781" y="13.101562"/>
</g>
<g style="fill:rgb(0%,0%,0%);fill-opacity:1;">
  <use xlink:href="#glyph0-1" x="106.050781" y="13.101562"/>
</g>
<g style="fill:rgb(0%,0%,0%);fill-opacity:1;">
  <use xlink:href="#glyph0-1" x="107.050781" y="13.101562"/>
</g>
<g style="fill:rgb(0%,0%,0%);fill-opacity:1;">
  <use xlink:href="#glyph0-4" x="108.050781" y="13.101562"/>
</g>
<g style="fill:rgb(0%,0%,0%);fill-opacity:1;">
  <use xlink:href="#glyph0-3" x="109.050781" y="13.101562"/>
</g>
<g style="fill:rgb(0%,0%,0%);fill-opacity:1;">
  <use xlink:href="#glyph0-1" x="110.050781" y="13.101562"/>
</g>
<path style="fill:none;stroke-width:0.25;stroke-linecap:butt;stroke-linejoin:miter;stroke:rgb(0%,0%,0%);stroke-opacity:1;stroke-miterlimit:10;" d="M 111 11 C 111 8 114 8 114 11 "/>
<path style="fill:none;stroke-width:0.25;stroke-linecap:butt;stroke-linejoin:miter;stroke:rgb(0%,0%,0%);stroke-opacity:1;stroke-miterlimit:10;" d="M 111 11 C 112 7 115 7 116 11 "/>
<path style="fill:none;stroke-width:1;stroke-linecap:butt;stroke-linejoin:miter;stroke:rgb(0%,0%,0%);stroke-opacity:1;stroke-miterlimit:10;" d="M 112 11 L 113 11 "/>
<g style="fill:rgb(0%,0%,0%);fill-opacity:1;">
  <use xlink:href="#glyph0-1" x="112.050781" y="13.101562"/>
</g>
<path style="fill:none;stroke-width:0.25;stroke-linecap:butt;stroke-linejoin:miter;stroke:rgb(0%,0%,0%);stroke-opacity:1;stroke-miterlimit:10;" d="M 113 11 C 111 0 89 0 87 11 "/>
<path style="fill:none;stroke-width:0.25;stroke-linecap:butt;stroke-linejoin:miter;stroke:rgb(0%,0%,0%);stroke-opacity:1;stroke-miterlimit:10;" d="M 113 11 C 111 0 91 0 89 11 "/>
<path style="fill:none;stroke-width:1;stroke-linecap:butt;stroke-linejoin:miter;stroke:rgb(0%,0%,0%);stroke-opacity:1;stroke-miterlimit:10;" d="M 114 11 L 115 11 "/>
<g style="fill:rgb(0%,0%,0%);fill-opacity:1;">
  <use xlink:href="#glyph0-3" x="114.050781" y="13.101562"/>
</g>
<path style="fill:none;stroke-width:0.25;stroke-linecap:butt;stroke-linejoin:miter;stroke:rgb(0%,0%,0%);stroke-opacity:1;stroke-miterlimit:10;" d="M 115 11 C 116 4 125 4 126 11 "/>
<path style="fill:none;stroke-width:1;stroke-linecap:butt;stroke-linejoin:miter;stroke:rgb(0%,0%,0%);stroke-opacity:1;stroke-miterlimit:10;" d="M 116 11 L 117 11 "/>
<g style="fill:rgb(0%,0%,0%);fill-opacity:1;">
  <use xlink:href="#glyph0-4" x="116.050781" y="13.101562"/>
</g>
<path style="fill:none;stroke-width:0.25;stroke-linecap:butt;stroke-linejoin:miter;stroke:rgb(0%,0%,0%);stroke-opacity:1;stroke-miterlimit:10;" d="M 117 11 C 118 5 125 5 126 11 "/>
<path style="fill:none;stroke-width:1;stroke-linecap:butt;stroke-linejoin:miter;stroke:rgb(0%,0%,0%);stroke-opacity:1;stroke-miterlimit:10;" d="M 118 11 L 121 11 "/>
<g style="fill:rgb(0%,0%,0%);fill-opacity:1;">
  <use xlink:href="#glyph0-2" x="118.050781" y="13.101562"/>
</g>
<g style="fill:rgb(0%,0%,0%);fill-opacity:1;">
  <use xlink:href="#glyph0-1" x="119.050781" y="13.101562"/>
</g>
<g style="fill:rgb(0%,0%,0%);fill-opacity:1;">
  <use xlink:href="#glyph0-4" x="120.050781" y="13.101562"/>
</g>
<path style="fill:none;stroke-width:0.25;stroke-linecap:butt;stroke-linejoin:miter;stroke:rgb(0%,0%,0%);stroke-opacity:1;stroke-miterlimit:10;" d="M 121 11 C 120 5 113 5 112 11 "/>
<path style="fill:none;stroke-width:1;stroke-linecap:butt;stroke-linejoin:miter;stroke:rgb(0%,0%,0%);stroke-opacity:1;stroke-miterlimit:10;" d="M 122 11 L 125 11 "/>
<g style="fill:rgb(0%,0%,0%);fill-opacity:1;">
  <use xlink:href="#glyph0-1" x="122.050781" y="13.101562"/>
</g>
<g style="fill:rgb(0%,0%,0%);fill-opacity:1;">
  <use xlink:href="#glyph0-4" x="123.050781" y="13.101562"/>
</g>
<g style="fill:rgb(0%,0%,0%);fill-opacity:1;">
  <use xlink:href="#glyph0-3" x="124.050781" y="13.101562"/>
</g>
<path style="fill:none;stroke-width:0.25;stroke-linecap:butt;stroke-linejoin:miter;stroke:rgb(0%,0%,0%);stroke-opacity:1;stroke-miterlimit:10;" d="M 125 11 C 123 3 114 3 112 11 "/>
<path style="fill:none;stroke-width:1;stroke-linecap:butt;stroke-linejoin:miter;stroke:rgb(0%,0%,0%);stroke-opacity:1;stroke-miterlimit:10;" d="M 126 11 L 138 11 "/>
<g style="fill:rgb(0%,0%,0%);fill-opacity:1;">
  <use xlink:href="#glyph0-1" x="126.050781" y="13.101562"/>
</g>
<g style="fill:rgb(0%,0%,0%);fill-opacity:1;">
  <use xlink:href="#glyph0-1" x="127.050781" y="13.101562"/>
</g>
<g style="fill:rgb(0%,0%,0%);fill-opacity:1;">
  <use xlink:href="#glyph0-1" x="128.050781" y="13.101562"/>
</g>
<g style="fill:rgb(0%,0%,0%);fill-opacity:1;">
  <use xlink:href="#glyph0-2" x="129.050781" y="13.101562"/>
</g>
<g style="fill:rgb(0%,0%,0%);fill-opacity:1;">
  <use xlink:href="#glyph0-4" x="130.050781" y="13.101562"/>
</g>
<g style="fill:rgb(0%,0%,0%);fill-opacity:1;">
  <use xlink:href="#glyph0-1" x="131.050781" y="13.101562"/>
</g>
<g style="fill:rgb(0%,0%,0%);fill-opacity:1;">
  <use xlink:href="#glyph0-4" x="132.050781" y="13.101562"/>
</g>
<g style="fill:rgb(0%,0%,0%);fill-opacity:1;">
  <use xlink:href="#glyph0-1" x="133.050781" y="13.101562"/>
</g>
<g style="fill:rgb(0%,0%,0%);fill-opacity:1;">
  <use xlink:href="#glyph0-1" x="134.050781" y="13.101562"/>
</g>
<g style="fill:rgb(0%,0%,0%);fill-opacity:1;">
  <use xlink:href="#glyph0-3" x="135.050781" y="13.101562"/>
</g>
<g style="fill:rgb(0%,0%,0%);fill-opacity:1;">
  <use xlink:href="#glyph0-4" x="136.050781" y="13.101562"/>
</g>
<g style="fill:rgb(0%,0%,0%);fill-opacity:1;">
  <use xlink:href="#glyph0-1" x="137.050781" y="13.101562"/>
</g>
<path style="fill:none;stroke-width:0.25;stroke-linecap:butt;stroke-linejoin:miter;stroke:rgb(0%,0%,0%);stroke-opacity:1;stroke-miterlimit:10;" d="M 138 11 C 138 8 141 8 141 11 "/>
<path style="fill:none;stroke-width:0.25;stroke-linecap:butt;stroke-linejoin:miter;stroke:rgb(0%,0%,0%);stroke-opacity:1;stroke-miterlimit:10;" d="M 138 11 C 139 7 142 7 143 11 "/>
<path style="fill:none;stroke-width:1;stroke-linecap:butt;stroke-linejoin:miter;stroke:rgb(0%,0%,0%);stroke-opacity:1;stroke-miterlimit:10;" d="M 139 11 L 140 11 "/>
<g style="fill:rgb(0%,0%,0%);fill-opacity:1;">
  <use xlink:href="#glyph0-4" x="139.050781" y="13.101562"/>
</g>
<path style="fill:none;stroke-width:0.25;stroke-linecap:butt;stroke-linejoin:miter;stroke:rgb(0%,0%,0%);stroke-opacity:1;stroke-miterlimit:10;" d="M 140 11 C 138 0 120 0 118 11 "/>
<path style="fill:none;stroke-width:0.25;stroke-linecap:butt;stroke-linejoin:miter;stroke:rgb(0%,0%,0%);stroke-opacity:1;stroke-miterlimit:10;" d="M 140 11 C 138 1 124 1 122 11 "/>
<path style="fill:none;stroke-width:1;stroke-linecap:butt;stroke-linejoin:miter;stroke:rgb(0%,0%,0%);stroke-opacity:1;stroke-miterlimit:10;" d="M 141 11 L 142 11 "/>
<g style="fill:rgb(0%,0%,0%);fill-opacity:1;">
  <use xlink:href="#glyph0-2" x="141.050781" y="13.101562"/>
</g>
<path style="fill:none;stroke-width:1;stroke-linecap:butt;stroke-linejoin:miter;stroke:rgb(0%,0%,0%);stroke-opacity:1;stroke-miterlimit:10;" d="M 143 11 L 144 11 "/>
<g style="fill:rgb(0%,0%,0%);fill-opacity:1;">
  <use xlink:href="#glyph0-1" x="143.050781" y="13.101562"/>
</g>
<path style="fill:none;stroke-width:1;stroke-linecap:butt;stroke-linejoin:miter;stroke:rgb(0%,0%,0%);stroke-opacity:1;stroke-miterlimit:10;" d="M 145 11 L 146 11 "/>
<g style="fill:rgb(0%,0%,0%);fill-opacity:1;">
  <use xlink:href="#glyph0-4" x="145.050781" y="13.101562"/>
</g>
<path style="fill:none;stroke-width:0.25;stroke-linecap:butt;stroke-linejoin:miter;stroke:rgb(0%,0%,0%);stroke-opacity:1;stroke-miterlimit:10;" d="M 146 11 C 145 6 140 6 139 11 "/>
<path style="fill:none;stroke-width:1;stroke-linecap:butt;stroke-linejoin:miter;stroke:rgb(0%,0%,0%);stroke-opacity:1;stroke-miterlimit:10;" d="M 147 11 L 148 11 "/>
<g style="fill:rgb(0%,0%,0%);fill-opacity:1;">
  <use xlink:href="#glyph0-1" x="147.050781" y="13.101562"/>
</g>
<path style="fill:none;stroke-width:0.25;stroke-linecap:butt;stroke-linejoin:miter;stroke:rgb(0%,0%,0%);stroke-opacity:1;stroke-miterlimit:10;" d="M 148 11 C 147 5 140 5 139 11 "/>
<g style="fill:rgb(52.925917%,75.111009%,22.96788%);fill-opacity:1;">
  <use xlink:href="#glyph0-5" x="10.089844" y="15.351562"/>
  <use xlink:href="#glyph0-6" x="10.479004" y="15.351562"/>
  <use xlink:href="#glyph0-7" x="11.035156" y="15.351562"/>
  <use xlink:href="#glyph0-8" x="11.368164" y="15.351562"/>
  <use xlink:href="#glyph0-6" x="11.924316" y="15.351562"/>
  <use xlink:href="#glyph0-9" x="12.480469" y="15.351562"/>
  <use xlink:href="#glyph0-10" x="13.091309" y="15.351562"/>
  <use xlink:href="#glyph0-11" x="13.371094" y="15.351562"/>
  <use xlink:href="#glyph0-1" x="14.093262" y="15.351562"/>
  <use xlink:href="#glyph0-12" x="14.81543" y="15.351562"/>
  <use xlink:href="#glyph0-13" x="15.371582" y="15.351562"/>
  <use xlink:href="#glyph0-13" x="15.927734" y="15.351562"/>
  <use xlink:href="#glyph0-14" x="16.483887" y="15.351562"/>
  <use xlink:href="#glyph0-15" x="17.040039" y="15.351562"/>
  <use xlink:href="#glyph0-16" x="17.596191" y="15.351562"/>
  <use xlink:href="#glyph0-17" x="18.152344" y="15.351562"/>
  <use xlink:href="#glyph0-18" x="18.708496" y="15.351562"/>
  <use xlink:href="#glyph0-14" x="18.986328" y="15.351562"/>
  <use xlink:href="#glyph0-10" x="19.54248" y="15.351562"/>
  <use xlink:href="#glyph0-19" x="19.822266" y="15.351562"/>
  <use xlink:href="#glyph0-20" x="20.378418" y="15.351562"/>
  <use xlink:href="#glyph0-5" x="20.989258" y="15.351562"/>
  <use xlink:href="#glyph0-21" x="21.378418" y="15.351562"/>
  <use xlink:href="#glyph0-22" x="21.989258" y="15.351562"/>
  <use xlink:href="#glyph0-21" x="22.878418" y="15.351562"/>
  <use xlink:href="#glyph0-8" x="23.489258" y="15.351562"/>
  <use xlink:href="#glyph0-21" x="24.04541" y="15.351562"/>
  <use xlink:href="#glyph0-22" x="24.65625" y="15.351562"/>
  <use xlink:href="#glyph0-6" x="25.54541" y="15.351562"/>
</g>
<path style="fill:none;stroke-width:1;stroke-linecap:butt;stroke-linejoin:miter;stroke:rgb(52.925917%,75.111009%,22.96788%);stroke-opacity:1;stroke-miterlimit:10;" d="M 145 15 L 146 15 "/>
<path style="fill:none;stroke-width:1;stroke-linecap:butt;stroke-linejoin:miter;stroke:rgb(52.925917%,75.111009%,22.96788%);stroke-opacity:1;stroke-miterlimit:10;" d="M 139 15 L 140 15 "/>
<path style="fill:none;stroke-width:1;stroke-linecap:butt;stroke-linejoin:miter;stroke:rgb(52.925917%,75.111009%,22.96788%);stroke-opacity:1;stroke-miterlimit:10;" d="M 118 15 L 121 15 "/>
<path style="fill:none;stroke-width:1;stroke-linecap:butt;stroke-linejoin:miter;stroke:rgb(52.925917%,75.111009%,22.96788%);stroke-opacity:1;stroke-miterlimit:10;" d="M 112 15 L 113 15 "/>
<path style="fill:none;stroke-width:1;stroke-linecap:butt;stroke-linejoin:miter;stroke:rgb(52.925917%,75.111009%,22.96788%);stroke-opacity:1;stroke-miterlimit:10;" d="M 87 15 L 88 15 "/>
<path style="fill:none;stroke-width:1;stroke-linecap:butt;stroke-linejoin:miter;stroke:rgb(52.925917%,75.111009%,22.96788%);stroke-opacity:1;stroke-miterlimit:10;" d="M 80 15 L 82 15 "/>
<path style="fill:none;stroke-width:1;stroke-linecap:butt;stroke-linejoin:miter;stroke:rgb(52.925917%,75.111009%,22.96788%);stroke-opacity:1;stroke-miterlimit:10;" d="M 73 15 L 74 15 "/>
<path style="fill:none;stroke-width:1;stroke-linecap:butt;stroke-linejoin:miter;stroke:rgb(52.925917%,75.111009%,22.96788%);stroke-opacity:1;stroke-miterlimit:10;" d="M 66 15 L 68 15 "/>
<path style="fill:none;stroke-width:1;stroke-linecap:butt;stroke-linejoin:miter;stroke:rgb(52.925917%,75.111009%,22.96788%);stroke-opacity:1;stroke-miterlimit:10;" d="M 53 15 L 54 15 "/>
<path style="fill:none;stroke-width:1;stroke-linecap:butt;stroke-linejoin:miter;stroke:rgb(52.925917%,75.111009%,22.96788%);stroke-opacity:1;stroke-miterlimit:10;" d="M 35 15 L 46 15 "/>
<path style="fill:none;stroke-width:1;stroke-linecap:butt;stroke-linejoin:miter;stroke:rgb(52.925917%,75.111009%,22.96788%);stroke-opacity:1;stroke-miterlimit:10;" d="M 27 15 L 28 15 "/>
<path style="fill:none;stroke-width:1;stroke-linecap:butt;stroke-linejoin:miter;stroke:rgb(52.925917%,75.111009%,22.96788%);stroke-opacity:1;stroke-miterlimit:10;" d="M 29 15 L 34 15 "/>
<path style="fill:none;stroke-width:1;stroke-linecap:butt;stroke-linejoin:miter;stroke:rgb(52.925917%,75.111009%,22.96788%);stroke-opacity:1;stroke-miterlimit:10;" d="M 47 15 L 48 15 "/>
<path style="fill:none;stroke-width:1;stroke-linecap:butt;stroke-linejoin:miter;stroke:rgb(52.925917%,75.111009%,22.96788%);stroke-opacity:1;stroke-miterlimit:10;" d="M 57 15 L 65 15 "/>
<path style="fill:none;stroke-width:1;stroke-linecap:butt;stroke-linejoin:miter;stroke:rgb(52.925917%,75.111009%,22.96788%);stroke-opacity:1;stroke-miterlimit:10;" d="M 69 15 L 70 15 "/>
<path style="fill:none;stroke-width:1;stroke-linecap:butt;stroke-linejoin:miter;stroke:rgb(52.925917%,75.111009%,22.96788%);stroke-opacity:1;stroke-miterlimit:10;" d="M 77 15 L 79 15 "/>
<path style="fill:none;stroke-width:1;stroke-linecap:butt;stroke-linejoin:miter;stroke:rgb(52.925917%,75.111009%,22.96788%);stroke-opacity:1;stroke-miterlimit:10;" d="M 91 15 L 111 15 "/>
<path style="fill:none;stroke-width:1;stroke-linecap:butt;stroke-linejoin:miter;stroke:rgb(52.925917%,75.111009%,22.96788%);stroke-opacity:1;stroke-miterlimit:10;" d="M 114 15 L 115 15 "/>
<path style="fill:none;stroke-width:1;stroke-linecap:butt;stroke-linejoin:miter;stroke:rgb(52.925917%,75.111009%,22.96788%);stroke-opacity:1;stroke-miterlimit:10;" d="M 126 15 L 138 15 "/>
<path style="fill:none;stroke-width:1;stroke-linecap:butt;stroke-linejoin:miter;stroke:rgb(52.925917%,75.111009%,22.96788%);stroke-opacity:1;stroke-miterlimit:10;" d="M 141 15 L 142 15 "/>
<path style="fill:none;stroke-width:1;stroke-linecap:butt;stroke-linejoin:miter;stroke:rgb(52.925917%,75.111009%,22.96788%);stroke-opacity:1;stroke-miterlimit:10;" d="M 85 15 L 86 15 "/>
<g style="fill:rgb(53.836881%,95.945678%,70.063325%);fill-opacity:1;">
  <use xlink:href="#glyph0-5" x="10.089844" y="17.351562"/>
  <use xlink:href="#glyph0-6" x="10.479004" y="17.351562"/>
  <use xlink:href="#glyph0-7" x="11.035156" y="17.351562"/>
  <use xlink:href="#glyph0-8" x="11.368164" y="17.351562"/>
  <use xlink:href="#glyph0-6" x="11.924316" y="17.351562"/>
  <use xlink:href="#glyph0-9" x="12.480469" y="17.351562"/>
  <use xlink:href="#glyph0-10" x="13.091309" y="17.351562"/>
  <use xlink:href="#glyph0-11" x="13.371094" y="17.351562"/>
  <use xlink:href="#glyph0-1" x="14.093262" y="17.351562"/>
  <use xlink:href="#glyph0-12" x="14.81543" y="17.351562"/>
  <use xlink:href="#glyph0-13" x="15.371582" y="17.351562"/>
  <use xlink:href="#glyph0-13" x="15.927734" y="17.351562"/>
  <use xlink:href="#glyph0-23" x="16.483887" y="17.351562"/>
  <use xlink:href="#glyph0-24" x="17.040039" y="17.351562"/>
  <use xlink:href="#glyph0-17" x="17.596191" y="17.351562"/>
  <use xlink:href="#glyph0-25" x="18.152344" y="17.351562"/>
  <use xlink:href="#glyph0-18" x="18.708496" y="17.351562"/>
  <use xlink:href="#glyph0-16" x="18.986328" y="17.351562"/>
  <use xlink:href="#glyph0-10" x="19.54248" y="17.351562"/>
  <use xlink:href="#glyph0-19" x="19.822266" y="17.351562"/>
  <use xlink:href="#glyph0-20" x="20.378418" y="17.351562"/>
  <use xlink:href="#glyph0-5" x="20.989258" y="17.351562"/>
  <use xlink:href="#glyph0-21" x="21.378418" y="17.351562"/>
  <use xlink:href="#glyph0-22" x="21.989258" y="17.351562"/>
  <use xlink:href="#glyph0-21" x="22.878418" y="17.351562"/>
  <use xlink:href="#glyph0-8" x="23.489258" y="17.351562"/>
  <use xlink:href="#glyph0-21" x="24.04541" y="17.351562"/>
  <use xlink:href="#glyph0-22" x="24.65625" y="17.351562"/>
  <use xlink:href="#glyph0-6" x="25.54541" y="17.351562"/>
</g>
<path style="fill:none;stroke-width:1;stroke-linecap:butt;stroke-linejoin:miter;stroke:rgb(53.836881%,95.945678%,70.063325%);stroke-opacity:1;stroke-miterlimit:10;" d="M 145 17 L 146 17 "/>
<path style="fill:none;stroke-width:1;stroke-linecap:butt;stroke-linejoin:miter;stroke:rgb(53.836881%,95.945678%,70.063325%);stroke-opacity:1;stroke-miterlimit:10;" d="M 139 17 L 140 17 "/>
<path style="fill:none;stroke-width:1;stroke-linecap:butt;stroke-linejoin:miter;stroke:rgb(53.836881%,95.945678%,70.063325%);stroke-opacity:1;stroke-miterlimit:10;" d="M 118 17 L 121 17 "/>
<path style="fill:none;stroke-width:1;stroke-linecap:butt;stroke-linejoin:miter;stroke:rgb(53.836881%,95.945678%,70.063325%);stroke-opacity:1;stroke-miterlimit:10;" d="M 112 17 L 113 17 "/>
<path style="fill:none;stroke-width:1;stroke-linecap:butt;stroke-linejoin:miter;stroke:rgb(53.836881%,95.945678%,70.063325%);stroke-opacity:1;stroke-miterlimit:10;" d="M 87 17 L 88 17 "/>
<path style="fill:none;stroke-width:1;stroke-linecap:butt;stroke-linejoin:miter;stroke:rgb(53.836881%,95.945678%,70.063325%);stroke-opacity:1;stroke-miterlimit:10;" d="M 80 17 L 82 17 "/>
<path style="fill:none;stroke-width:1;stroke-linecap:butt;stroke-linejoin:miter;stroke:rgb(53.836881%,95.945678%,70.063325%);stroke-opacity:1;stroke-miterlimit:10;" d="M 73 17 L 74 17 "/>
<path style="fill:none;stroke-width:1;stroke-linecap:butt;stroke-linejoin:miter;stroke:rgb(53.836881%,95.945678%,70.063325%);stroke-opacity:1;stroke-miterlimit:10;" d="M 66 17 L 68 17 "/>
<path style="fill:none;stroke-width:1;stroke-linecap:butt;stroke-linejoin:miter;stroke:rgb(53.836881%,95.945678%,70.063325%);stroke-opacity:1;stroke-miterlimit:10;" d="M 53 17 L 54 17 "/>
<path style="fill:none;stroke-width:1;stroke-linecap:butt;stroke-linejoin:miter;stroke:rgb(53.836881%,95.945678%,70.063325%);stroke-opacity:1;stroke-miterlimit:10;" d="M 35 17 L 46 17 "/>
<path style="fill:none;stroke-width:1;stroke-linecap:butt;stroke-linejoin:miter;stroke:rgb(53.836881%,95.945678%,70.063325%);stroke-opacity:1;stroke-miterlimit:10;" d="M 27 17 L 28 17 "/>
<path style="fill:none;stroke-width:1;stroke-linecap:butt;stroke-linejoin:miter;stroke:rgb(53.836881%,95.945678%,70.063325%);stroke-opacity:1;stroke-miterlimit:10;" d="M 29 17 L 34 17 "/>
<path style="fill:none;stroke-width:1;stroke-linecap:butt;stroke-linejoin:miter;stroke:rgb(53.836881%,95.945678%,70.063325%);stroke-opacity:1;stroke-miterlimit:10;" d="M 47 17 L 48 17 "/>
<path style="fill:none;stroke-width:1;stroke-linecap:butt;stroke-linejoin:miter;stroke:rgb(53.836881%,95.945678%,70.063325%);stroke-opacity:1;stroke-miterlimit:10;" d="M 57 17 L 65 17 "/>
<path style="fill:none;stroke-width:1;stroke-linecap:butt;stroke-linejoin:miter;stroke:rgb(53.836881%,95.945678%,70.063325%);stroke-opacity:1;stroke-miterlimit:10;" d="M 69 17 L 70 17 "/>
<path style="fill:none;stroke-width:1;stroke-linecap:butt;stroke-linejoin:miter;stroke:rgb(53.836881%,95.945678%,70.063325%);stroke-opacity:1;stroke-miterlimit:10;" d="M 77 17 L 79 17 "/>
<path style="fill:none;stroke-width:1;stroke-linecap:butt;stroke-linejoin:miter;stroke:rgb(53.836881%,95.945678%,70.063325%);stroke-opacity:1;stroke-miterlimit:10;" d="M 91 17 L 111 17 "/>
<path style="fill:none;stroke-width:1;stroke-linecap:butt;stroke-linejoin:miter;stroke:rgb(53.836881%,95.945678%,70.063325%);stroke-opacity:1;stroke-miterlimit:10;" d="M 114 17 L 115 17 "/>
<path style="fill:none;stroke-width:1;stroke-linecap:butt;stroke-linejoin:miter;stroke:rgb(53.836881%,95.945678%,70.063325%);stroke-opacity:1;stroke-miterlimit:10;" d="M 126 17 L 138 17 "/>
<path style="fill:none;stroke-width:1;stroke-linecap:butt;stroke-linejoin:miter;stroke:rgb(53.836881%,95.945678%,70.063325%);stroke-opacity:1;stroke-miterlimit:10;" d="M 141 17 L 142 17 "/>
<path style="fill:none;stroke-width:1;stroke-linecap:butt;stroke-linejoin:miter;stroke:rgb(53.836881%,95.945678%,70.063325%);stroke-opacity:1;stroke-miterlimit:10;" d="M 85 17 L 86 17 "/>
<g style="fill:rgb(44.789807%,66.584268%,74.990463%);fill-opacity:1;">
  <use xlink:href="#glyph0-5" x="10.089844" y="19.351562"/>
  <use xlink:href="#glyph0-6" x="10.479004" y="19.351562"/>
  <use xlink:href="#glyph0-7" x="11.035156" y="19.351562"/>
  <use xlink:href="#glyph0-8" x="11.368164" y="19.351562"/>
  <use xlink:href="#glyph0-6" x="11.924316" y="19.351562"/>
  <use xlink:href="#glyph0-9" x="12.480469" y="19.351562"/>
  <use xlink:href="#glyph0-10" x="13.091309" y="19.351562"/>
  <use xlink:href="#glyph0-11" x="13.371094" y="19.351562"/>
  <use xlink:href="#glyph0-1" x="14.093262" y="19.351562"/>
  <use xlink:href="#glyph0-12" x="14.81543" y="19.351562"/>
  <use xlink:href="#glyph0-13" x="15.371582" y="19.351562"/>
  <use xlink:href="#glyph0-13" x="15.927734" y="19.351562"/>
  <use xlink:href="#glyph0-26" x="16.483887" y="19.351562"/>
  <use xlink:href="#glyph0-17" x="17.040039" y="19.351562"/>
  <use xlink:href="#glyph0-15" x="17.596191" y="19.351562"/>
  <use xlink:href="#glyph0-17" x="18.152344" y="19.351562"/>
  <use xlink:href="#glyph0-18" x="18.708496" y="19.351562"/>
  <use xlink:href="#glyph0-16" x="18.986328" y="19.351562"/>
  <use xlink:href="#glyph0-10" x="19.54248" y="19.351562"/>
  <use xlink:href="#glyph0-19" x="19.822266" y="19.351562"/>
  <use xlink:href="#glyph0-20" x="20.378418" y="19.351562"/>
  <use xlink:href="#glyph0-5" x="20.989258" y="19.351562"/>
  <use xlink:href="#glyph0-21" x="21.378418" y="19.351562"/>
  <use xlink:href="#glyph0-22" x="21.989258" y="19.351562"/>
  <use xlink:href="#glyph0-21" x="22.878418" y="19.351562"/>
  <use xlink:href="#glyph0-8" x="23.489258" y="19.351562"/>
  <use xlink:href="#glyph0-21" x="24.04541" y="19.351562"/>
  <use xlink:href="#glyph0-22" x="24.65625" y="19.351562"/>
  <use xlink:href="#glyph0-6" x="25.54541" y="19.351562"/>
</g>
<path style="fill:none;stroke-width:1;stroke-linecap:butt;stroke-linejoin:miter;stroke:rgb(44.789807%,66.584268%,74.990463%);stroke-opacity:1;stroke-miterlimit:10;" d="M 139 19 L 140 19 "/>
<path style="fill:none;stroke-width:1;stroke-linecap:butt;stroke-linejoin:miter;stroke:rgb(44.789807%,66.584268%,74.990463%);stroke-opacity:1;stroke-miterlimit:10;" d="M 112 19 L 113 19 "/>
<path style="fill:none;stroke-width:1;stroke-linecap:butt;stroke-linejoin:miter;stroke:rgb(44.789807%,66.584268%,74.990463%);stroke-opacity:1;stroke-miterlimit:10;" d="M 80 19 L 82 19 "/>
<path style="fill:none;stroke-width:1;stroke-linecap:butt;stroke-linejoin:miter;stroke:rgb(44.789807%,66.584268%,74.990463%);stroke-opacity:1;stroke-miterlimit:10;" d="M 66 19 L 68 19 "/>
<path style="fill:none;stroke-width:1;stroke-linecap:butt;stroke-linejoin:miter;stroke:rgb(44.789807%,66.584268%,74.990463%);stroke-opacity:1;stroke-miterlimit:10;" d="M 35 19 L 46 19 "/>
<path style="fill:none;stroke-width:1;stroke-linecap:butt;stroke-linejoin:miter;stroke:rgb(44.789807%,66.584268%,74.990463%);stroke-opacity:1;stroke-miterlimit:10;" d="M 29 19 L 34 19 "/>
<path style="fill:none;stroke-width:1;stroke-linecap:butt;stroke-linejoin:miter;stroke:rgb(44.789807%,66.584268%,74.990463%);stroke-opacity:1;stroke-miterlimit:10;" d="M 57 19 L 65 19 "/>
<path style="fill:none;stroke-width:1;stroke-linecap:butt;stroke-linejoin:miter;stroke:rgb(44.789807%,66.584268%,74.990463%);stroke-opacity:1;stroke-miterlimit:10;" d="M 77 19 L 79 19 "/>
<path style="fill:none;stroke-width:1;stroke-linecap:butt;stroke-linejoin:miter;stroke:rgb(44.789807%,66.584268%,74.990463%);stroke-opacity:1;stroke-miterlimit:10;" d="M 83 19 L 84 19 "/>
<path style="fill:none;stroke-width:1;stroke-linecap:butt;stroke-linejoin:miter;stroke:rgb(44.789807%,66.584268%,74.990463%);stroke-opacity:1;stroke-miterlimit:10;" d="M 91 19 L 111 19 "/>
<path style="fill:none;stroke-width:1;stroke-linecap:butt;stroke-linejoin:miter;stroke:rgb(44.789807%,66.584268%,74.990463%);stroke-opacity:1;stroke-miterlimit:10;" d="M 126 19 L 138 19 "/>
<path style="fill:none;stroke-width:1;stroke-linecap:butt;stroke-linejoin:miter;stroke:rgb(44.789807%,66.584268%,74.990463%);stroke-opacity:1;stroke-miterlimit:10;" d="M 147 19 L 148 19 "/>
<path style="fill:none;stroke-width:1;stroke-linecap:butt;stroke-linejoin:miter;stroke:rgb(44.789807%,66.584268%,74.990463%);stroke-opacity:1;stroke-miterlimit:10;" d="M 122 19 L 125 19 "/>
<path style="fill:none;stroke-width:1;stroke-linecap:butt;stroke-linejoin:miter;stroke:rgb(44.789807%,66.584268%,74.990463%);stroke-opacity:1;stroke-miterlimit:10;" d="M 89 19 L 90 19 "/>
<path style="fill:none;stroke-width:1;stroke-linecap:butt;stroke-linejoin:miter;stroke:rgb(44.789807%,66.584268%,74.990463%);stroke-opacity:1;stroke-miterlimit:10;" d="M 75 19 L 76 19 "/>
<path style="fill:none;stroke-width:1;stroke-linecap:butt;stroke-linejoin:miter;stroke:rgb(44.789807%,66.584268%,74.990463%);stroke-opacity:1;stroke-miterlimit:10;" d="M 55 19 L 56 19 "/>
<path style="fill:none;stroke-width:1;stroke-linecap:butt;stroke-linejoin:miter;stroke:rgb(44.789807%,66.584268%,74.990463%);stroke-opacity:1;stroke-miterlimit:10;" d="M 51 19 L 52 19 "/>
<path style="fill:none;stroke-width:1;stroke-linecap:butt;stroke-linejoin:miter;stroke:rgb(44.789807%,66.584268%,74.990463%);stroke-opacity:1;stroke-miterlimit:10;" d="M 49 19 L 50 19 "/>
<path style="fill:none;stroke-width:1;stroke-linecap:butt;stroke-linejoin:miter;stroke:rgb(44.789807%,66.584268%,74.990463%);stroke-opacity:1;stroke-miterlimit:10;" d="M 71 19 L 72 19 "/>
<path style="fill:none;stroke-width:1;stroke-linecap:butt;stroke-linejoin:miter;stroke:rgb(44.789807%,66.584268%,74.990463%);stroke-opacity:1;stroke-miterlimit:10;" d="M 116 19 L 117 19 "/>
<path style="fill:none;stroke-width:1;stroke-linecap:butt;stroke-linejoin:miter;stroke:rgb(44.789807%,66.584268%,74.990463%);stroke-opacity:1;stroke-miterlimit:10;" d="M 143 19 L 144 19 "/>
<g style="fill:rgb(36.188296%,97.235065%,43.076219%);fill-opacity:1;">
  <use xlink:href="#glyph0-5" x="10.925781" y="21.351562"/>
  <use xlink:href="#glyph0-6" x="11.314941" y="21.351562"/>
  <use xlink:href="#glyph0-7" x="11.871094" y="21.351562"/>
  <use xlink:href="#glyph0-8" x="12.204102" y="21.351562"/>
  <use xlink:href="#glyph0-6" x="12.760254" y="21.351562"/>
  <use xlink:href="#glyph0-9" x="13.316406" y="21.351562"/>
  <use xlink:href="#glyph0-10" x="13.927246" y="21.351562"/>
  <use xlink:href="#glyph0-11" x="14.207031" y="21.351562"/>
  <use xlink:href="#glyph0-1" x="14.929199" y="21.351562"/>
  <use xlink:href="#glyph0-12" x="15.651367" y="21.351562"/>
  <use xlink:href="#glyph0-13" x="16.20752" y="21.351562"/>
  <use xlink:href="#glyph0-16" x="16.763672" y="21.351562"/>
  <use xlink:href="#glyph0-16" x="17.319824" y="21.351562"/>
  <use xlink:href="#glyph0-27" x="17.875977" y="21.351562"/>
  <use xlink:href="#glyph0-27" x="18.432129" y="21.351562"/>
  <use xlink:href="#glyph0-13" x="18.988281" y="21.351562"/>
  <use xlink:href="#glyph0-10" x="19.544434" y="21.351562"/>
  <use xlink:href="#glyph0-19" x="19.824219" y="21.351562"/>
  <use xlink:href="#glyph0-20" x="20.380371" y="21.351562"/>
  <use xlink:href="#glyph0-5" x="20.991211" y="21.351562"/>
  <use xlink:href="#glyph0-21" x="21.380371" y="21.351562"/>
  <use xlink:href="#glyph0-22" x="21.991211" y="21.351562"/>
  <use xlink:href="#glyph0-21" x="22.880371" y="21.351562"/>
  <use xlink:href="#glyph0-8" x="23.491211" y="21.351562"/>
  <use xlink:href="#glyph0-21" x="24.047363" y="21.351562"/>
  <use xlink:href="#glyph0-22" x="24.658203" y="21.351562"/>
  <use xlink:href="#glyph0-6" x="25.547363" y="21.351562"/>
</g>
<path style="fill:none;stroke-width:1;stroke-linecap:butt;stroke-linejoin:miter;stroke:rgb(36.188296%,97.235065%,43.076219%);stroke-opacity:1;stroke-miterlimit:10;" d="M 145 21 L 146 21 "/>
<path style="fill:none;stroke-width:1;stroke-linecap:butt;stroke-linejoin:miter;stroke:rgb(36.188296%,97.235065%,43.076219%);stroke-opacity:1;stroke-miterlimit:10;" d="M 139 21 L 140 21 "/>
<path style="fill:none;stroke-width:1;stroke-linecap:butt;stroke-linejoin:miter;stroke:rgb(36.188296%,97.235065%,43.076219%);stroke-opacity:1;stroke-miterlimit:10;" d="M 118 21 L 121 21 "/>
<path style="fill:none;stroke-width:1;stroke-linecap:butt;stroke-linejoin:miter;stroke:rgb(36.188296%,97.235065%,43.076219%);stroke-opacity:1;stroke-miterlimit:10;" d="M 112 21 L 113 21 "/>
<path style="fill:none;stroke-width:1;stroke-linecap:butt;stroke-linejoin:miter;stroke:rgb(36.188296%,97.235065%,43.076219%);stroke-opacity:1;stroke-miterlimit:10;" d="M 87 21 L 88 21 "/>
<path style="fill:none;stroke-width:1;stroke-linecap:butt;stroke-linejoin:miter;stroke:rgb(36.188296%,97.235065%,43.076219%);stroke-opacity:1;stroke-miterlimit:10;" d="M 80 21 L 82 21 "/>
<path style="fill:none;stroke-width:1;stroke-linecap:butt;stroke-linejoin:miter;stroke:rgb(36.188296%,97.235065%,43.076219%);stroke-opacity:1;stroke-miterlimit:10;" d="M 73 21 L 74 21 "/>
<path style="fill:none;stroke-width:1;stroke-linecap:butt;stroke-linejoin:miter;stroke:rgb(36.188296%,97.235065%,43.076219%);stroke-opacity:1;stroke-miterlimit:10;" d="M 66 21 L 68 21 "/>
<path style="fill:none;stroke-width:1;stroke-linecap:butt;stroke-linejoin:miter;stroke:rgb(36.188296%,97.235065%,43.076219%);stroke-opacity:1;stroke-miterlimit:10;" d="M 53 21 L 54 21 "/>
<path style="fill:none;stroke-width:1;stroke-linecap:butt;stroke-linejoin:miter;stroke:rgb(36.188296%,97.235065%,43.076219%);stroke-opacity:1;stroke-miterlimit:10;" d="M 35 21 L 46 21 "/>
<path style="fill:none;stroke-width:1;stroke-linecap:butt;stroke-linejoin:miter;stroke:rgb(36.188296%,97.235065%,43.076219%);stroke-opacity:1;stroke-miterlimit:10;" d="M 27 21 L 28 21 "/>
<path style="fill:none;stroke-width:1;stroke-linecap:butt;stroke-linejoin:miter;stroke:rgb(36.188296%,97.235065%,43.076219%);stroke-opacity:1;stroke-miterlimit:10;" d="M 29 21 L 34 21 "/>
<path style="fill:none;stroke-width:1;stroke-linecap:butt;stroke-linejoin:miter;stroke:rgb(36.188296%,97.235065%,43.076219%);stroke-opacity:1;stroke-miterlimit:10;" d="M 47 21 L 48 21 "/>
<path style="fill:none;stroke-width:1;stroke-linecap:butt;stroke-linejoin:miter;stroke:rgb(36.188296%,97.235065%,43.076219%);stroke-opacity:1;stroke-miterlimit:10;" d="M 57 21 L 65 21 "/>
<path style="fill:none;stroke-width:1;stroke-linecap:butt;stroke-linejoin:miter;stroke:rgb(36.188296%,97.235065%,43.076219%);stroke-opacity:1;stroke-miterlimit:10;" d="M 69 21 L 70 21 "/>
<path style="fill:none;stroke-width:1;stroke-linecap:butt;stroke-linejoin:miter;stroke:rgb(36.188296%,97.235065%,43.076219%);stroke-opacity:1;stroke-miterlimit:10;" d="M 77 21 L 79 21 "/>
<path style="fill:none;stroke-width:1;stroke-linecap:butt;stroke-linejoin:miter;stroke:rgb(36.188296%,97.235065%,43.076219%);stroke-opacity:1;stroke-miterlimit:10;" d="M 83 21 L 84 21 "/>
<path style="fill:none;stroke-width:1;stroke-linecap:butt;stroke-linejoin:miter;stroke:rgb(36.188296%,97.235065%,43.076219%);stroke-opacity:1;stroke-miterlimit:10;" d="M 91 21 L 111 21 "/>
<path style="fill:none;stroke-width:1;stroke-linecap:butt;stroke-linejoin:miter;stroke:rgb(36.188296%,97.235065%,43.076219%);stroke-opacity:1;stroke-miterlimit:10;" d="M 114 21 L 115 21 "/>
<path style="fill:none;stroke-width:1;stroke-linecap:butt;stroke-linejoin:miter;stroke:rgb(36.188296%,97.235065%,43.076219%);stroke-opacity:1;stroke-miterlimit:10;" d="M 126 21 L 138 21 "/>
<path style="fill:none;stroke-width:1;stroke-linecap:butt;stroke-linejoin:miter;stroke:rgb(36.188296%,97.235065%,43.076219%);stroke-opacity:1;stroke-miterlimit:10;" d="M 141 21 L 142 21 "/>
<g style="fill:rgb(82.485695%,52.98085%,3.785763%);fill-opacity:1;">
  <use xlink:href="#glyph0-5" x="8.8125" y="23.351562"/>
  <use xlink:href="#glyph0-6" x="9.20166" y="23.351562"/>
  <use xlink:href="#glyph0-7" x="9.757812" y="23.351562"/>
  <use xlink:href="#glyph0-8" x="10.09082" y="23.351562"/>
  <use xlink:href="#glyph0-6" x="10.646973" y="23.351562"/>
  <use xlink:href="#glyph0-9" x="11.203125" y="23.351562"/>
  <use xlink:href="#glyph0-10" x="11.813965" y="23.351562"/>
  <use xlink:href="#glyph0-11" x="12.09375" y="23.351562"/>
  <use xlink:href="#glyph0-28" x="12.815918" y="23.351562"/>
  <use xlink:href="#glyph0-12" x="13.426758" y="23.351562"/>
  <use xlink:href="#glyph0-1" x="13.98291" y="23.351562"/>
  <use xlink:href="#glyph0-29" x="14.705078" y="23.351562"/>
  <use xlink:href="#glyph0-13" x="15.37207" y="23.351562"/>
  <use xlink:href="#glyph0-14" x="15.928223" y="23.351562"/>
  <use xlink:href="#glyph0-13" x="16.484375" y="23.351562"/>
  <use xlink:href="#glyph0-17" x="17.040527" y="23.351562"/>
  <use xlink:href="#glyph0-15" x="17.59668" y="23.351562"/>
  <use xlink:href="#glyph0-26" x="18.152832" y="23.351562"/>
  <use xlink:href="#glyph0-18" x="18.708984" y="23.351562"/>
  <use xlink:href="#glyph0-16" x="18.986816" y="23.351562"/>
  <use xlink:href="#glyph0-10" x="19.542969" y="23.351562"/>
  <use xlink:href="#glyph0-19" x="19.822754" y="23.351562"/>
  <use xlink:href="#glyph0-20" x="20.378906" y="23.351562"/>
  <use xlink:href="#glyph0-5" x="20.989746" y="23.351562"/>
  <use xlink:href="#glyph0-21" x="21.378906" y="23.351562"/>
  <use xlink:href="#glyph0-22" x="21.989746" y="23.351562"/>
  <use xlink:href="#glyph0-21" x="22.878906" y="23.351562"/>
  <use xlink:href="#glyph0-8" x="23.489746" y="23.351562"/>
  <use xlink:href="#glyph0-21" x="24.045898" y="23.351562"/>
  <use xlink:href="#glyph0-22" x="24.656738" y="23.351562"/>
  <use xlink:href="#glyph0-6" x="25.545898" y="23.351562"/>
</g>
<path style="fill:none;stroke-width:1;stroke-linecap:butt;stroke-linejoin:miter;stroke:rgb(82.485695%,52.98085%,3.785763%);stroke-opacity:1;stroke-miterlimit:10;" d="M 145 23 L 146 23 "/>
<path style="fill:none;stroke-width:1;stroke-linecap:butt;stroke-linejoin:miter;stroke:rgb(82.485695%,52.98085%,3.785763%);stroke-opacity:1;stroke-miterlimit:10;" d="M 139 23 L 140 23 "/>
<path style="fill:none;stroke-width:1;stroke-linecap:butt;stroke-linejoin:miter;stroke:rgb(82.485695%,52.98085%,3.785763%);stroke-opacity:1;stroke-miterlimit:10;" d="M 118 23 L 121 23 "/>
<path style="fill:none;stroke-width:1;stroke-linecap:butt;stroke-linejoin:miter;stroke:rgb(82.485695%,52.98085%,3.785763%);stroke-opacity:1;stroke-miterlimit:10;" d="M 112 23 L 113 23 "/>
<path style="fill:none;stroke-width:1;stroke-linecap:butt;stroke-linejoin:miter;stroke:rgb(82.485695%,52.98085%,3.785763%);stroke-opacity:1;stroke-miterlimit:10;" d="M 87 23 L 88 23 "/>
<path style="fill:none;stroke-width:1;stroke-linecap:butt;stroke-linejoin:miter;stroke:rgb(82.485695%,52.98085%,3.785763%);stroke-opacity:1;stroke-miterlimit:10;" d="M 80 23 L 82 23 "/>
<path style="fill:none;stroke-width:1;stroke-linecap:butt;stroke-linejoin:miter;stroke:rgb(82.485695%,52.98085%,3.785763%);stroke-opacity:1;stroke-miterlimit:10;" d="M 73 23 L 74 23 "/>
<path style="fill:none;stroke-width:1;stroke-linecap:butt;stroke-linejoin:miter;stroke:rgb(82.485695%,52.98085%,3.785763%);stroke-opacity:1;stroke-miterlimit:10;" d="M 66 23 L 68 23 "/>
<path style="fill:none;stroke-width:1;stroke-linecap:butt;stroke-linejoin:miter;stroke:rgb(82.485695%,52.98085%,3.785763%);stroke-opacity:1;stroke-miterlimit:10;" d="M 53 23 L 54 23 "/>
<path style="fill:none;stroke-width:1;stroke-linecap:butt;stroke-linejoin:miter;stroke:rgb(82.485695%,52.98085%,3.785763%);stroke-opacity:1;stroke-miterlimit:10;" d="M 35 23 L 46 23 "/>
<path style="fill:none;stroke-width:1;stroke-linecap:butt;stroke-linejoin:miter;stroke:rgb(82.485695%,52.98085%,3.785763%);stroke-opacity:1;stroke-miterlimit:10;" d="M 27 23 L 28 23 "/>
<path style="fill:none;stroke-width:1;stroke-linecap:butt;stroke-linejoin:miter;stroke:rgb(82.485695%,52.98085%,3.785763%);stroke-opacity:1;stroke-miterlimit:10;" d="M 29 23 L 34 23 "/>
<path style="fill:none;stroke-width:1;stroke-linecap:butt;stroke-linejoin:miter;stroke:rgb(82.485695%,52.98085%,3.785763%);stroke-opacity:1;stroke-miterlimit:10;" d="M 47 23 L 48 23 "/>
<path style="fill:none;stroke-width:1;stroke-linecap:butt;stroke-linejoin:miter;stroke:rgb(82.485695%,52.98085%,3.785763%);stroke-opacity:1;stroke-miterlimit:10;" d="M 57 23 L 65 23 "/>
<path style="fill:none;stroke-width:1;stroke-linecap:butt;stroke-linejoin:miter;stroke:rgb(82.485695%,52.98085%,3.785763%);stroke-opacity:1;stroke-miterlimit:10;" d="M 69 23 L 70 23 "/>
<path style="fill:none;stroke-width:1;stroke-linecap:butt;stroke-linejoin:miter;stroke:rgb(82.485695%,52.98085%,3.785763%);stroke-opacity:1;stroke-miterlimit:10;" d="M 77 23 L 79 23 "/>
<path style="fill:none;stroke-width:1;stroke-linecap:butt;stroke-linejoin:miter;stroke:rgb(82.485695%,52.98085%,3.785763%);stroke-opacity:1;stroke-miterlimit:10;" d="M 91 23 L 111 23 "/>
<path style="fill:none;stroke-width:1;stroke-linecap:butt;stroke-linejoin:miter;stroke:rgb(82.485695%,52.98085%,3.785763%);stroke-opacity:1;stroke-miterlimit:10;" d="M 114 23 L 115 23 "/>
<path style="fill:none;stroke-width:1;stroke-linecap:butt;stroke-linejoin:miter;stroke:rgb(82.485695%,52.98085%,3.785763%);stroke-opacity:1;stroke-miterlimit:10;" d="M 126 23 L 138 23 "/>
<path style="fill:none;stroke-width:1;stroke-linecap:butt;stroke-linejoin:miter;stroke:rgb(82.485695%,52.98085%,3.785763%);stroke-opacity:1;stroke-miterlimit:10;" d="M 141 23 L 142 23 "/>
<path style="fill:none;stroke-width:1;stroke-linecap:butt;stroke-linejoin:miter;stroke:rgb(82.485695%,52.98085%,3.785763%);stroke-opacity:1;stroke-miterlimit:10;" d="M 85 23 L 86 23 "/>
</g>
</svg>
