<svg xmlns="http://www.w3.org/2000/svg" id="svg" height="330" width="1150" style="touch-action: none;"><g transform="translate(-4004,90) scale(1)"><defs><pattern id="patternA" width="7" height="7" patternUnits="userSpaceOnUse" patternTransform="rotate(45)"><rect x="0" y="0" width="7" height="7" fill="#FFFFFF"/><rect x="0" y="0" width="3" height="3" fill="#505050"/><rect x="0" y="4" width="3" height="3" fill="#505050"/><rect x="4" y="0" width="3" height="3" fill="#505050"/><rect x="4" y="4" width="3" height="3" fill="#505050"/></pattern><pattern id="patternB" width="8" height="8" patternUnits="userSpaceOnUse" patternTransform="rotate(45)"><rect x="0" y="0" width="8" height="8" fill="#FFFFFF"/><rect x="0" y="0" width="3" height="3" fill="#1f77b4"/><rect x="0" y="5" width="3" height="3" fill="#1f77b4"/><rect x="5" y="0" width="3" height="3" fill="#1f77b4"/><rect x="5" y="5" width="3" height="3" fill="#1f77b4"/></pattern><pattern id="plaid0" width="6" height="6" patternUnits="userSpaceOnUse" patternTransform="rotate(45)"><rect x="0" y="0" width="6" height="6" fill="#FFFFFF"/><rect x="0" y="0" width="2" height="2" fill="#1f77b4"/><rect x="0" y="4" width="2" height="2" fill="#1f77b4"/><rect x="4" y="0" width="2" height="2" fill="#1f77b4"/><rect x="4" y="4" width="2" height="2" fill="#1f77b4"/></pattern><pattern id="plaid1" width="6" height="6" patternUnits="userSpaceOnUse" patternTransform="rotate(45)"><rect x="0" y="0" width="6" height="6" fill="#FFFFFF"/><rect x="0" y="0" width="2" height="2" fill="#ff7f0e"/><rect x="0" y="4" width="2" height="2" fill="#ff7f0e"/><rect x="4" y="0" width="2" height="2" fill="#ff7f0e"/><rect x="4" y="4" width="2" height="2" fill="#ff7f0e"/></pattern><pattern id="plaid2" width="6" height="6" patternUnits="userSpaceOnUse" patternTransform="rotate(45)"><rect x="0" y="0" width="6" height="6" fill="#FFFFFF"/><rect x="0" y="0" width="2" height="2" fill="#2ca02c"/><rect x="0" y="4" width="2" height="2" fill="#2ca02c"/><rect x="4" y="0" width="2" height="2" fill="#2ca02c"/><rect x="4" y="4" width="2" height="2" fill="#2ca02c"/></pattern><pattern id="plaid3" width="6" height="6" patternUnits="userSpaceOnUse" patternTransform="rotate(45)"><rect x="0" y="0" width="6" height="6" fill="#FFFFFF"/><rect x="0" y="0" width="2" height="2" fill="#d62728"/><rect x="0" y="4" width="2" height="2" fill="#d62728"/><rect x="4" y="0" width="2" height="2" fill="#d62728"/><rect x="4" y="4" width="2" height="2" fill="#d62728"/></pattern><pattern id="plaid4" width="6" height="6" patternUnits="userSpaceOnUse" patternTransform="rotate(45)"><rect x="0" y="0" width="6" height="6" fill="#FFFFFF"/><rect x="0" y="0" width="2" height="2" fill="#9467bd"/><rect x="0" y="4" width="2" height="2" fill="#9467bd"/><rect x="4" y="0" width="2" height="2" fill="#9467bd"/><rect x="4" y="4" width="2" height="2" fill="#9467bd"/></pattern><pattern id="plaid5" width="6" height="6" patternUnits="userSpaceOnUse" patternTransform="rotate(45)"><rect x="0" y="0" width="6" height="6" fill="#FFFFFF"/><rect x="0" y="0" width="2" height="2" fill="#8c564b"/><rect x="0" y="4" width="2" height="2" fill="#8c564b"/><rect x="4" y="0" width="2" height="2" fill="#8c564b"/><rect x="4" y="4" width="2" height="2" fill="#8c564b"/></pattern></defs><rect x="0" y="20" width="61" height="15" style="fill: rgb(31, 119, 180);" trackID="0" class="track0" color="#1f77b4"/><rect x="100" y="35" width="5053" height="15" style="fill: rgb(31, 119, 180);" trackID="0" class="track0" color="#1f77b4"/><rect x="4804" y="50" width="349" height="15" style="fill: rgb(255, 127, 14);" trackID="1" class="track1" color="#ff7f0e"/><rect x="2700" y="20" width="2055" height="15" style="fill: rgb(255, 127, 14);" trackID="1" class="track1" color="#ff7f0e"/><rect x="2588" y="20" width="33" height="15" style="fill: rgb(255, 127, 14);" trackID="1" class="track1" color="#ff7f0e"/><rect x="2540" y="-35" width="9" height="15" style="fill: rgb(255, 127, 14);" trackID="1" class="track1" color="#ff7f0e"/><rect x="2540" y="-5" width="9" height="15" style="fill: rgb(255, 127, 14);" trackID="1" class="track1" color="#ff7f0e"/><rect x="2540" y="-60" width="9" height="15" style="fill: rgb(255, 127, 14);" trackID="1" class="track1" color="#ff7f0e"/><rect x="2484" y="20" width="17" height="15" style="fill: rgb(255, 127, 14);" trackID="1" class="track1" color="#ff7f0e"/><rect x="2364" y="20" width="41" height="15" style="fill: rgb(255, 127, 14);" trackID="1" class="track1" color="#ff7f0e"/><rect x="1748" y="20" width="537" height="15" style="fill: rgb(255, 127, 14);" trackID="1" class="track1" color="#ff7f0e"/><rect x="1492" y="20" width="177" height="15" style="fill: rgb(255, 127, 14);" trackID="1" class="track1" color="#ff7f0e"/><rect x="1404" y="20" width="9" height="15" style="fill: rgb(255, 127, 14);" trackID="1" class="track1" color="#ff7f0e"/><rect x="1004" y="20" width="321" height="15" style="fill: rgb(255, 127, 14);" trackID="1" class="track1" color="#ff7f0e"/><rect x="412" y="20" width="513" height="15" style="fill: rgb(255, 127, 14);" trackID="1" class="track1" color="#ff7f0e"/><rect x="140" y="20" width="193" height="15" style="fill: rgb(255, 127, 14);" trackID="1" class="track1" color="#ff7f0e"/><rect x="0" y="35" width="61" height="15" style="fill: rgb(255, 127, 14);" trackID="1" class="track1" color="#ff7f0e"/><rect x="4754" y="65" width="399" height="15" style="fill: rgb(44, 160, 44);" trackID="2" class="track2" color="#2ca02c"/><rect x="4088" y="50" width="617" height="15" style="fill: rgb(44, 160, 44);" trackID="2" class="track2" color="#2ca02c"/><rect x="0" y="50" width="3989" height="15" style="fill: rgb(44, 160, 44);" trackID="2" class="track2" color="#2ca02c"/><rect x="4804" y="80" width="349" height="15" style="fill: rgb(214, 39, 40);" trackID="3" class="track3" color="#d62728"/><rect x="4088" y="65" width="617" height="15" style="fill: rgb(214, 39, 40);" trackID="3" class="track3" color="#d62728"/><rect x="0" y="65" width="3989" height="15" style="fill: rgb(214, 39, 40);" trackID="3" class="track3" color="#d62728"/><path d="M 60 20 C 80.5 20 80.5 35 101 35 V 50 C 80.5 50 80.5 35 60 35 Z" style="fill: rgb(31, 119, 180);" trackID="0" class="track0" color="#1f77b4"/><path d="M 4805 50 C 4779.5 50 4779.5 20 4754 20 V 35 C 4779.5 35 4779.5 65 4805 65 Z" style="fill: rgb(255, 127, 14);" trackID="1" class="track1" color="#ff7f0e"/><path d="M 2701 20 C 2680.5 20 2680.5 -35 2660 -35 V -20 C 2680.5 -20 2680.5 35 2701 35 Z" style="fill: rgb(255, 127, 14);" trackID="1" class="track1" color="#ff7f0e"/><path d="M 2661 -60 C 2640.5 -60 2640.5 20 2620 20 V 35 C 2640.5 35 2640.5 -45 2661 -45 Z" style="fill: rgb(255, 127, 14);" trackID="1" class="track1" color="#ff7f0e"/><path d="M 2589 20 C 2568.5 20 2568.5 -35 2548 -35 V -20 C 2568.5 -20 2568.5 35 2589 35 Z" style="fill: rgb(255, 127, 14);" trackID="1" class="track1" color="#ff7f0e"/><path d="M 2541 -60 C 2520.5 -60 2520.5 20 2500 20 V 35 C 2520.5 35 2520.5 -45 2541 -45 Z" style="fill: rgb(255, 127, 14);" trackID="1" class="track1" color="#ff7f0e"/><path d="M 2485 20 C 2464.5 20 2464.5 -35 2444 -35 V -20 C 2464.5 -20 2464.5 35 2485 35 Z" style="fill: rgb(255, 127, 14);" trackID="1" class="track1" color="#ff7f0e"/><path d="M 2445 -60 C 2424.5 -60 2424.5 20 2404 20 V 35 C 2424.5 35 2424.5 -45 2445 -45 Z" style="fill: rgb(255, 127, 14);" trackID="1" class="track1" color="#ff7f0e"/><path d="M 2365 20 C 2344.5 20 2344.5 -35 2324 -35 V -20 C 2344.5 -20 2344.5 35 2365 35 Z" style="fill: rgb(255, 127, 14);" trackID="1" class="track1" color="#ff7f0e"/><path d="M 2325 -60 C 2304.5 -60 2304.5 20 2284 20 V 35 C 2304.5 35 2304.5 -45 2325 -45 Z" style="fill: rgb(255, 127, 14);" trackID="1" class="track1" color="#ff7f0e"/><path d="M 1749 20 C 1728.5 20 1728.5 -35 1708 -35 V -20 C 1728.5 -20 1728.5 35 1749 35 Z" style="fill: rgb(255, 127, 14);" trackID="1" class="track1" color="#ff7f0e"/><path d="M 1709 -60 C 1688.5 -60 1688.5 20 1668 20 V 35 C 1688.5 35 1688.5 -45 1709 -45 Z" style="fill: rgb(255, 127, 14);" trackID="1" class="track1" color="#ff7f0e"/><path d="M 1493 20 C 1472.5 20 1472.5 -35 1452 -35 V -20 C 1472.5 -20 1472.5 35 1493 35 Z" style="fill: rgb(255, 127, 14);" trackID="1" class="track1" color="#ff7f0e"/><path d="M 1453 -60 C 1432.5 -60 1432.5 20 1412 20 V 35 C 1432.5 35 1432.5 -45 1453 -45 Z" style="fill: rgb(255, 127, 14);" trackID="1" class="track1" color="#ff7f0e"/><path d="M 1405 20 C 1384.5 20 1384.5 -35 1364 -35 V -20 C 1384.5 -20 1384.5 35 1405 35 Z" style="fill: rgb(255, 127, 14);" trackID="1" class="track1" color="#ff7f0e"/><path d="M 1365 -60 C 1344.5 -60 1344.5 20 1324 20 V 35 C 1344.5 35 1344.5 -45 1365 -45 Z" style="fill: rgb(255, 127, 14);" trackID="1" class="track1" color="#ff7f0e"/><path d="M 1005 20 C 984.5 20 984.5 -35 964 -35 V -20 C 984.5 -20 984.5 35 1005 35 Z" style="fill: rgb(255, 127, 14);" trackID="1" class="track1" color="#ff7f0e"/><path d="M 965 -60 C 944.5 -60 944.5 20 924 20 V 35 C 944.5 35 944.5 -45 965 -45 Z" style="fill: rgb(255, 127, 14);" trackID="1" class="track1" color="#ff7f0e"/><path d="M 413 20 C 392.5 20 392.5 -35 372 -35 V -20 C 392.5 -20 392.5 35 413 35 Z" style="fill: rgb(255, 127, 14);" trackID="1" class="track1" color="#ff7f0e"/><path d="M 373 -60 C 352.5 -60 352.5 20 332 20 V 35 C 352.5 35 352.5 -45 373 -45 Z" style="fill: rgb(255, 127, 14);" trackID="1" class="track1" color="#ff7f0e"/><path d="M 141 20 C 120.5 20 120.5 -65 100 -65 V -50 C 120.5 -50 120.5 35 141 35 Z" style="fill: rgb(255, 127, 14);" trackID="1" class="track1" color="#ff7f0e"/><path d="M 101 5 C 80.5 5 80.5 35 60 35 V 50 C 80.5 50 80.5 20 101 20 Z" style="fill: rgb(255, 127, 14);" trackID="1" class="track1" color="#ff7f0e"/><path d="M 4755 90 C 4729.5 90 4729.5 50 4704 50 V 65 C 4729.5 65 4729.5 105 4755 105 Z" style="fill: rgb(44, 160, 44);" trackID="2" class="track2" color="#2ca02c"/><path d="M 4089 50 C 4063.5 50 4063.5 65 4038 65 V 80 C 4063.5 80 4063.5 65 4089 65 Z" style="fill: rgb(44, 160, 44);" trackID="2" class="track2" color="#2ca02c"/><path d="M 4039 90 C 4013.5 90 4013.5 50 3988 50 V 65 C 4013.5 65 4013.5 105 4039 105 Z" style="fill: rgb(44, 160, 44);" trackID="2" class="track2" color="#2ca02c"/><path d="M 4805 80 C 4779.5 80 4779.5 175 4754 175 V 190 C 4779.5 190 4779.5 95 4805 95 Z" style="fill: rgb(214, 39, 40);" trackID="3" class="track3" color="#d62728"/><path d="M 4755 200 C 4729.5 200 4729.5 65 4704 65 V 80 C 4729.5 80 4729.5 215 4755 215 Z" style="fill: rgb(214, 39, 40);" trackID="3" class="track3" color="#d62728"/><path d="M 4089 65 C 4063.5 65 4063.5 175 4038 175 V 190 C 4063.5 190 4063.5 80 4089 80 Z" style="fill: rgb(214, 39, 40);" trackID="3" class="track3" color="#d62728"/><path d="M 4039 200 C 4013.5 200 4013.5 65 3988 65 V 80 C 4013.5 80 4013.5 215 4039 215 Z" style="fill: rgb(214, 39, 40);" trackID="3" class="track3" color="#d62728"/><rect x="2654" y="-35" width="7" height="15" style="fill: rgb(255, 127, 14);" trackID="1" class="track1" color="#ff7f0e"/><rect x="2641" y="-14" width="7" height="4" style="fill: rgb(255, 127, 14);" trackID="1" class="track1" color="#ff7f0e"/><rect x="2654" y="-5" width="7" height="15" style="fill: rgb(255, 127, 14);" trackID="1" class="track1" color="#ff7f0e"/><rect x="2660" y="-5" width="6" height="15" style="fill: rgb(255, 127, 14);" trackID="1" class="track1" color="#ff7f0e"/><rect x="2672" y="-39" width="7" height="29" style="fill: rgb(255, 127, 14);" trackID="1" class="track1" color="#ff7f0e"/><rect x="2660" y="-60" width="6" height="15" style="fill: rgb(255, 127, 14);" trackID="1" class="track1" color="#ff7f0e"/><rect x="2534" y="-35" width="7" height="15" style="fill: rgb(255, 127, 14);" trackID="1" class="track1" color="#ff7f0e"/><rect x="2521" y="-14" width="7" height="4" style="fill: rgb(255, 127, 14);" trackID="1" class="track1" color="#ff7f0e"/><rect x="2534" y="-5" width="7" height="15" style="fill: rgb(255, 127, 14);" trackID="1" class="track1" color="#ff7f0e"/><rect x="2548" y="-5" width="6" height="15" style="fill: rgb(255, 127, 14);" trackID="1" class="track1" color="#ff7f0e"/><rect x="2560" y="-39" width="7" height="29" style="fill: rgb(255, 127, 14);" trackID="1" class="track1" color="#ff7f0e"/><rect x="2548" y="-60" width="6" height="15" style="fill: rgb(255, 127, 14);" trackID="1" class="track1" color="#ff7f0e"/><rect x="2438" y="-35" width="7" height="15" style="fill: rgb(255, 127, 14);" trackID="1" class="track1" color="#ff7f0e"/><rect x="2425" y="-14" width="7" height="4" style="fill: rgb(255, 127, 14);" trackID="1" class="track1" color="#ff7f0e"/><rect x="2438" y="-5" width="7" height="15" style="fill: rgb(255, 127, 14);" trackID="1" class="track1" color="#ff7f0e"/><rect x="2444" y="-5" width="6" height="15" style="fill: rgb(255, 127, 14);" trackID="1" class="track1" color="#ff7f0e"/><rect x="2456" y="-39" width="7" height="29" style="fill: rgb(255, 127, 14);" trackID="1" class="track1" color="#ff7f0e"/><rect x="2444" y="-60" width="6" height="15" style="fill: rgb(255, 127, 14);" trackID="1" class="track1" color="#ff7f0e"/><rect x="2318" y="-35" width="7" height="15" style="fill: rgb(255, 127, 14);" trackID="1" class="track1" color="#ff7f0e"/><rect x="2305" y="-14" width="7" height="4" style="fill: rgb(255, 127, 14);" trackID="1" class="track1" color="#ff7f0e"/><rect x="2318" y="-5" width="7" height="15" style="fill: rgb(255, 127, 14);" trackID="1" class="track1" color="#ff7f0e"/><rect x="2324" y="-5" width="6" height="15" style="fill: rgb(255, 127, 14);" trackID="1" class="track1" color="#ff7f0e"/><rect x="2336" y="-39" width="7" height="29" style="fill: rgb(255, 127, 14);" trackID="1" class="track1" color="#ff7f0e"/><rect x="2324" y="-60" width="6" height="15" style="fill: rgb(255, 127, 14);" trackID="1" class="track1" color="#ff7f0e"/><rect x="1702" y="-35" width="7" height="15" style="fill: rgb(255, 127, 14);" trackID="1" class="track1" color="#ff7f0e"/><rect x="1689" y="-14" width="7" height="4" style="fill: rgb(255, 127, 14);" trackID="1" class="track1" color="#ff7f0e"/><rect x="1702" y="-5" width="7" height="15" style="fill: rgb(255, 127, 14);" trackID="1" class="track1" color="#ff7f0e"/><rect x="1708" y="-5" width="6" height="15" style="fill: rgb(255, 127, 14);" trackID="1" class="track1" color="#ff7f0e"/><rect x="1720" y="-39" width="7" height="29" style="fill: rgb(255, 127, 14);" trackID="1" class="track1" color="#ff7f0e"/><rect x="1708" y="-60" width="6" height="15" style="fill: rgb(255, 127, 14);" trackID="1" class="track1" color="#ff7f0e"/><rect x="1446" y="-35" width="7" height="15" style="fill: rgb(255, 127, 14);" trackID="1" class="track1" color="#ff7f0e"/><rect x="1433" y="-14" width="7" height="4" style="fill: rgb(255, 127, 14);" trackID="1" class="track1" color="#ff7f0e"/><rect x="1446" y="-5" width="7" height="15" style="fill: rgb(255, 127, 14);" trackID="1" class="track1" color="#ff7f0e"/><rect x="1452" y="-5" width="6" height="15" style="fill: rgb(255, 127, 14);" trackID="1" class="track1" color="#ff7f0e"/><rect x="1464" y="-39" width="7" height="29" style="fill: rgb(255, 127, 14);" trackID="1" class="track1" color="#ff7f0e"/><rect x="1452" y="-60" width="6" height="15" style="fill: rgb(255, 127, 14);" trackID="1" class="track1" color="#ff7f0e"/><rect x="1358" y="-35" width="7" height="15" style="fill: rgb(255, 127, 14);" trackID="1" class="track1" color="#ff7f0e"/><rect x="1345" y="-14" width="7" height="4" style="fill: rgb(255, 127, 14);" trackID="1" class="track1" color="#ff7f0e"/><rect x="1358" y="-5" width="7" height="15" style="fill: rgb(255, 127, 14);" trackID="1" class="track1" color="#ff7f0e"/><rect x="1364" y="-5" width="6" height="15" style="fill: rgb(255, 127, 14);" trackID="1" class="track1" color="#ff7f0e"/><rect x="1376" y="-39" width="7" height="29" style="fill: rgb(255, 127, 14);" trackID="1" class="track1" color="#ff7f0e"/><rect x="1364" y="-60" width="6" height="15" style="fill: rgb(255, 127, 14);" trackID="1" class="track1" color="#ff7f0e"/><rect x="958" y="-35" width="7" height="15" style="fill: rgb(255, 127, 14);" trackID="1" class="track1" color="#ff7f0e"/><rect x="945" y="-14" width="7" height="4" style="fill: rgb(255, 127, 14);" trackID="1" class="track1" color="#ff7f0e"/><rect x="958" y="-5" width="7" height="15" style="fill: rgb(255, 127, 14);" trackID="1" class="track1" color="#ff7f0e"/><rect x="964" y="-5" width="6" height="15" style="fill: rgb(255, 127, 14);" trackID="1" class="track1" color="#ff7f0e"/><rect x="976" y="-39" width="7" height="29" style="fill: rgb(255, 127, 14);" trackID="1" class="track1" color="#ff7f0e"/><rect x="964" y="-60" width="6" height="15" style="fill: rgb(255, 127, 14);" trackID="1" class="track1" color="#ff7f0e"/><rect x="366" y="-35" width="7" height="15" style="fill: rgb(255, 127, 14);" trackID="1" class="track1" color="#ff7f0e"/><rect x="353" y="-14" width="7" height="4" style="fill: rgb(255, 127, 14);" trackID="1" class="track1" color="#ff7f0e"/><rect x="366" y="-5" width="7" height="15" style="fill: rgb(255, 127, 14);" trackID="1" class="track1" color="#ff7f0e"/><rect x="372" y="-5" width="6" height="15" style="fill: rgb(255, 127, 14);" trackID="1" class="track1" color="#ff7f0e"/><rect x="384" y="-39" width="7" height="29" style="fill: rgb(255, 127, 14);" trackID="1" class="track1" color="#ff7f0e"/><rect x="372" y="-60" width="6" height="15" style="fill: rgb(255, 127, 14);" trackID="1" class="track1" color="#ff7f0e"/><rect x="94" y="-65" width="7" height="15" style="fill: rgb(255, 127, 14);" trackID="1" class="track1" color="#ff7f0e"/><rect x="81" y="-44" width="7" height="4" style="fill: rgb(255, 127, 14);" trackID="1" class="track1" color="#ff7f0e"/><rect x="94" y="-35" width="7" height="15" style="fill: rgb(255, 127, 14);" trackID="1" class="track1" color="#ff7f0e"/><rect x="100" y="-35" width="6" height="15" style="fill: rgb(255, 127, 14);" trackID="1" class="track1" color="#ff7f0e"/><rect x="112" y="-14" width="7" height="14" style="fill: rgb(255, 127, 14);" trackID="1" class="track1" color="#ff7f0e"/><rect x="100" y="5" width="6" height="15" style="fill: rgb(255, 127, 14);" trackID="1" class="track1" color="#ff7f0e"/><path d="M 2655 -5 Q 2648 -5 2648 -12 H 2641 Q 2641 10 2655 10 Z " style="fill: rgb(255, 127, 14);" trackID="1" class="track1" color="#ff7f0e"/><path d="M 2655 -35 Q 2641 -35 2641 -13 H 2648 Q 2648 -20 2655 -20 Z " style="fill: rgb(255, 127, 14);" trackID="1" class="track1" color="#ff7f0e"/><path d="M 2665 -5 Q 2672 -5 2672 -12 H 2679 Q 2679 10 2665 10 Z " style="fill: rgb(255, 127, 14);" trackID="1" class="track1" color="#ff7f0e"/><path d="M 2665 -60 Q 2679 -60 2679 -38 H 2672 Q 2672 -45 2665 -45 Z " style="fill: rgb(255, 127, 14);" trackID="1" class="track1" color="#ff7f0e"/><path d="M 2535 -5 Q 2528 -5 2528 -12 H 2521 Q 2521 10 2535 10 Z " style="fill: rgb(255, 127, 14);" trackID="1" class="track1" color="#ff7f0e"/><path d="M 2535 -35 Q 2521 -35 2521 -13 H 2528 Q 2528 -20 2535 -20 Z " style="fill: rgb(255, 127, 14);" trackID="1" class="track1" color="#ff7f0e"/><path d="M 2553 -5 Q 2560 -5 2560 -12 H 2567 Q 2567 10 2553 10 Z " style="fill: rgb(255, 127, 14);" trackID="1" class="track1" color="#ff7f0e"/><path d="M 2553 -60 Q 2567 -60 2567 -38 H 2560 Q 2560 -45 2553 -45 Z " style="fill: rgb(255, 127, 14);" trackID="1" class="track1" color="#ff7f0e"/><path d="M 2439 -5 Q 2432 -5 2432 -12 H 2425 Q 2425 10 2439 10 Z " style="fill: rgb(255, 127, 14);" trackID="1" class="track1" color="#ff7f0e"/><path d="M 2439 -35 Q 2425 -35 2425 -13 H 2432 Q 2432 -20 2439 -20 Z " style="fill: rgb(255, 127, 14);" trackID="1" class="track1" color="#ff7f0e"/><path d="M 2449 -5 Q 2456 -5 2456 -12 H 2463 Q 2463 10 2449 10 Z " style="fill: rgb(255, 127, 14);" trackID="1" class="track1" color="#ff7f0e"/><path d="M 2449 -60 Q 2463 -60 2463 -38 H 2456 Q 2456 -45 2449 -45 Z " style="fill: rgb(255, 127, 14);" trackID="1" class="track1" color="#ff7f0e"/><path d="M 2319 -5 Q 2312 -5 2312 -12 H 2305 Q 2305 10 2319 10 Z " style="fill: rgb(255, 127, 14);" trackID="1" class="track1" color="#ff7f0e"/><path d="M 2319 -35 Q 2305 -35 2305 -13 H 2312 Q 2312 -20 2319 -20 Z " style="fill: rgb(255, 127, 14);" trackID="1" class="track1" color="#ff7f0e"/><path d="M 2329 -5 Q 2336 -5 2336 -12 H 2343 Q 2343 10 2329 10 Z " style="fill: rgb(255, 127, 14);" trackID="1" class="track1" color="#ff7f0e"/><path d="M 2329 -60 Q 2343 -60 2343 -38 H 2336 Q 2336 -45 2329 -45 Z " style="fill: rgb(255, 127, 14);" trackID="1" class="track1" color="#ff7f0e"/><path d="M 1703 -5 Q 1696 -5 1696 -12 H 1689 Q 1689 10 1703 10 Z " style="fill: rgb(255, 127, 14);" trackID="1" class="track1" color="#ff7f0e"/><path d="M 1703 -35 Q 1689 -35 1689 -13 H 1696 Q 1696 -20 1703 -20 Z " style="fill: rgb(255, 127, 14);" trackID="1" class="track1" color="#ff7f0e"/><path d="M 1713 -5 Q 1720 -5 1720 -12 H 1727 Q 1727 10 1713 10 Z " style="fill: rgb(255, 127, 14);" trackID="1" class="track1" color="#ff7f0e"/><path d="M 1713 -60 Q 1727 -60 1727 -38 H 1720 Q 1720 -45 1713 -45 Z " style="fill: rgb(255, 127, 14);" trackID="1" class="track1" color="#ff7f0e"/><path d="M 1447 -5 Q 1440 -5 1440 -12 H 1433 Q 1433 10 1447 10 Z " style="fill: rgb(255, 127, 14);" trackID="1" class="track1" color="#ff7f0e"/><path d="M 1447 -35 Q 1433 -35 1433 -13 H 1440 Q 1440 -20 1447 -20 Z " style="fill: rgb(255, 127, 14);" trackID="1" class="track1" color="#ff7f0e"/><path d="M 1457 -5 Q 1464 -5 1464 -12 H 1471 Q 1471 10 1457 10 Z " style="fill: rgb(255, 127, 14);" trackID="1" class="track1" color="#ff7f0e"/><path d="M 1457 -60 Q 1471 -60 1471 -38 H 1464 Q 1464 -45 1457 -45 Z " style="fill: rgb(255, 127, 14);" trackID="1" class="track1" color="#ff7f0e"/><path d="M 1359 -5 Q 1352 -5 1352 -12 H 1345 Q 1345 10 1359 10 Z " style="fill: rgb(255, 127, 14);" trackID="1" class="track1" color="#ff7f0e"/><path d="M 1359 -35 Q 1345 -35 1345 -13 H 1352 Q 1352 -20 1359 -20 Z " style="fill: rgb(255, 127, 14);" trackID="1" class="track1" color="#ff7f0e"/><path d="M 1369 -5 Q 1376 -5 1376 -12 H 1383 Q 1383 10 1369 10 Z " style="fill: rgb(255, 127, 14);" trackID="1" class="track1" color="#ff7f0e"/><path d="M 1369 -60 Q 1383 -60 1383 -38 H 1376 Q 1376 -45 1369 -45 Z " style="fill: rgb(255, 127, 14);" trackID="1" class="track1" color="#ff7f0e"/><path d="M 959 -5 Q 952 -5 952 -12 H 945 Q 945 10 959 10 Z " style="fill: rgb(255, 127, 14);" trackID="1" class="track1" color="#ff7f0e"/><path d="M 959 -35 Q 945 -35 945 -13 H 952 Q 952 -20 959 -20 Z " style="fill: rgb(255, 127, 14);" trackID="1" class="track1" color="#ff7f0e"/><path d="M 969 -5 Q 976 -5 976 -12 H 983 Q 983 10 969 10 Z " style="fill: rgb(255, 127, 14);" trackID="1" class="track1" color="#ff7f0e"/><path d="M 969 -60 Q 983 -60 983 -38 H 976 Q 976 -45 969 -45 Z " style="fill: rgb(255, 127, 14);" trackID="1" class="track1" color="#ff7f0e"/><path d="M 367 -5 Q 360 -5 360 -12 H 353 Q 353 10 367 10 Z " style="fill: rgb(255, 127, 14);" trackID="1" class="track1" color="#ff7f0e"/><path d="M 367 -35 Q 353 -35 353 -13 H 360 Q 360 -20 367 -20 Z " style="fill: rgb(255, 127, 14);" trackID="1" class="track1" color="#ff7f0e"/><path d="M 377 -5 Q 384 -5 384 -12 H 391 Q 391 10 377 10 Z " style="fill: rgb(255, 127, 14);" trackID="1" class="track1" color="#ff7f0e"/><path d="M 377 -60 Q 391 -60 391 -38 H 384 Q 384 -45 377 -45 Z " style="fill: rgb(255, 127, 14);" trackID="1" class="track1" color="#ff7f0e"/><path d="M 95 -35 Q 88 -35 88 -42 H 81 Q 81 -20 95 -20 Z " style="fill: rgb(255, 127, 14);" trackID="1" class="track1" color="#ff7f0e"/><path d="M 95 -65 Q 81 -65 81 -43 H 88 Q 88 -50 95 -50 Z " style="fill: rgb(255, 127, 14);" trackID="1" class="track1" color="#ff7f0e"/><path d="M 105 5 Q 112 5 112 -2 H 119 Q 119 20 105 20 Z " style="fill: rgb(255, 127, 14);" trackID="1" class="track1" color="#ff7f0e"/><path d="M 105 -35 Q 119 -35 119 -13 H 112 Q 112 -20 105 -20 Z " style="fill: rgb(255, 127, 14);" trackID="1" class="track1" color="#ff7f0e"/><rect x="4748" y="65" width="7" height="15" style="fill: rgb(44, 160, 44);" trackID="2" class="track2" color="#2ca02c"/><rect x="4735" y="86" width="7" height="29" style="fill: rgb(44, 160, 44);" trackID="2" class="track2" color="#2ca02c"/><rect x="4748" y="120" width="7" height="15" style="fill: rgb(44, 160, 44);" trackID="2" class="track2" color="#2ca02c"/><rect x="4754" y="120" width="6" height="15" style="fill: rgb(44, 160, 44);" trackID="2" class="track2" color="#2ca02c"/><rect x="4766" y="111" width="7" height="4" style="fill: rgb(44, 160, 44);" trackID="2" class="track2" color="#2ca02c"/><rect x="4754" y="90" width="6" height="15" style="fill: rgb(44, 160, 44);" trackID="2" class="track2" color="#2ca02c"/><rect x="4032" y="65" width="7" height="15" style="fill: rgb(44, 160, 44);" trackID="2" class="track2" color="#2ca02c"/><rect x="4019" y="86" width="7" height="29" style="fill: rgb(44, 160, 44);" trackID="2" class="track2" color="#2ca02c"/><rect x="4032" y="120" width="7" height="15" style="fill: rgb(44, 160, 44);" trackID="2" class="track2" color="#2ca02c"/><rect x="4038" y="120" width="6" height="15" style="fill: rgb(44, 160, 44);" trackID="2" class="track2" color="#2ca02c"/><rect x="4050" y="111" width="7" height="4" style="fill: rgb(44, 160, 44);" trackID="2" class="track2" color="#2ca02c"/><rect x="4038" y="90" width="6" height="15" style="fill: rgb(44, 160, 44);" trackID="2" class="track2" color="#2ca02c"/><path d="M 4749 120 Q 4742 120 4742 113 H 4735 Q 4735 135 4749 135 Z " style="fill: rgb(44, 160, 44);" trackID="2" class="track2" color="#2ca02c"/><path d="M 4749 65 Q 4735 65 4735 87 H 4742 Q 4742 80 4749 80 Z " style="fill: rgb(44, 160, 44);" trackID="2" class="track2" color="#2ca02c"/><path d="M 4759 120 Q 4766 120 4766 113 H 4773 Q 4773 135 4759 135 Z " style="fill: rgb(44, 160, 44);" trackID="2" class="track2" color="#2ca02c"/><path d="M 4759 90 Q 4773 90 4773 112 H 4766 Q 4766 105 4759 105 Z " style="fill: rgb(44, 160, 44);" trackID="2" class="track2" color="#2ca02c"/><path d="M 4033 120 Q 4026 120 4026 113 H 4019 Q 4019 135 4033 135 Z " style="fill: rgb(44, 160, 44);" trackID="2" class="track2" color="#2ca02c"/><path d="M 4033 65 Q 4019 65 4019 87 H 4026 Q 4026 80 4033 80 Z " style="fill: rgb(44, 160, 44);" trackID="2" class="track2" color="#2ca02c"/><path d="M 4043 120 Q 4050 120 4050 113 H 4057 Q 4057 135 4043 135 Z " style="fill: rgb(44, 160, 44);" trackID="2" class="track2" color="#2ca02c"/><path d="M 4043 90 Q 4057 90 4057 112 H 4050 Q 4050 105 4043 105 Z " style="fill: rgb(44, 160, 44);" trackID="2" class="track2" color="#2ca02c"/><rect x="4738" y="175" width="17" height="15" style="fill: rgb(214, 39, 40);" trackID="3" class="track3" color="#d62728"/><rect x="4725" y="156" width="7" height="14" style="fill: rgb(214, 39, 40);" trackID="3" class="track3" color="#d62728"/><rect x="4738" y="135" width="17" height="15" style="fill: rgb(214, 39, 40);" trackID="3" class="track3" color="#d62728"/><rect x="4754" y="135" width="16" height="15" style="fill: rgb(214, 39, 40);" trackID="3" class="track3" color="#d62728"/><rect x="4776" y="156" width="7" height="39" style="fill: rgb(214, 39, 40);" trackID="3" class="track3" color="#d62728"/><rect x="4754" y="200" width="16" height="15" style="fill: rgb(214, 39, 40);" trackID="3" class="track3" color="#d62728"/><rect x="4022" y="175" width="17" height="15" style="fill: rgb(214, 39, 40);" trackID="3" class="track3" color="#d62728"/><rect x="4009" y="156" width="7" height="14" style="fill: rgb(214, 39, 40);" trackID="3" class="track3" color="#d62728"/><rect x="4022" y="135" width="17" height="15" style="fill: rgb(214, 39, 40);" trackID="3" class="track3" color="#d62728"/><rect x="4038" y="135" width="16" height="15" style="fill: rgb(214, 39, 40);" trackID="3" class="track3" color="#d62728"/><rect x="4060" y="156" width="7" height="39" style="fill: rgb(214, 39, 40);" trackID="3" class="track3" color="#d62728"/><rect x="4038" y="200" width="16" height="15" style="fill: rgb(214, 39, 40);" trackID="3" class="track3" color="#d62728"/><path d="M 4739 175 Q 4732 175 4732 168 H 4725 Q 4725 190 4739 190 Z " style="fill: rgb(214, 39, 40);" trackID="3" class="track3" color="#d62728"/><path d="M 4739 135 Q 4725 135 4725 157 H 4732 Q 4732 150 4739 150 Z " style="fill: rgb(214, 39, 40);" trackID="3" class="track3" color="#d62728"/><path d="M 4769 200 Q 4776 200 4776 193 H 4783 Q 4783 215 4769 215 Z " style="fill: rgb(214, 39, 40);" trackID="3" class="track3" color="#d62728"/><path d="M 4769 135 Q 4783 135 4783 157 H 4776 Q 4776 150 4769 150 Z " style="fill: rgb(214, 39, 40);" trackID="3" class="track3" color="#d62728"/><path d="M 4023 175 Q 4016 175 4016 168 H 4009 Q 4009 190 4023 190 Z " style="fill: rgb(214, 39, 40);" trackID="3" class="track3" color="#d62728"/><path d="M 4023 135 Q 4009 135 4009 157 H 4016 Q 4016 150 4023 150 Z " style="fill: rgb(214, 39, 40);" trackID="3" class="track3" color="#d62728"/><path d="M 4053 200 Q 4060 200 4060 193 H 4067 Q 4067 215 4053 215 Z " style="fill: rgb(214, 39, 40);" trackID="3" class="track3" color="#d62728"/><path d="M 4053 135 Q 4067 135 4067 157 H 4060 Q 4060 150 4053 150 Z " style="fill: rgb(214, 39, 40);" trackID="3" class="track3" color="#d62728"/><path d="M 60 20 C 80.5 20 80.5 35 101 35 V 50 C 80.5 50 80.5 35 60 35 Z" style="fill: rgb(31, 119, 180);" trackID="0" class="track0" color="#1f77b4"/><path d="M 4805 50 C 4779.5 50 4779.5 20 4754 20 V 35 C 4779.5 35 4779.5 65 4805 65 Z" style="fill: rgb(255, 127, 14);" trackID="1" class="track1" color="#ff7f0e"/><path d="M 2701 20 C 2680.5 20 2680.5 -35 2660 -35 V -20 C 2680.5 -20 2680.5 35 2701 35 Z" style="fill: rgb(255, 127, 14);" trackID="1" class="track1" color="#ff7f0e"/><path d="M 2661 -60 C 2640.5 -60 2640.5 20 2620 20 V 35 C 2640.5 35 2640.5 -45 2661 -45 Z" style="fill: rgb(255, 127, 14);" trackID="1" class="track1" color="#ff7f0e"/><path d="M 2589 20 C 2568.5 20 2568.5 -35 2548 -35 V -20 C 2568.5 -20 2568.5 35 2589 35 Z" style="fill: rgb(255, 127, 14);" trackID="1" class="track1" color="#ff7f0e"/><path d="M 2541 -60 C 2520.5 -60 2520.5 20 2500 20 V 35 C 2520.5 35 2520.5 -45 2541 -45 Z" style="fill: rgb(255, 127, 14);" trackID="1" class="track1" color="#ff7f0e"/><path d="M 2485 20 C 2464.5 20 2464.5 -35 2444 -35 V -20 C 2464.5 -20 2464.5 35 2485 35 Z" style="fill: rgb(255, 127, 14);" trackID="1" class="track1" color="#ff7f0e"/><path d="M 2445 -60 C 2424.5 -60 2424.5 20 2404 20 V 35 C 2424.5 35 2424.5 -45 2445 -45 Z" style="fill: rgb(255, 127, 14);" trackID="1" class="track1" color="#ff7f0e"/><path d="M 2365 20 C 2344.5 20 2344.5 -35 2324 -35 V -20 C 2344.5 -20 2344.5 35 2365 35 Z" style="fill: rgb(255, 127, 14);" trackID="1" class="track1" color="#ff7f0e"/><path d="M 2325 -60 C 2304.5 -60 2304.5 20 2284 20 V 35 C 2304.5 35 2304.5 -45 2325 -45 Z" style="fill: rgb(255, 127, 14);" trackID="1" class="track1" color="#ff7f0e"/><path d="M 1749 20 C 1728.5 20 1728.5 -35 1708 -35 V -20 C 1728.5 -20 1728.5 35 1749 35 Z" style="fill: rgb(255, 127, 14);" trackID="1" class="track1" color="#ff7f0e"/><path d="M 1709 -60 C 1688.5 -60 1688.5 20 1668 20 V 35 C 1688.5 35 1688.5 -45 1709 -45 Z" style="fill: rgb(255, 127, 14);" trackID="1" class="track1" color="#ff7f0e"/><path d="M 1493 20 C 1472.5 20 1472.5 -35 1452 -35 V -20 C 1472.5 -20 1472.5 35 1493 35 Z" style="fill: rgb(255, 127, 14);" trackID="1" class="track1" color="#ff7f0e"/><path d="M 1453 -60 C 1432.5 -60 1432.5 20 1412 20 V 35 C 1432.5 35 1432.5 -45 1453 -45 Z" style="fill: rgb(255, 127, 14);" trackID="1" class="track1" color="#ff7f0e"/><path d="M 1405 20 C 1384.5 20 1384.5 -35 1364 -35 V -20 C 1384.5 -20 1384.5 35 1405 35 Z" style="fill: rgb(255, 127, 14);" trackID="1" class="track1" color="#ff7f0e"/><path d="M 1365 -60 C 1344.5 -60 1344.5 20 1324 20 V 35 C 1344.5 35 1344.5 -45 1365 -45 Z" style="fill: rgb(255, 127, 14);" trackID="1" class="track1" color="#ff7f0e"/><path d="M 1005 20 C 984.5 20 984.5 -35 964 -35 V -20 C 984.5 -20 984.5 35 1005 35 Z" style="fill: rgb(255, 127, 14);" trackID="1" class="track1" color="#ff7f0e"/><path d="M 965 -60 C 944.5 -60 944.5 20 924 20 V 35 C 944.5 35 944.5 -45 965 -45 Z" style="fill: rgb(255, 127, 14);" trackID="1" class="track1" color="#ff7f0e"/><path d="M 413 20 C 392.5 20 392.5 -35 372 -35 V -20 C 392.5 -20 392.5 35 413 35 Z" style="fill: rgb(255, 127, 14);" trackID="1" class="track1" color="#ff7f0e"/><path d="M 373 -60 C 352.5 -60 352.5 20 332 20 V 35 C 352.5 35 352.5 -45 373 -45 Z" style="fill: rgb(255, 127, 14);" trackID="1" class="track1" color="#ff7f0e"/><path d="M 141 20 C 120.5 20 120.5 -65 100 -65 V -50 C 120.5 -50 120.5 35 141 35 Z" style="fill: rgb(255, 127, 14);" trackID="1" class="track1" color="#ff7f0e"/><path d="M 101 5 C 80.5 5 80.5 35 60 35 V 50 C 80.5 50 80.5 20 101 20 Z" style="fill: rgb(255, 127, 14);" trackID="1" class="track1" color="#ff7f0e"/><path d="M 4755 90 C 4729.5 90 4729.5 50 4704 50 V 65 C 4729.5 65 4729.5 105 4755 105 Z" style="fill: rgb(44, 160, 44);" trackID="2" class="track2" color="#2ca02c"/><path d="M 4089 50 C 4063.5 50 4063.5 65 4038 65 V 80 C 4063.5 80 4063.5 65 4089 65 Z" style="fill: rgb(44, 160, 44);" trackID="2" class="track2" color="#2ca02c"/><path d="M 4039 90 C 4013.5 90 4013.5 50 3988 50 V 65 C 4013.5 65 4013.5 105 4039 105 Z" style="fill: rgb(44, 160, 44);" trackID="2" class="track2" color="#2ca02c"/><path d="M 4805 80 C 4779.5 80 4779.5 175 4754 175 V 190 C 4779.5 190 4779.5 95 4805 95 Z" style="fill: rgb(214, 39, 40);" trackID="3" class="track3" color="#d62728"/><path d="M 4755 200 C 4729.5 200 4729.5 65 4704 65 V 80 C 4729.5 80 4729.5 215 4755 215 Z" style="fill: rgb(214, 39, 40);" trackID="3" class="track3" color="#d62728"/><path d="M 4089 65 C 4063.5 65 4063.5 175 4038 175 V 190 C 4063.5 190 4063.5 80 4089 80 Z" style="fill: rgb(214, 39, 40);" trackID="3" class="track3" color="#d62728"/><path d="M 4039 200 C 4013.5 200 4013.5 65 3988 65 V 80 C 4013.5 80 4013.5 215 4039 215 Z" style="fill: rgb(214, 39, 40);" trackID="3" class="track3" color="#d62728"/><path id="492730" d="M 2355 20 Q 2355 11 2364 11 L 2404 11 Q 2413 11 2413 20 L 2413 80 Q 2413 89 2404 89 L 2364 89 Q 2355 89 2355 80 L 2355 20" style="fill: rgb(255, 255, 255); fill-opacity: 0.6; stroke: black; stroke-width: 2px;"><title>Node ID: 492730
Node Length: 6 bases
Haplotypes: 4
Aligned Reads: 0</title></path><path id="492725" d="M 2651 35 Q 2651 26 2660 26 Q 2669 26 2669 35 L 2669 80 Q 2669 89 2660 89 Q 2651 89 2651 80 L 2651 35" style="fill: rgb(255, 255, 255); fill-opacity: 0.6; stroke: black; stroke-width: 2px;"><title>Node ID: 492725
Node Length: 1 bases
Haplotypes: 3
Aligned Reads: 0</title></path><path id="1058795" d="M 4029 20 Q 4029 11 4038 11 Q 4047 11 4047 20 L 4047 50 Q 4047 59 4038 59 Q 4029 59 4029 50 L 4029 20" style="fill: rgb(255, 255, 255); fill-opacity: 0.6; stroke: black; stroke-width: 2px;"><title>Node ID: 1058795
Node Length: 1 bases
Haplotypes: 2
Aligned Reads: 0</title></path><path id="492739" d="M 955 35 Q 955 26 964 26 Q 973 26 973 35 L 973 80 Q 973 89 964 89 Q 955 89 955 80 L 955 35" style="fill: rgb(255, 255, 255); fill-opacity: 0.6; stroke: black; stroke-width: 2px;"><title>Node ID: 492739
Node Length: 1 bases
Haplotypes: 3
Aligned Reads: 0</title></path><path id="1092430" d="M 363 -5 Q 363 -14 372 -14 Q 381 -14 381 -5 L 381 10 Q 381 19 372 19 Q 363 19 363 10 L 363 -5" style="fill: rgb(255, 255, 255); fill-opacity: 0.6; stroke: black; stroke-width: 2px;"><title>Node ID: 1092430
Node Length: 1 bases
Haplotypes: 1
Aligned Reads: 0</title></path><path id="1092424" d="M 2435 -5 Q 2435 -14 2444 -14 Q 2453 -14 2453 -5 L 2453 10 Q 2453 19 2444 19 Q 2435 19 2435 10 L 2435 -5" style="fill: rgb(255, 255, 255); fill-opacity: 0.6; stroke: black; stroke-width: 2px;"><title>Node ID: 1092424
Node Length: 1 bases
Haplotypes: 1
Aligned Reads: 0</title></path><path id="492728" d="M 2475 20 Q 2475 11 2484 11 L 2500 11 Q 2509 11 2509 20 L 2509 80 Q 2509 89 2500 89 L 2484 89 Q 2475 89 2475 80 L 2475 20" style="fill: rgb(255, 255, 255); fill-opacity: 0.6; stroke: black; stroke-width: 2px;"><title>Node ID: 492728
Node Length: 3 bases
Haplotypes: 4
Aligned Reads: 0</title></path><path id="492734" d="M 1483 20 Q 1483 11 1492 11 L 1668 11 Q 1677 11 1677 20 L 1677 80 Q 1677 89 1668 89 L 1492 89 Q 1483 89 1483 80 L 1483 20" style="fill: rgb(255, 255, 255); fill-opacity: 0.6; stroke: black; stroke-width: 2px;"><title>Node ID: 492734
Node Length: 23 bases
Haplotypes: 4
Aligned Reads: 0</title></path><path id="1092422" d="M 2651 -5 Q 2651 -14 2660 -14 Q 2669 -14 2669 -5 L 2669 10 Q 2669 19 2660 19 Q 2651 19 2651 10 L 2651 -5" style="fill: rgb(255, 255, 255); fill-opacity: 0.6; stroke: black; stroke-width: 2px;"><title>Node ID: 1092422
Node Length: 1 bases
Haplotypes: 1
Aligned Reads: 0</title></path><path id="492743" d="M 91 35 Q 91 26 100 26 Q 109 26 109 35 L 109 80 Q 109 89 100 89 Q 91 89 91 80 L 91 35" style="fill: rgb(255, 255, 255); fill-opacity: 0.6; stroke: black; stroke-width: 2px;"><title>Node ID: 492743
Node Length: 1 bases
Haplotypes: 3
Aligned Reads: 0</title></path><path id="492737" d="M 1355 35 Q 1355 26 1364 26 Q 1373 26 1373 35 L 1373 80 Q 1373 89 1364 89 Q 1355 89 1355 80 L 1355 35" style="fill: rgb(255, 255, 255); fill-opacity: 0.6; stroke: black; stroke-width: 2px;"><title>Node ID: 492737
Node Length: 1 bases
Haplotypes: 3
Aligned Reads: 0</title></path><path id="492721" d="M 4745 120 Q 4745 111 4754 111 Q 4763 111 4763 120 L 4763 150 Q 4763 159 4754 159 Q 4745 159 4745 150 L 4745 120" style="fill: rgb(255, 255, 255); fill-opacity: 0.6; stroke: black; stroke-width: 2px;"><title>Node ID: 492721
Node Length: 1 bases
Haplotypes: 2
Aligned Reads: 0</title></path><path id="492720" d="M 4795 35 Q 4795 26 4804 26 L 5132 26 Q 5141 26 5141 35 L 5141 95 Q 5141 104 5132 104 L 4804 104 Q 4795 104 4795 95 L 4795 35" style="fill: rgb(255, 255, 255); fill-opacity: 0.6; stroke: black; stroke-width: 2px;"><title>Node ID: 492720
Node Length: 42 bases
Haplotypes: 4
Aligned Reads: 0</title></path><path id="492741" d="M 363 35 Q 363 26 372 26 Q 381 26 381 35 L 381 80 Q 381 89 372 89 Q 363 89 363 80 L 363 35" style="fill: rgb(255, 255, 255); fill-opacity: 0.6; stroke: black; stroke-width: 2px;"><title>Node ID: 492741
Node Length: 1 bases
Haplotypes: 3
Aligned Reads: 0</title></path><path id="492742" d="M 131 20 Q 131 11 140 11 L 332 11 Q 341 11 341 20 L 341 80 Q 341 89 332 89 L 140 89 Q 131 89 131 80 L 131 20" style="fill: rgb(255, 255, 255); fill-opacity: 0.6; stroke: black; stroke-width: 2px;"><title>Node ID: 492742
Node Length: 25 bases
Haplotypes: 4
Aligned Reads: 0</title></path><path id="1092428" d="M 1355 -5 Q 1355 -14 1364 -14 Q 1373 -14 1373 -5 L 1373 10 Q 1373 19 1364 19 Q 1355 19 1355 10 L 1355 -5" style="fill: rgb(255, 255, 255); fill-opacity: 0.6; stroke: black; stroke-width: 2px;"><title>Node ID: 1092428
Node Length: 1 bases
Haplotypes: 1
Aligned Reads: 0</title></path><path id="492740" d="M 403 20 Q 403 11 412 11 L 924 11 Q 933 11 933 20 L 933 80 Q 933 89 924 89 L 412 89 Q 403 89 403 80 L 403 20" style="fill: rgb(255, 255, 255); fill-opacity: 0.6; stroke: black; stroke-width: 2px;"><title>Node ID: 492740
Node Length: 65 bases
Haplotypes: 4
Aligned Reads: 0</title></path><path id="1058796" d="M 4745 20 Q 4745 11 4754 11 Q 4763 11 4763 20 L 4763 50 Q 4763 59 4754 59 Q 4745 59 4745 50 L 4745 20" style="fill: rgb(255, 255, 255); fill-opacity: 0.6; stroke: black; stroke-width: 2px;"><title>Node ID: 1058796
Node Length: 1 bases
Haplotypes: 2
Aligned Reads: 0</title></path><path id="1092423" d="M 2531 -5 Q 2531 -14 2540 -14 L 2548 -14 Q 2557 -14 2557 -5 L 2557 10 Q 2557 19 2548 19 L 2540 19 Q 2531 19 2531 10 L 2531 -5" style="fill: rgb(255, 255, 255); fill-opacity: 0.6; stroke: black; stroke-width: 2px;"><title>Node ID: 1092423
Node Length: 2 bases
Haplotypes: 1
Aligned Reads: 0</title></path><path id="1092427" d="M 1443 -5 Q 1443 -14 1452 -14 Q 1461 -14 1461 -5 L 1461 10 Q 1461 19 1452 19 Q 1443 19 1443 10 L 1443 -5" style="fill: rgb(255, 255, 255); fill-opacity: 0.6; stroke: black; stroke-width: 2px;"><title>Node ID: 1092427
Node Length: 1 bases
Haplotypes: 1
Aligned Reads: 0</title></path><path id="1092426" d="M 1699 -5 Q 1699 -14 1708 -14 Q 1717 -14 1717 -5 L 1717 10 Q 1717 19 1708 19 Q 1699 19 1699 10 L 1699 -5" style="fill: rgb(255, 255, 255); fill-opacity: 0.6; stroke: black; stroke-width: 2px;"><title>Node ID: 1092426
Node Length: 1 bases
Haplotypes: 1
Aligned Reads: 0</title></path><path id="492726" d="M 2579 20 Q 2579 11 2588 11 L 2620 11 Q 2629 11 2629 20 L 2629 80 Q 2629 89 2620 89 L 2588 89 Q 2579 89 2579 80 L 2579 20" style="fill: rgb(255, 255, 255); fill-opacity: 0.6; stroke: black; stroke-width: 2px;"><title>Node ID: 492726
Node Length: 5 bases
Haplotypes: 4
Aligned Reads: 0</title></path><path id="492722" d="M 4079 20 Q 4079 11 4088 11 L 4704 11 Q 4713 11 4713 20 L 4713 80 Q 4713 89 4704 89 L 4088 89 Q 4079 89 4079 80 L 4079 20" style="fill: rgb(255, 255, 255); fill-opacity: 0.6; stroke: black; stroke-width: 2px;"><title>Node ID: 492722
Node Length: 78 bases
Haplotypes: 4
Aligned Reads: 0</title></path><path id="1092425" d="M 2315 -5 Q 2315 -14 2324 -14 Q 2333 -14 2333 -5 L 2333 10 Q 2333 19 2324 19 Q 2315 19 2315 10 L 2315 -5" style="fill: rgb(255, 255, 255); fill-opacity: 0.6; stroke: black; stroke-width: 2px;"><title>Node ID: 1092425
Node Length: 1 bases
Haplotypes: 1
Aligned Reads: 0</title></path><path id="492736" d="M 1395 20 Q 1395 11 1404 11 L 1412 11 Q 1421 11 1421 20 L 1421 80 Q 1421 89 1412 89 L 1404 89 Q 1395 89 1395 80 L 1395 20" style="fill: rgb(255, 255, 255); fill-opacity: 0.6; stroke: black; stroke-width: 2px;"><title>Node ID: 492736
Node Length: 2 bases
Haplotypes: 4
Aligned Reads: 0</title></path><path id="492727" d="M 2531 35 Q 2531 26 2540 26 L 2548 26 Q 2557 26 2557 35 L 2557 80 Q 2557 89 2548 89 L 2540 89 Q 2531 89 2531 80 L 2531 35" style="fill: rgb(255, 255, 255); fill-opacity: 0.6; stroke: black; stroke-width: 2px;"><title>Node ID: 492727
Node Length: 2 bases
Haplotypes: 3
Aligned Reads: 0</title></path><path id="492732" d="M 1739 20 Q 1739 11 1748 11 L 2284 11 Q 2293 11 2293 20 L 2293 80 Q 2293 89 2284 89 L 1748 89 Q 1739 89 1739 80 L 1739 20" style="fill: rgb(255, 255, 255); fill-opacity: 0.6; stroke: black; stroke-width: 2px;"><title>Node ID: 492732
Node Length: 68 bases
Haplotypes: 4
Aligned Reads: 0</title></path><path id="492738" d="M 995 20 Q 995 11 1004 11 L 1324 11 Q 1333 11 1333 20 L 1333 80 Q 1333 89 1324 89 L 1004 89 Q 995 89 995 80 L 995 20" style="fill: rgb(255, 255, 255); fill-opacity: 0.6; stroke: black; stroke-width: 2px;"><title>Node ID: 492738
Node Length: 41 bases
Haplotypes: 4
Aligned Reads: 0</title></path><path id="492744" d="M 11 20 Q 11 11 20 11 L 60 11 Q 69 11 69 20 L 69 80 Q 69 89 60 89 L 20 89 Q 11 89 11 80 L 11 20" style="fill: rgb(255, 255, 255); fill-opacity: 0.6; stroke: black; stroke-width: 2px;"><title>Node ID: 492744
Node Length: 6 bases
Haplotypes: 4
Aligned Reads: 0</title></path><path id="492723" d="M 4029 120 Q 4029 111 4038 111 Q 4047 111 4047 120 L 4047 150 Q 4047 159 4038 159 Q 4029 159 4029 150 L 4029 120" style="fill: rgb(255, 255, 255); fill-opacity: 0.6; stroke: black; stroke-width: 2px;"><title>Node ID: 492723
Node Length: 1 bases
Haplotypes: 2
Aligned Reads: 0</title></path><path id="1092429" d="M 955 -5 Q 955 -14 964 -14 Q 973 -14 973 -5 L 973 10 Q 973 19 964 19 Q 955 19 955 10 L 955 -5" style="fill: rgb(255, 255, 255); fill-opacity: 0.6; stroke: black; stroke-width: 2px;"><title>Node ID: 1092429
Node Length: 1 bases
Haplotypes: 1
Aligned Reads: 0</title></path><path id="492731" d="M 2315 35 Q 2315 26 2324 26 Q 2333 26 2333 35 L 2333 80 Q 2333 89 2324 89 Q 2315 89 2315 80 L 2315 35" style="fill: rgb(255, 255, 255); fill-opacity: 0.6; stroke: black; stroke-width: 2px;"><title>Node ID: 492731
Node Length: 1 bases
Haplotypes: 3
Aligned Reads: 0</title></path><path id="492724" d="M 2691 20 Q 2691 11 2700 11 L 3988 11 Q 3997 11 3997 20 L 3997 80 Q 3997 89 3988 89 L 2700 89 Q 2691 89 2691 80 L 2691 20" style="fill: rgb(255, 255, 255); fill-opacity: 0.6; stroke: black; stroke-width: 2px;"><title>Node ID: 492724
Node Length: 162 bases
Haplotypes: 4
Aligned Reads: 0</title></path><path id="492733" d="M 1699 35 Q 1699 26 1708 26 Q 1717 26 1717 35 L 1717 80 Q 1717 89 1708 89 Q 1699 89 1699 80 L 1699 35" style="fill: rgb(255, 255, 255); fill-opacity: 0.6; stroke: black; stroke-width: 2px;"><title>Node ID: 492733
Node Length: 1 bases
Haplotypes: 3
Aligned Reads: 0</title></path><path id="492735" d="M 1443 35 Q 1443 26 1452 26 Q 1461 26 1461 35 L 1461 80 Q 1461 89 1452 89 Q 1443 89 1443 80 L 1443 35" style="fill: rgb(255, 255, 255); fill-opacity: 0.6; stroke: black; stroke-width: 2px;"><title>Node ID: 492735
Node Length: 1 bases
Haplotypes: 3
Aligned Reads: 0</title></path><path id="1092431" d="M 91 -35 Q 91 -44 100 -44 Q 109 -44 109 -35 L 109 -20 Q 109 -11 100 -11 Q 91 -11 91 -20 L 91 -35" style="fill: rgb(255, 255, 255); fill-opacity: 0.6; stroke: black; stroke-width: 2px;"><title>Node ID: 1092431
Node Length: 1 bases
Haplotypes: 1
Aligned Reads: 0</title></path><path id="492729" d="M 2435 35 Q 2435 26 2444 26 Q 2453 26 2453 35 L 2453 80 Q 2453 89 2444 89 Q 2435 89 2435 80 L 2435 35" style="fill: rgb(255, 255, 255); fill-opacity: 0.6; stroke: black; stroke-width: 2px;"><title>Node ID: 492729
Node Length: 1 bases
Haplotypes: 3
Aligned Reads: 0</title></path><text x="2360" y="24" font-family="Courier, &quot;Lucida Console&quot;, monospace" font-size="14px" fill="black" style="pointer-events: none;">GAGTGC</text><text x="2656" y="39" font-family="Courier, &quot;Lucida Console&quot;, monospace" font-size="14px" fill="black" style="pointer-events: none;">G</text><text x="4034" y="24" font-family="Courier, &quot;Lucida Console&quot;, monospace" font-size="14px" fill="black" style="pointer-events: none;">C</text><text x="960" y="39" font-family="Courier, &quot;Lucida Console&quot;, monospace" font-size="14px" fill="black" style="pointer-events: none;">A</text><text x="368" y="-1" font-family="Courier, &quot;Lucida Console&quot;, monospace" font-size="14px" fill="black" style="pointer-events: none;">T</text><text x="2440" y="-1" font-family="Courier, &quot;Lucida Console&quot;, monospace" font-size="14px" fill="black" style="pointer-events: none;">G</text><text x="2480" y="24" font-family="Courier, &quot;Lucida Console&quot;, monospace" font-size="14px" fill="black" style="pointer-events: none;">ACG</text><text x="1488" y="24" font-family="Courier, &quot;Lucida Console&quot;, monospace" font-size="14px" fill="black" style="pointer-events: none;">GGCCCCGAGTCTTGGGAGGACCC</text><text x="2656" y="-1" font-family="Courier, &quot;Lucida Console&quot;, monospace" font-size="14px" fill="black" style="pointer-events: none;">A</text><text x="96" y="39" font-family="Courier, &quot;Lucida Console&quot;, monospace" font-size="14px" fill="black" style="pointer-events: none;">G</text><text x="1360" y="39" font-family="Courier, &quot;Lucida Console&quot;, monospace" font-size="14px" fill="black" style="pointer-events: none;">G</text><text x="4750" y="124" font-family="Courier, &quot;Lucida Console&quot;, monospace" font-size="14px" fill="black" style="pointer-events: none;">C</text><text x="4800" y="39" font-family="Courier, &quot;Lucida Console&quot;, monospace" font-size="14px" fill="black" style="pointer-events: none;">CGAGGCCTCCTCCCGCCGTTCGGCGGAAGGAAGTAAAGATGA</text><text x="368" y="39" font-family="Courier, &quot;Lucida Console&quot;, monospace" font-size="14px" fill="black" style="pointer-events: none;">C</text><text x="136" y="24" font-family="Courier, &quot;Lucida Console&quot;, monospace" font-size="14px" fill="black" style="pointer-events: none;">GCTACGGCTGGGGCCAAAAGTATTT</text><text x="1360" y="-1" font-family="Courier, &quot;Lucida Console&quot;, monospace" font-size="14px" fill="black" style="pointer-events: none;">T</text><text x="408" y="24" font-family="Courier, &quot;Lucida Console&quot;, monospace" font-size="14px" fill="black" style="pointer-events: none;">TCTTGCCATGACAAACCGCTGACACTAGGGCTTCCCTAGCAGATATGCGGTGCAAAAAGTATGAA</text><text x="4750" y="24" font-family="Courier, &quot;Lucida Console&quot;, monospace" font-size="14px" fill="black" style="pointer-events: none;">C</text><text x="2536" y="-1" font-family="Courier, &quot;Lucida Console&quot;, monospace" font-size="14px" fill="black" style="pointer-events: none;">TC</text><text x="1448" y="-1" font-family="Courier, &quot;Lucida Console&quot;, monospace" font-size="14px" fill="black" style="pointer-events: none;">C</text><text x="1704" y="-1" font-family="Courier, &quot;Lucida Console&quot;, monospace" font-size="14px" fill="black" style="pointer-events: none;">A</text><text x="2584" y="24" font-family="Courier, &quot;Lucida Console&quot;, monospace" font-size="14px" fill="black" style="pointer-events: none;">CACCC</text><text x="4084" y="24" font-family="Courier, &quot;Lucida Console&quot;, monospace" font-size="14px" fill="black" style="pointer-events: none;">TGTAAGACCGATAAGCAGCGCCGCGACCGATGCCGGCCGTCCTGCGACGCTCGCCGTACGGCGACTGGACGAGGCACC</text><text x="2320" y="-1" font-family="Courier, &quot;Lucida Console&quot;, monospace" font-size="14px" fill="black" style="pointer-events: none;">T</text><text x="1400" y="24" font-family="Courier, &quot;Lucida Console&quot;, monospace" font-size="14px" fill="black" style="pointer-events: none;">CC</text><text x="2536" y="39" font-family="Courier, &quot;Lucida Console&quot;, monospace" font-size="14px" fill="black" style="pointer-events: none;">TC</text><text x="1744" y="24" font-family="Courier, &quot;Lucida Console&quot;, monospace" font-size="14px" fill="black" style="pointer-events: none;">AAGTCCTAAGAAGGGGGCCGCTCTCGCAAGAGGGACCTTAAGGACGTAGGCCAGTGGACCCTGCTGCT</text><text x="1000" y="24" font-family="Courier, &quot;Lucida Console&quot;, monospace" font-size="14px" fill="black" style="pointer-events: none;">CACGACCTTCGCCACGTCCTCCGCGAGCCCCAGACCGACCC</text><text x="16" y="24" font-family="Courier, &quot;Lucida Console&quot;, monospace" font-size="14px" fill="black" style="pointer-events: none;">TCACTG</text><text x="4034" y="124" font-family="Courier, &quot;Lucida Console&quot;, monospace" font-size="14px" fill="black" style="pointer-events: none;">T</text><text x="960" y="-1" font-family="Courier, &quot;Lucida Console&quot;, monospace" font-size="14px" fill="black" style="pointer-events: none;">G</text><text x="2320" y="39" font-family="Courier, &quot;Lucida Console&quot;, monospace" font-size="14px" fill="black" style="pointer-events: none;">C</text><text x="2696" y="24" font-family="Courier, &quot;Lucida Console&quot;, monospace" font-size="14px" fill="black" style="pointer-events: none;">CACAGCTTGCACCCCTGCGTAAGAAAGAGCAAAAGTCAGCTTCCTGCAGAAAGCGGCCTGCACCACCGCAAGTGACGCTCGGACTGCGTCCAGACACAGAGGGGCCTATGGGCGCTTCAGTACCTCCAGGGGCGCGTCGAGGCGCGCGAGGAGCGTATCTCT</text><text x="1704" y="39" font-family="Courier, &quot;Lucida Console&quot;, monospace" font-size="14px" fill="black" style="pointer-events: none;">C</text><text x="1448" y="39" font-family="Courier, &quot;Lucida Console&quot;, monospace" font-size="14px" fill="black" style="pointer-events: none;">G</text><text x="96" y="-31" font-family="Courier, &quot;Lucida Console&quot;, monospace" font-size="14px" fill="black" style="pointer-events: none;">C</text><text x="2440" y="39" font-family="Courier, &quot;Lucida Console&quot;, monospace" font-size="14px" fill="black" style="pointer-events: none;">T</text><line x1="0" y1="-75" x2="5152" y2="-75" stroke-width="1" stroke="black"/><text x="24" y="-78" font-family="Courier, &quot;Lucida Console&quot;, monospace" font-size="12px" fill="black" style="pointer-events: none;">|1069760</text><text x="248" y="-78" font-family="Courier, &quot;Lucida Console&quot;, monospace" font-size="12px" fill="black" style="pointer-events: none;">|1069780</text><text x="472" y="-78" font-family="Courier, &quot;Lucida Console&quot;, monospace" font-size="12px" fill="black" style="pointer-events: none;">|1069800</text><text x="632" y="-78" font-family="Courier, &quot;Lucida Console&quot;, monospace" font-size="12px" fill="black" style="pointer-events: none;">|1069820</text><text x="792" y="-78" font-family="Courier, &quot;Lucida Console&quot;, monospace" font-size="12px" fill="black" style="pointer-events: none;">|1069840</text><text x="1016" y="-78" font-family="Courier, &quot;Lucida Console&quot;, monospace" font-size="12px" fill="black" style="pointer-events: none;">|1069860</text><text x="1176" y="-78" font-family="Courier, &quot;Lucida Console&quot;, monospace" font-size="12px" fill="black" style="pointer-events: none;">|1069880</text><text x="1400" y="-78" font-family="Courier, &quot;Lucida Console&quot;, monospace" font-size="12px" fill="black" style="pointer-events: none;">|1069900</text><text x="1624" y="-78" font-family="Courier, &quot;Lucida Console&quot;, monospace" font-size="12px" fill="black" style="pointer-events: none;">|1069920</text><text x="1848" y="-78" font-family="Courier, &quot;Lucida Console&quot;, monospace" font-size="12px" fill="black" style="pointer-events: none;">|1069940</text><text x="2008" y="-78" font-family="Courier, &quot;Lucida Console&quot;, monospace" font-size="12px" fill="black" style="pointer-events: none;">|1069960</text><text x="2168" y="-78" font-family="Courier, &quot;Lucida Console&quot;, monospace" font-size="12px" fill="black" style="pointer-events: none;">|1069980</text><text x="2392" y="-78" font-family="Courier, &quot;Lucida Console&quot;, monospace" font-size="12px" fill="black" style="pointer-events: none;">|1070000</text><text x="2744" y="-78" font-family="Courier, &quot;Lucida Console&quot;, monospace" font-size="12px" fill="black" style="pointer-events: none;">|1070020</text><text x="2904" y="-78" font-family="Courier, &quot;Lucida Console&quot;, monospace" font-size="12px" fill="black" style="pointer-events: none;">|1070040</text><text x="3064" y="-78" font-family="Courier, &quot;Lucida Console&quot;, monospace" font-size="12px" fill="black" style="pointer-events: none;">|1070060</text><text x="3224" y="-78" font-family="Courier, &quot;Lucida Console&quot;, monospace" font-size="12px" fill="black" style="pointer-events: none;">|1070080</text><text x="3384" y="-78" font-family="Courier, &quot;Lucida Console&quot;, monospace" font-size="12px" fill="black" style="pointer-events: none;">|1070100</text><text x="3544" y="-78" font-family="Courier, &quot;Lucida Console&quot;, monospace" font-size="12px" fill="black" style="pointer-events: none;">|1070120</text><text x="3704" y="-78" font-family="Courier, &quot;Lucida Console&quot;, monospace" font-size="12px" fill="black" style="pointer-events: none;">|1070140</text><text x="3864" y="-78" font-family="Courier, &quot;Lucida Console&quot;, monospace" font-size="12px" fill="black" style="pointer-events: none;">|1070160</text><text x="4108" y="-78" font-family="Courier, &quot;Lucida Console&quot;, monospace" font-size="12px" fill="black" style="pointer-events: none;">|1070180</text><text x="4268" y="-78" font-family="Courier, &quot;Lucida Console&quot;, monospace" font-size="12px" fill="black" style="pointer-events: none;">|1070200</text><text x="4428" y="-78" font-family="Courier, &quot;Lucida Console&quot;, monospace" font-size="12px" fill="black" style="pointer-events: none;">|1070220</text><text x="4588" y="-78" font-family="Courier, &quot;Lucida Console&quot;, monospace" font-size="12px" fill="black" style="pointer-events: none;">|1070240</text><text x="4832" y="-78" font-family="Courier, &quot;Lucida Console&quot;, monospace" font-size="12px" fill="black" style="pointer-events: none;">|1070260</text><text x="4992" y="-78" font-family="Courier, &quot;Lucida Console&quot;, monospace" font-size="12px" fill="black" style="pointer-events: none;">|1070280</text></g></svg>