1105711
12549
12548
12547
12546
12545
12544
12543
1105710
1105709
12541
12540
12539
12538
12537
12536
12535
12534
12533
12532
12531
12530
12529
12528
12527
12526
12525
12524
1056040
12522
12521
12520
12519
12518
12517
12516
1056039
12514
12513
12512
12511
12510
12509
12508
1056038
12506
12505
12504
12503
12502
12501
12500
1056037
12498
1056036
12496
1056035
12493
1056034
12491
1056033
12489
12488
12487
12486
12485
12484
12483
12482
12481
12480
12479
12478
12477
12476
12475
12474
12473
1137928
1137927
12523
12515
1069746
1069745
12499
12490
1069744
1069743
1069742
1069741
711088
1069740
711086
1142562
1142561
1142559